Hs,3.5,4.5,5.5,6.5,7.5,8.5,9.5,10.5,11.5,12.5,13.5,14.5,15.5,16.5
0.5,4.6899596979775206e-23,1.7949348490149568e-16,1.1458252646461858e-12,8.582167341371677e-11,4.3212047504326366e-10,5.371982623976612e-10,2.706753734026e-10,4.6057038790502846e-11,2.584612191534178e-12,4.71118722822084e-14,2.755964600109048e-16,5.132744773991833e-19,3.0281722781811517e-22,6.219047130219919e-26
1.5,2.0632830757579256e-23,5.803088215700975e-14,3.897180453186782e-08,4.691833750533255e-05,0.0007602304149179029,0.001244709953493139,0.0009054813069376082,0.00028163377361951116,3.7184819649704034e-05,2.084118095352339e-06,4.9585496831450906e-08,5.007981473809613e-10,2.1470712564160094e-12,3.907562220310484e-15
2.5,1.695315718004756e-29,2.846626372997725e-17,2.384081430898571e-09,8.535356851614377e-05,0.011195191003091048,0.04610518866670733,0.04790590053245001,0.028776866462611347,0.009743309378158916,0.0018594220750310498,0.00020001288336876638,1.2126806756063103e-05,4.144226101805748e-07,7.98268376134686e-09
3.5,4.0779281201939025e-39,1.5048995860526205e-23,4.810744979361312e-13,1.3188282716319424e-06,0.0030695132108052594,0.06004686730433829,0.09774285871598616,0.07727497858660028,0.034912898026230876,0.0089981828904668,0.0013229567356934202,0.00011095793793582424,5.308759144004186e-06,1.4489372464340602e-07
4.5,8.405805508689888e-52,3.094353785856582e-32,1.390709706658019e-18,8.842650677897041e-10,9.217464806960195e-05,0.018252700023966766,0.07956698953662086,0.08074788824926564,0.04705834710469857,0.015463606788986005,0.0028651908826707612,0.00029934013954700247,1.7633762477070294e-05,5.857248503737712e-07
5.5,6.5366351470353396e-68,1.3917528804742986e-43,4.0244536192590896e-26,2.1755416982823335e-14,3.0263723316913854e-07,0.0014912502803729822,0.03582867329446848,0.05777523186894502,0.04367801853651068,0.018220537440143608,0.004192990582159667,0.0005322933496736803,3.7277144989856854e-05,1.440120043230996e-06
6.5,4.038010540953855e-88,3.842424091172031e-58,4.22174326016094e-36,8.903382503579693e-21,5.991326022922073e-11,2.138570632266042e-05,0.006731083630040851,0.031055257403611935,0.030489438966928937,0.01629646679999328,0.004648916516346198,0.0007078224066384187,5.751897437061976e-05,2.494664968491672e-06
7.5,2.71052013359601e-113,1.2484149493373283e-76,4.156083504696608e-49,2.0453200165905598e-29,3.043145305717227e-16,2.799633918155226e-08,0.0003257089231251852,0.009800328620084273,0.015594224673901801,0.010942129703631323,0.003915218564434803,0.0007143749964094382,6.646799236274101e-05,3.1536606447412266e-06
8.5,1.9654628168693868e-144,7.065409294985e-100,8.10275466214634e-66,7.616552254758335e-41,1.50772465538317e-23,1.6148456703856007e-12,2.404323424578254e-06,0.001278542388385928,0.0062388602180507,0.005844979846508173,0.002696046039544733,0.0005971742036173139,6.351908340739475e-05,3.2444183914558076e-06
9.5,9.250009406120609e-183,6.699844244628424e-129,4.580255928033137e-87,9.766559183491949e-56,2.1465673703099325e-33,1.6070258109766738e-18,1.354256308345313e-09,4.245246021419514e-05,0.0016358863782749609,0.002552566875637586,0.0015896508803799985,0.0004401064915910767,5.416829773154487e-05,2.963903059557214e-06
10.5,9.167326313810184e-230,6.035576655296075e-165,7.010549120310768e-114,6.271681857570823e-75,1.886497568330149e-46,8.329333592790891e-27,2.3566091997522195e-14,1.8652185141132698e-07,0.00018029273730730817,0.0009291260642458345,0.0008118121976194288,0.0002951613804129181,4.327337838259134e-05,2.558228780966169e-06
11.5,2.9569876202990697e-287,1.5512074925450836e-209,1.581561406526838e-147,1.8631066335892474e-99,1.5075251459786473e-63,4.980882862777555e-38,3.994870570492079e-21,4.6237402705519146e-11,4.591115210309046e-06,0.00023249665359029555,0.00035244200770618943,0.00018144848954513396,3.33305647627097e-05,2.1845179230680315e-06
12.5,0.0,1.5649654007786007e-264,1.473668420188678e-189,1.3519971271961598e-130,1.0127393055283808e-85,5.190753646750189e-53,1.5255940093527631e-30,2.1547073169171e-16,1.2255846217592862e-08,2.3527131185615688e-05,0.00012774098180663737,0.00010006903715330568,2.4919371678767275e-05,1.9006513502104066e-06
13.5,0.0,0.0,6.962708091514766e-242,6.302810946563649e-170,2.953384661831016e-114,8.804768162837736e-73,2.052629397253166e-43,4.5991799987377306e-24,1.2173348249994822e-12,4.678234596551087e-07,3.208328215962314e-05,4.654421030070116e-05,1.7650424992431867e-05,1.695376820089837e-06
14.5,0.0,0.0,7.430890316629657e-307,2.1090517163752094e-219,9.445787521431237e-151,1.2593222737598766e-98,9.428151941335702e-61,7.47739703754272e-35,1.1850909902155388e-18,7.080656767159678e-10,3.008563523105558e-06,1.714951454750547e-05,1.1242712643807677e-05,1.533661100745174e-06
15.5,0.0,0.0,0.0,1.9338294507046498e-281,3.4060314174341836e-197,3.7400955113830115e-132,7.81242662800052e-84,9.47161588052512e-50,2.0335868305805767e-27,2.3592150735778775e-14,4.512364453755605e-08,4.341484725678986e-06,5.870772526846048e-06,1.3564489501556607e-06
16.5,0.0,0.0,0.0,0.0,4.566542104831533e-256,2.211746685126169e-175,2.8524437532033227e-114,5.136560150496466e-70,6.772375815516463e-40,3.428174373246001e-21,3.493636681121238e-11,3.758593453234277e-07,2.238440451318368e-06,1.0870623019135478e-06
17.5,0.0,0.0,0.0,0.0,0.0,7.506537060561387e-231,4.1774849240126976e-154,2.950654643859341e-97,2.558038722129183e-57,2.632316483930913e-31,3.1093410488714157e-16,4.0771331737997474e-09,5.739244495040198e-07,6.890639768667924e-07
18.5,0.0,0.0,0.0,0.0,0.0,9.034630567114395e-302,6.282318932246389e-206,1.5863249083131293e-133,2.8170997936182353e-81,6.814368082900292e-46,4.3484808047460356e-24,1.417795134092482e-12,4.5743427703074915e-08,2.8285155458317683e-07
