Hs,3.5,4.5,5.5,6.5,7.5,8.5,9.5,10.5,11.5,12.5,13.5,14.5,15.5,16.5
0.5,3.3440886363834654e-09,7.5219262815471145e-06,0.0009235706609025157,0.012635320015668645,0.037507272689787284,0.0463281720638345,0.03338935326697484,0.01199599276835123,0.0021157314538922936,0.00018415761558059537,7.955221090088202e-06,1.714454082682568e-07,1.8506454403328649e-09,1.002511520735094e-11
1.5,4.024352896870151e-14,1.854576795224536e-08,7.406941198420866e-05,0.007511128097389788,0.056659210928086845,0.09314549224218086,0.08508659142631737,0.04396226163169805,0.012342466188999668,0.001882898394320535,0.0001560827266430184,7.030493655254048e-06,1.7207580791839854e-07,2.2885311767277025e-09
2.5,2.533125702046261e-20,2.3438589960217442e-12,4.372087267427525e-07,0.0005924254122195826,0.02101217312250739,0.07029195321710979,0.07939877685815941,0.05890388160850199,0.02776086655927032,0.008311532819243022,0.0015808411460363425,0.00019100922383136784,1.4661535289150412e-05,7.149300665074859e-07
3.5,1.5439503081692092e-29,2.369102514978982e-18,1.0614195379934424e-10,6.512703390524135e-06,0.002566993853250052,0.03048568619417442,0.05116736440204967,0.046050528704919366,0.02779485281247656,0.011142970837948043,0.002967183920015552,0.0005248011729883774,6.165268354977039e-05,4.810785907197631e-06
4.5,3.1903279640884495e-43,1.7176676925993374e-27,2.01274412635091e-16,3.3869138870118903e-09,5.400158031528022e-05,0.0053828970435869,0.02213367499272576,0.024048703925884186,0.017121139159569365,0.008014385305430886,0.002466631981766101,0.0004991545997327855,6.641441874994473e-05,5.8101354081219086e-06
5.5,1.19965079398731e-63,2.0308131641055194e-41,2.1560338069685313e-25,1.484846977937813e-14,6.861489976355129e-08,0.00022005732637341233,0.005066452324548384,0.008661495458015265,0.0072669244933329215,0.0039056685062583366,0.0013416233954798933,0.00029454820288915497,4.133068877681802e-05,3.7066315629315416e-06
6.5,1.9191967388926089e-94,8.89185275033293e-63,1.8502326206450857e-39,3.2737261537478144e-23,9.325259847828956e-13,8.096601284840347e-07,0.00040568450219485825,0.002220948926854502,0.0022699742282151366,0.0014056876307688515,0.0005295418992178959,0.00012135437635053444,1.6918200414921054e-05,1.4348169437037575e-06
7.5,1.3265945759544277e-141,5.870919435255577e-96,1.0277209347386722e-61,3.097447135489761e-37,6.996013810855169e-21,5.154350018586118e-11,5.391779061267098e-06,0.00034856488925973095,0.0006058285716496147,0.0004442521593969987,0.00018376346394111738,4.287840431544825e-05,5.643751545085439e-06,4.19031800642938e-07
8.5,3.119877563694373e-215,2.290660806102302e-148,2.2555112375520945e-97,4.2139369192239123e-60,2.1134293689598734e-34,4.02570519513947e-18,4.120487188096507e-09,3.206309094742358e-05,0.00026835535929431507,0.0002463220601406588,0.00011475439577422954,2.702691484599964e-05,3.217990342017621e-06,1.9370200660049595e-07
9.5,0.0,3.3677168709859305e-234,9.104985898678619e-157,4.6262715665248316e-99,3.510166144758777e-58,3.160133967995778e-31,2.6822617139836943e-15,1.7054979738830188e-07,6.454940312476947e-05,0.00011267970516753245,6.278460199613002e-05,1.5139336762975987e-05,1.579817114464668e-06,7.134327465103774e-08
10.5,0.0,0.0,2.8641668916948034e-259,9.527506806550466e-168,2.2146714769053408e-101,3.9666832570763446e-56,6.036329926690127e-28,8.605670605192351e-13,1.2673653863443538e-06,2.126000716914088e-05,1.5722743867102392e-05,4.08090853929227e-06,3.683969883887014e-07,1.1566606703129627e-08
11.5,0.0,0.0,0.0,0.0,0.0,0.0,0.0,0.0,0.0,0.0,0.0,0.0,0.0,0.0
12.5,0.0,0.0,0.0,0.0,0.0,0.0,0.0,0.0,0.0,0.0,0.0,0.0,0.0,0.0
13.5,0.0,0.0,0.0,0.0,0.0,0.0,0.0,0.0,0.0,0.0,0.0,0.0,0.0,0.0
14.5,0.0,0.0,0.0,0.0,0.0,0.0,0.0,0.0,0.0,0.0,0.0,0.0,0.0,0.0
15.5,0.0,0.0,0.0,0.0,0.0,0.0,0.0,0.0,0.0,0.0,0.0,0.0,0.0,0.0
16.5,0.0,0.0,0.0,0.0,0.0,0.0,0.0,0.0,0.0,0.0,0.0,0.0,0.0,0.0
17.5,0.0,0.0,0.0,0.0,0.0,0.0,0.0,0.0,0.0,0.0,0.0,0.0,0.0,0.0
18.5,0.0,0.0,0.0,0.0,0.0,0.0,0.0,0.0,0.0,0.0,0.0,0.0,0.0,0.0
