Hs,3.5,4.5,5.5,6.5,7.5,8.5,9.5,10.5,11.5,12.5,13.5,14.5,15.5,16.5
0.5,6.947124126112609e-15,2.6046028098165953e-08,1.8550618108626837e-05,0.0001304753702881637,0.00014558614744464917,8.668181590083327e-05,3.0232271306178432e-05,6.167984758837245e-06,7.347467898093287e-07,5.099474097610392e-08,2.0574937896470046e-09,4.81542485403061e-11,6.524385675560845e-13,5.108242120900404e-15
1.5,8.303123092186992e-23,1.3169269538782784e-10,0.00015056109023273587,0.01755375255269715,0.02928278043935706,0.020415323273815313,0.008129680702165873,0.0018491153064060617,0.00024023029561681303,1.7826448760777018e-05,7.55570810995817e-07,1.829189864081924e-08,2.5293893039058564e-10,1.9977716533314833e-12
2.5,5.408413906399209e-36,1.6735849996905595e-17,3.3331912685925736e-07,0.010662876083049085,0.13672792196223907,0.1329010759059032,0.07246676459241488,0.022569530516692266,0.004014943670283085,0.0004079525630297304,2.3676262896061306e-05,7.848558856596198e-07,1.4860723827948045e-08,1.6071754334277131e-10
3.5,8.784978990849136e-57,8.92610171597889e-30,1.9324667200587418e-13,4.294412208390014e-05,0.047189934337742746,0.1235082746649207,0.09218559933357934,0.03930098099044671,0.009570111045015988,0.001331079031262741,0.00010574600903740718,4.798410603004621e-06,1.2436669958469457e-07,1.8411284510780899e-09
4.5,2.5791091646000665e-87,6.384701085111056e-49,3.2676006136902442e-24,3.584591198256826e-10,0.0008739312640599436,0.04909605606483531,0.05520203607512717,0.03136257797282255,0.009901161661200012,0.0017369138929128885,0.00016931216626467967,9.170980788725265e-06,2.760330861514409e-07,4.616621165501162e-09
5.5,5.61683140001247e-131,1.7614196389170022e-77,2.403172840706942e-41,3.6331939799018075e-19,1.550258957045906e-07,0.004755133084972977,0.026705120749750885,0.01687693281039878,0.0034624320987478507,0.000229646751417469,4.924142861557847e-06,3.41344004912387e-08,7.64971423908419e-11,5.542292489869328e-14
6.5,9.18062001177783e-193,2.490410091783059e-119,9.091969538375355e-68,3.28672878989309e-34,8.65603695720697e-15,1.2219521910642895e-05,0.006802988703277795,0.009291833288565622,0.0020015586234642304,6.99000243349456e-05,3.9575685499872984e-07,3.6326342402334253e-10,5.405763046013629e-14,1.3041707178394673e-18
7.5,1.8414648621076128e-279,9.164861890725489e-180,1.6803816363181472e-107,2.947245616633972e-58,1.2839793048571e-27,3.607778740360725e-11,0.00016977308178587271,0.003474175260624283,0.0018378329463248648,0.0001206485022539137,9.518855401693685e-07,9.025981040596189e-10,1.0286106031741519e-13,1.4088166293193705e-18
8.5,0.0,3.666199453744388e-266,3.323346380136915e-166,1.6197859050359305e-95,4.9940790832101204e-49,1.1459411471234746e-21,2.302351442163336e-08,0.0004765150605092395,0.0011034464501735127,0.0002225104122349176,4.968292893486556e-06,1.2283491197140393e-08,3.3627472258048815e-12,1.0193525251997487e-16
9.5,0.0,0.0,5.778696785466242e-252,4.387844027683666e-152,1.8704888457551778e-83,3.2695871465127667e-40,1.7116531050924352e-16,1.9600845889181148e-06,0.00035860908639914833,0.00023603789425080226,1.7557627244114936e-05,1.4180416700266605e-07,1.2435155976720466e-10,1.1840023289489426e-14
10.5,0.0,0.0,0.0,9.22106742161761e-237,2.1916666451339993e-137,2.181468600339482e-71,6.159707038039217e-32,3.3424369725104064e-12,2.361097548039901e-05,0.00014443014672849301,3.6875507388427275e-05,1.0176164951652413e-06,3.035262474429841e-09,9.785304584802029e-13
11.5,0.0,0.0,0.0,0.0,1.2905467126976666e-220,2.7649267240798415e-122,1.3475990473915626e-59,1.5761092971134947e-24,4.6659698394814734e-09,3.6881525733322966e-05,3.4076205321375275e-05,3.2373161744360893e-06,3.32071397563715e-08,3.6778184310505947e-11
12.5,0.0,0.0,0.0,0.0,0.0,1.2242460739678277e-203,4.908972510566594e-107,1.8723358631003463e-48,2.197893520675807e-18,2.5693172922104557e-07,9.67773503708649e-06,3.166192714311513e-06,1.11817394010132e-07,4.2627492960142866e-10
13.5,0.0,0.0,0.0,0.0,0.0,0.0,3.7818067623929564e-186,3.912268250834538e-92,1.3935676445109493e-38,4.1762982059790264e-14,2.5728404001083654e-07,4.316012672852686e-07,5.243662878879762e-08,6.876561816672238e-10
14.5,0.0,0.0,0.0,0.0,0.0,0.0,0.0,0.0,0.0,0.0,0.0,0.0,0.0,0.0
15.5,0.0,0.0,0.0,0.0,0.0,0.0,0.0,0.0,0.0,0.0,0.0,0.0,0.0,0.0
16.5,0.0,0.0,0.0,0.0,0.0,0.0,0.0,0.0,0.0,0.0,0.0,0.0,0.0,0.0
17.5,0.0,0.0,0.0,0.0,0.0,0.0,0.0,0.0,0.0,0.0,0.0,0.0,0.0,0.0
18.5,0.0,0.0,0.0,0.0,0.0,0.0,0.0,0.0,0.0,0.0,0.0,0.0,0.0,0.0
