Hs,3.5,4.5,5.5,6.5,7.5,8.5,9.5,10.5,11.5,12.5,13.5,14.5,15.5,16.5
0.5,0.030876619337362736,0.09718289356085304,0.06780258836989259,0.02954474952304692,0.008149083609140186,0.0014204805884753102,0.00015619599177892445,1.0813653749044114e-05,4.704276510141136e-07,1.2835216781895902e-08,2.192409047648246e-10,2.3405962157562665e-12,1.5596318141307563e-14,7.093935226978991e-17
1.5,6.459806574215338e-10,0.08329900816283409,0.17160813897940486,0.10678395708324306,0.04095070128119221,0.009678406986628512,0.001409722469738301,0.00012654662518836278,7.000913591588846e-06,2.3869651120139557e-07,5.01562004678581e-09,6.495168046570343e-11,5.183741764213012e-13,2.5496673880599042e-15
2.5,2.1989954225041198e-29,6.204517153983036e-08,0.047475389126112044,0.08292415374151796,0.05208973622121368,0.02016556866138191,0.004811228616780091,0.0007074385462685469,6.41074718633893e-05,3.580270057848853e-06,1.2322820651709803e-07,2.6139162833562857e-09,3.417121538544711e-11,2.753064476905339e-13
3.5,2.4946428640123778e-55,1.2980375860735415e-21,2.176013316184692e-06,0.026648767719835372,0.03641535882466493,0.020113305187011175,0.006084409532288368,0.001008067417393579,9.14738298228781e-05,4.546113687860349e-06,1.2374277953167847e-07,1.8447417924159854e-09,1.5062166760057598e-11,6.735587175493926e-14
4.5,3.2339070268841535e-83,4.786855440422325e-40,6.961538504018014e-16,3.2664962333364544e-05,0.016239437750863624,0.015543848821692678,0.0031812140581328587,0.00014459830924207822,1.459719902302339e-06,3.2727425015931552e-09,1.6296342221094933e-12,1.8022059888748052e-16,4.426441342570206e-21,2.4145766197097934e-26
5.5,2.77081782952858e-110,1.72426787166921e-60,4.2974637501950033e-29,7.500472391195895e-12,0.0001602847136281482,0.007332986303549246,0.004159714950595595,0.000150005837386928,3.113100651658514e-07,3.7180787080093213e-11,2.5555501617205296e-16,1.0108591693151247e-22,2.301109650749341e-30,3.014563156042083e-39
6.5,6.65918968286932e-135,7.38850158961529e-81,4.2127451540583457e-44,2.655730818788777e-21,3.982439494649942e-09,0.0003056305789823872,0.0025826355514430334,0.000786687886061617,6.726566086482798e-06,1.5274174461202536e-09,9.210759929914e-15,1.4750493884732516e-21,6.27322758505091e-30,7.0851476951649935e-40
7.5,2.827495315328275e-156,7.893988915531042e-100,2.219380953201529e-59,2.9086076681454175e-32,8.22495643606518e-16,2.323028099578439e-07,0.0003033366866200538,0.0008476611061064217,0.00012180757755464039,3.5714258971774883e-07,2.1365953265202683e-11,2.608051711562606e-17,6.495661959403866e-25,3.300987856513701e-34
8.5,3.9297874320193146e-174,1.123824916699184e-116,6.7402611990246525e-74,1.2399259382496088e-43,1.0231709200017598e-23,5.538938361801847e-12,2.8768899756618284e-06,0.00020966735982490408,0.00028223919179606893,1.620135804047929e-05,1.761411439605397e-08,3.626982818050974e-13,1.4145082237412336e-19,1.0448182456593714e-27
9.5,1.5506537090963964e-188,4.342370790604391e-131,4.727018366818401e-87,1.2122960650777195e-54,4.4391910873775e-32,1.4066480249462145e-17,2.3375785643151443e-09,1.2346927097781328e-05,0.00012562502522262022,8.808933053283972e-05,1.7945717671985404e-06,6.787699844048772e-10,4.76659995300486e-15,6.214684076226401e-22
10.5,7.403699092895605e-200,3.7590219690580178e-143,1.1290783600917285e-98,6.129283252598613e-65,1.8371514536907248e-40,9.288448193263874e-24,2.4200122906702587e-13,9.926164289292219e-08,1.9581596525024944e-05,5.6758480548671664e-05,1.7740370396679626e-05,1.1342828575764976e-07,1.3394419163676427e-11,2.921260147186615e-17
11.5,2.000143422323534e-208,5.628927690863201e-153,1.1366833742898437e-108,2.9302309555721917e-74,1.7155836625393023e-48,4.05853089846134e-30,6.901951706106363e-18,1.5011368275064868e-10,7.428705585583667e-07,1.4881603077240226e-05,2.1147954745351754e-05,2.036480305728032e-06,3.6169049002647393e-09,1.1847835039553041e-13
12.5,1.3540218555826511e-214,9.405697755735833e-161,4.5170373665233056e-117,1.7314361554794727e-82,6.115644477650567e-56,2.2980196781313316e-36,1.0605565614911168e-22,6.940253299013161e-14,7.43482954588308e-09,1.5052676729310477e-06,6.649611799105069e-06,4.8904890672476964e-06,1.1623769767522091e-07,5.093656666143892e-11
13.5,1.0241840158268617e-218,1.0346716057768229e-166,5.58644920816412e-124,1.311516597154177e-89,1.089211372061372e-62,2.6034354221295353e-42,1.4570469471225596e-27,1.553417527399538e-17,2.566767924963886e-11,5.347669756342506e-08,1.1429255887147888e-06,2.038649475152093e-06,5.418101581706218e-07,2.8354346702736147e-09
14.5,3.9913693647703655e-221,4.250671122115983e-171,1.5250271125001603e-129,1.126280698053575e-95,1.0462350737008114e-68,7.469473779297464e-48,2.504340507024582e-32,2.4093723904070564e-21,4.06430415834133e-14,7.345218777653561e-10,8.690085971454095e-08,4.1125269222435494e-07,4.2984515668207816e-07,2.4087370136062226e-08
15.5,3.823642102477511e-222,3.6240032934611727e-174,6.057554448243214e-134,8.613582191421532e-101,5.026067877010037e-74,5.805121409954094e-53,6.401960849882663e-37,3.2517249904409515e-25,3.6693913267492096e-17,4.437455561768262e-12,2.7740488712129215e-09,4.3242883117727407e-08,8.108041397443606e-08,3.488772928415298e-08
16.5,4.312905271328673e-222,3.433129851514497e-176,2.1345445173069535e-137,4.10624391116665e-105,9.681411331648321e-79,1.10819674032435e-57,2.439547029516394e-41,4.091151057709556e-29,2.0704068374719848e-20,1.2524765182981396e-14,3.587707894590951e-11,1.9276492270145812e-09,7.695418670755799e-09,8.817432702856595e-09
17.5,2.4925161611066373e-221,1.7044912382584693e-177,3.472090665010468e-140,7.073108668929119e-109,4.8376683154367446e-83,3.729510436836068e-62,1.0880304273454223e-45,4.032619315023055e-33,6.374907355292892e-24,1.44306034162517e-17,1.5703720715981525e-13,2.758110028382742e-11,2.624793006782508e-10,4.543980690664328e-10
18.5,1.9770062733839576e-220,1.258359224890431e-178,7.963423930678877e-143,1.462504304059845e-112,2.2750979420811963e-87,8.750083141020333e-67,2.428493292563638e-50,1.4196385799827442e-37,5.101975205777307e-28,3.2901982677799843e-21,1.1113029817869696e-16,5.738165683970704e-14,1.322048512167393e-12,3.966969967143391e-12
