Hs,3.5,4.5,5.5,6.5,7.5,8.5,9.5,10.5,11.5,12.5,13.5,14.5,15.5,16.5
0.5,1.291392774654813e-20,9.319747591005184e-09,0.00021623410651022074,0.0021055416994010443,0.0020954480735710305,0.0011299633753473317,0.0003674298666123062,7.202896313221211e-05,8.507925091069024e-06,6.050624396301336e-07,2.5886669405290114e-08,6.657173503995823e-10,1.0282538148425556e-11,9.532316259430183e-14
1.5,4.4509294130649293e-36,4.310726571082415e-15,4.3784786437539866e-05,0.05447053717067946,0.09092808387516733,0.062124538473740845,0.02637557537797589,0.006958479315452819,0.0011407759843037693,0.00011621442293529328,7.35687405657947e-06,2.8940114410328895e-07,7.074256411879176e-09,1.0745706676756012e-10
2.5,4.1037888220643324e-46,5.759200965792477e-22,1.0922506247710042e-08,0.004987561301188758,0.09769742220150432,0.09453674256994592,0.06040334683287158,0.026200115653604427,0.007714845815682781,0.00154217312417283,0.00020927668458623795,1.9279261742818117e-05,1.2057070196548485e-06,5.118880794704361e-08
3.5,1.932928182359741e-56,9.172527220393301e-30,1.3090393364642743e-13,2.446792330092626e-05,0.026086305566578958,0.06908383281228252,0.05828756885340272,0.03531005366074452,0.015358320727802842,0.004796362589814258,0.0010754821340529673,0.00017314793349859642,2.0014942377927363e-05,1.6611708236582598e-06
4.5,1.0551052325940205e-66,4.868263054979185e-38,1.9829204727649598e-19,1.0583682044958966e-08,0.0010987926072782606,0.03293740341585001,0.03969631322873922,0.030138611508696626,0.016672571000874634,0.006720292548588944,0.0019736950477549893,0.0004223555370646146,6.585406703076098e-05,7.481579224436624e-06
5.5,9.555910543466052e-77,1.514059585509653e-46,7.020161825449907e-26,6.12601019978495e-13,6.47035210275916e-06,0.005319745940833434,0.021895749616724632,0.02038190670381308,0.013703340739949074,0.006667767587353596,0.002348047075283137,0.0005984191668108141,0.00011037647998564833,1.4733975180026136e-05
6.5,1.7418636209642842e-86,4.019984060829352e-55,9.292934594134597e-33,7.153921759533875e-18,6.097371224704828e-09,0.00019129015622560317,0.007344099125062222,0.01145281293936418,0.009378396968785155,0.005461381225037969,0.002261693820921897,0.0006660741315258231,0.00013949825018423392,2.0776500078995716e-05
7.5,7.161826125668881e-96,1.1936530461522134e-63,6.6918931533349825e-40,2.4757911810446142e-23,1.1859072586124769e-12,1.4429016209308879e-06,0.0008748821783060657,0.005186410038514738,0.0054412335923989434,0.0038333387119085407,0.0018643403120256522,0.0006259524685086323,0.00014508606216303172,2.321550854205948e-05
8.5,7.042258607213843e-105,4.785420522928761e-72,3.5034916087674556e-47,3.5385671646972643e-29,6.313522681513972e-17,2.5480417479355776e-09,2.9785464594372312e-05,0.0012913317086830575,0.0026587616243117485,0.002331852958419881,0.0013572706981327682,0.0005218172114213786,0.0001325125282878999,2.2227063752286886e-05
9.5,1.695667434330217e-113,2.9513008804197e-80,1.6663649523305304e-54,2.757205775550212e-35,1.2077283237783674e-21,1.265111876023717e-12,2.862904206278019e-07,0.00012643330696735587,0.0009843545857148917,0.001210566845198477,0.0008814474435739318,0.00039835878322935526,0.00011174361041862583,1.945545216677997e-05
10.5,1.0020719330431091e-121,3.0626295445624213e-88,8.540924161910455e-62,1.471978711515405e-41,1.061832210340516e-26,2.1713978420447485e-16,8.525571203095918e-10,4.352908964886092e-06,0.0001957397978050137,0.0005250414317090574,0.0005024713193573613,0.000282170701245645,9.030523805740462e-05,1.647078699101026e-05
11.5,1.5211993614305815e-129,6.010603846809924e-96,5.68597741139196e-69,6.861814567297526e-48,5.628742943075781e-32,1.67230008457236e-20,9.5882452557699e-13,5.6529865341266614e-08,1.8260910577717728e-05,0.00017221236805604995,0.00025263612161567834,0.0001934765588065632,7.551011130298812e-05,1.4960414359196771e-05
12.5,5.381238194698846e-137,2.1448800719722815e-103,5.017144090965148e-76,3.000341026442173e-54,1.9983560924475096e-37,6.457896407596335e-25,4.41116122633702e-16,2.7745092413435926e-10,7.000330302937655e-07,3.0865813376055e-05,0.00010360756861403605,0.00011194393529275176,5.9890750233698913e-05,1.3917216962748613e-05
13.5,3.979012608766818e-144,1.3089662065133974e-110,5.8043233349951956e-83,1.2746814643556574e-60,5.093725322493208e-43,1.3608492518633013e-29,8.93062859362762e-20,5.289424441999758e-13,1.0388337587867292e-08,2.485717704317949e-06,2.66245660848774e-05,4.6902405891088466e-05,3.90394958530867e-05,1.2217137305807676e-05
14.5,5.75845633278439e-151,1.329708230211646e-117,8.942380450492552e-90,5.56635393692747e-67,1.0192571401722842e-48,1.744883192567356e-34,8.875503299165873e-24,4.2632228533991077e-16,6.145763978497976e-11,8.450470661827385e-08,3.5223092153168236e-06,1.4144578208264361e-05,1.739173249551536e-05,9.24018121125071e-06
15.5,1.5090178631549415e-157,2.147194298157693e-124,1.8161055726015282e-96,2.5628132641130806e-73,1.6936056980976004e-54,1.471094139153423e-39,4.714273613659832e-28,1.5644028937796177e-19,1.508882030992092e-13,1.1872663471955794e-09,2.1391467029532313e-07,2.477113271912223e-06,5.1746072508968675e-06,4.923447032481203e-06
16.5,6.50131554003358e-164,5.135919825840553e-131,4.669824944556583e-103,1.2324320586181794e-79,2.380784249333626e-60,8.489583978979008e-45,1.409213313628285e-32,2.74603250516593e-23,1.5841192221436692e-16,6.8224121871682536e-12,5.531852506499354e-09,2.1296116970590712e-07,9.81617054389126e-07,1.366187330388432e-06
17.5,4.038630539263717e-170,1.6303138518549976e-137,1.3972723447509515e-109,5.843799609962962e-86,2.741230963958415e-66,3.3148483125659885e-50,2.3750954279959634e-37,2.3175520429322136e-27,7.078489799644822e-20,1.5554142174290366e-14,5.651679325225685e-11,7.804886811627651e-09,9.415535190997168e-08,2.280575070098965e-07
18.5,2.9460155356241387e-176,5.692399784600776e-144,4.1199264473048144e-116,2.3679731155220654e-92,2.2914840299405e-72,7.915333034947159e-56,2.069156631129892e-42,8.678584301390435e-32,1.2382127664908063e-23,1.2740664144016167e-17,2.0044664133185602e-13,1.0222919789758515e-10,3.5832747032499802e-09,1.8300955366041425e-08
