Hs,3.5,4.5,5.5,6.5,7.5,8.5,9.5,10.5,11.5,12.5,13.5,14.5,15.5,16.5
0.5,1.1775936874048236e-20,9.12588351327428e-09,0.00022000690885375093,0.0021620880743965466,0.0021562686238459365,0.001164279153169787,0.0003791297207932586,7.443636446400825e-05,8.806433204274443e-06,6.273332974305731e-07,2.688493732110929e-08,6.925644759188973e-10,1.0715222007052105e-11,9.949713513572449e-14
1.5,5.531349568964147e-36,5.357113840288885e-15,5.441312074677477e-05,0.06769273433451509,0.11299999862350224,0.07720467057962084,0.032777991731323834,0.00864758300798836,0.0014176883440436747,0.0001444243524338215,9.142684227329205e-06,3.59650478615691e-07,8.791463877124153e-09,1.3354123257991655e-10
2.5,4.574926727399149e-46,6.420389442362481e-22,1.2176471044067171e-08,0.005560161229220393,0.10891363259838191,0.10539008927046552,0.06733798882737269,0.029208035442800546,0.008600553257069463,0.0017192232227256467,0.00023330281826086923,2.149262880134621e-05,1.3441289278762177e-06,5.706556934935787e-08
3.5,1.8838894834505796e-56,8.939818729357786e-30,1.275828797931616e-13,2.3847168150974566e-05,0.02542449179822149,0.06733116486130024,0.05680880385569881,0.03441423191954476,0.014968677660463631,0.004674678099387965,0.0010481969793145124,0.00016875514257388895,1.9507160070279925e-05,1.6190266526531003e-06
4.5,8.686164377149749e-67,4.00780242770583e-38,1.6324412618925289e-19,8.71302682595785e-09,0.0009045821126060455,0.02711575029565332,0.03268002955723442,0.02481164205962442,0.013725710747092916,0.005532487560133155,0.0016248464215287237,0.0003477046181946303,5.42144265294462e-05,6.15921757722248e-06
5.5,6.4715301096316734e-77,1.025363532949965e-46,4.754250096967468e-26,4.1487055869235274e-13,4.381903562455976e-06,0.0036026808617661424,0.014828414547526057,0.013803197751324638,0.009280285933794107,0.004515598854688906,0.0015901632060502549,0.00040526621074795125,7.475004191104466e-05,9.978260426192703e-06
6.5,9.574142403126303e-87,2.2095817028069923e-55,5.107855636707604e-33,3.932148581683113e-18,3.3514162467972936e-09,0.00010514251368349547,0.004036679450661926,0.006295031406485095,0.005154829977015648,0.003001844744729646,0.0012431385817558835,0.000366107226163699,7.667512520362699e-05,1.141979016042316e-05
7.5,3.203131082611973e-96,5.3386204955199594e-64,2.992953275441828e-40,1.1072991087618677e-23,5.303977413724223e-13,6.453386259392428e-07,0.00039129158538370716,0.0023196250383676785,0.002433595027544414,0.0017144630661006476,0.0008338273363845649,0.00027995762155290165,6.488982938339296e-05,1.0383150289447916e-05
8.5,2.621566749729079e-105,1.7814312177530966e-72,1.3042175276112667e-47,1.3172748315648104e-29,2.350285903809725e-17,9.485396512514972e-10,1.1088002864003329e-05,0.00048071399520695614,0.000989756477078449,0.0008680607347746205,0.0005052605891186059,0.00019425282813348064,4.9329406580757744e-05,8.27429586545065e-06
9.5,5.504806883312681e-114,9.581089470930596e-81,5.40967944184375e-55,8.950980023953518e-36,3.92076362104159e-22,4.107053318534015e-13,9.294118918553809e-08,4.1045250052160134e-05,0.00031956041552476356,0.00039299785837963714,0.0002861526886951596,0.0001293230103705567,3.627639378718358e-05,6.316008955373643e-06
10.5,3.089694468201966e-122,9.443024248020066e-89,2.6334283264724467e-62,4.5385608880081766e-42,3.2739536936083625e-27,6.695084134786086e-17,2.6286945393703817e-10,1.3421350609584154e-06,6.035257056332548e-05,0.00016188634304943923,0.00015492728662043015,8.700186343706656e-05,2.7843868815715194e-05,5.07844774162216e-06
11.5,4.907394234288126e-130,1.9390228138595685e-96,1.834298217080258e-69,2.213623677349066e-48,1.815834358434326e-32,5.394845673161587e-21,3.093171130498986e-13,1.823655349026226e-08,5.890975867730302e-06,5.555576760672536e-05,8.150049743800592e-05,6.241560266396179e-05,2.4359587193768918e-05,4.826234682339092e-06
12.5,1.756368483540474e-137,7.00061885960981e-104,1.63753274616859e-76,9.792735850101912e-55,6.522383014235488e-38,2.107776186425848e-25,1.439747558728475e-16,9.055649299427437e-11,2.2848197893498225e-07,1.0074213381959185e-05,3.381620764329203e-05,3.653709290649355e-05,1.954758781532619e-05,4.5424046227960195e-06
13.5,1.350053117613149e-144,4.441237265898874e-111,1.9693691838975108e-83,4.32491136400392e-61,1.7282678965996709e-43,4.61727306676961e-30,3.030104239556248e-20,1.7946673359535082e-13,3.5246954273072005e-09,8.433878618094396e-07,9.033542233264258e-06,1.591368148904805e-05,1.3245847216060932e-05,4.145195285803665e-06
14.5,2.112974359062033e-151,4.879153775075022e-118,3.281264892692523e-90,2.0424854270805364e-67,3.7400026639319335e-49,6.402572551367073e-35,3.2567253810953146e-24,1.5643221126665915e-16,2.2550907661627152e-11,3.1007663857396115e-08,1.292455586452916e-06,5.190128976693802e-06,6.381620819710372e-06,3.3905381658106497e-06
15.5,6.354933158071518e-158,9.042488213927371e-125,7.648172896876366e-97,1.0792786081410002e-73,7.132288669557131e-55,6.195224822591027e-40,1.9853239935167294e-28,6.588176366234537e-20,6.354361127523238e-14,4.999939670350305e-10,9.008597343013061e-08,1.0431877350386066e-06,2.179184488245209e-06,2.073413281755899e-06
16.5,3.449025924358087e-164,2.7246671101672515e-131,2.4773981814619834e-103,6.538199990462472e-80,1.263034619023071e-60,4.5038261949000006e-45,7.47604576600725e-33,1.4568032025405054e-23,8.403942603313887e-17,3.619371549543083e-12,2.934714149337072e-09,1.1297845654073606e-07,5.207596289600537e-07,7.247787760836681e-07
17.5,3.150148415088836e-170,1.2716515032976231e-137,1.0898781702044797e-109,4.558187707553387e-86,2.1381714154225018e-66,2.5855953042917814e-50,1.8525841929453273e-37,1.8077001161536765e-27,5.521251128764759e-20,1.2132294806877784e-14,4.408333096048893e-11,6.087843782828172e-09,7.344156136783007e-08,1.778857925407831e-07
18.5,4.465249844256804e-176,8.627920302616821e-144,6.244536291381048e-116,3.5891160305945555e-92,3.473182196115278e-72,1.1997200684839776e-55,3.136202512570341e-42,1.3154053918437069e-31,1.8767482030805067e-23,1.9310912619727156e-17,3.0381521182278715e-13,1.5494789639457249e-10,5.431137961472608e-09,2.7738597135623883e-08
