Hs,3.5,4.5,5.5,6.5,7.5,8.5,9.5,10.5,11.5,12.5,13.5,14.5,15.5,16.5
0.5,3.77440196706099e-11,2.1085702145428238e-06,0.00041576174962877583,0.0027982874337677734,0.0036651251600144964,0.0027239435812740805,0.0013286752335272148,0.0004287589709824284,9.244511777461379e-05,1.3436692320136293e-05,1.3255504651607872e-06,8.915579460840736e-08,4.098726128922184e-09,1.2893528607680054e-10
1.5,4.1824688488511026e-16,4.5545986229512635e-08,0.0008717265590723927,0.044636572686998846,0.09307851015536774,0.08561399010497252,0.06121826706583078,0.033980489052390345,0.014641666759590591,0.004897378961581348,0.0012715961493492474,0.00025629905023651035,4.010117420268367e-05,4.8705665498571415e-06
2.5,1.6793601837566717e-23,1.8182585458017318e-12,5.468403025152047e-06,0.0074680171376959575,0.07570713855757162,0.09201767799227878,0.08092004109038449,0.05988756077769539,0.037300345958398075,0.019551712407316516,0.008624867784515725,0.0032019592265482076,0.0010004026966629258,0.0002630447361159345
3.5,1.4146737343615555e-33,5.646278092614739e-19,9.02494861317746e-10,0.00010167669119854417,0.014210519660761018,0.04336387633057331,0.042411779196202856,0.03438929478869577,0.02329679508020278,0.013185761639856786,0.006235200068173469,0.0024633816223189743,0.0008131096820851824,0.00022423463767451434
4.5,1.5816719692367929e-46,9.461651283921465e-28,2.9668946720613223e-15,9.265113569498876e-08,0.0005474463312633528,0.011627953667429112,0.01684902870927437,0.014965946196109267,0.010868463075271216,0.006453075321386977,0.003132564195640405,0.0012432769173099628,0.0004034320590998421,0.00010703050843768461
5.5,9.881868864299168e-63,3.97526067233819e-39,9.910800859913241e-23,3.1491955622221867e-12,2.6228254341642027e-06,0.0011774680956201616,0.005859628034028694,0.006023863397602902,0.004727875452877211,0.0029200617973085615,0.001419231234029888,0.0005428119261781588,0.00016337315811335823,3.8694312108146564e-05
6.5,1.1676187102219967e-82,1.574515466160585e-53,1.3977619340418984e-32,1.823637854514465e-18,7.806238555167665e-10,2.4474937378411488e-05,0.001254748336442062,0.00234814902504592,0.002062605696574875,0.0013461864918874098,0.0006524938783804305,0.0002348712463165513,6.278638239665532e-05,1.2464741227571537e-05
7.5,7.633766415562055e-107,1.9248928464774906e-71,3.032204684493496e-45,7.25309066480666e-27,6.403666501279359e-15,5.072285445146223e-08,8.761458676527793e-05,0.0008021863573546975,0.0009014397927068948,0.0006516506850231354,0.0003227051084410122,0.0001094736701278945,2.5440542581415226e-05,4.050008309986995e-06
8.5,7.229644503789643e-136,2.144614326123609e-93,3.348949104729807e-61,7.308614624884375e-38,5.917916514793648e-22,4.7200863966725075e-12,9.845062784911626e-07,0.00014256553437045705,0.00038052062588315603,0.00033006376694462295,0.00017753190236260958,5.886828770195011e-05,1.2034078565280794e-05,1.5165988529562914e-06
9.5,2.273116294671067e-170,5.675916532618044e-120,5.546746900869186e-81,6.171715641485612e-52,2.2746568099801942e-31,8.078774306651027e-18,8.043996920577574e-10,6.532393639188827e-06,0.0001258705227471565,0.00016441762303174496,0.00010660333882403003,3.744374862713551e-05,7.1248201705376364e-06,7.344370303011188e-07
10.5,4.2053633519674185e-211,7.2577301827584914e-152,3.193842190647246e-105,1.1464314035919604e-69,1.0737701402504941e-43,8.394790132198267e-26,1.7524687356736485e-14,3.124922653829199e-08,1.5225917326882687e-05,6.484694289763768e-05,5.731073993318453e-05,2.4191057985635464e-05,4.7670688716010596e-06,4.38556656695016e-07
11.5,7.948920075933263e-259,9.021488019684921e-190,1.4798674225897764e-134,1.2386287210234726e-91,1.8673782751280634e-59,1.7901746125908394e-36,3.852383714745827e-21,6.5695232150091234e-12,3.1340610382634745e-07,1.476554396494804e-05,2.4211862616902424e-05,1.4467104836601532e-05,3.4365102087216956e-06,3.2451608675723595e-07
12.5,2.2871427054e-314,1.901701609067776e-234,1.1184766447668496e-169,1.819601571991459e-118,3.2019896722987437e-79,2.383346535326835e-50,2.9343202023832733e-30,2.336739296648161e-17,4.706790524277098e-10,9.377363071171541e-07,7.226154569762472e-06,6.914765521980501e-06,2.3734896572879275e-06,2.75070769493462e-07
13.5,0.0,1.0136389240511159e-286,2.4147316608563257e-211,7.41632715182111e-151,1.2770852849023732e-103,5.362144999958387e-68,2.3873794485769408e-42,4.901682820757273e-25,2.018303297899837e-14,7.248059288677565e-09,9.872513591119512e-07,2.21809964340645e-06,1.3236016174754103e-06,2.2895725855687846e-07
14.5,0.0,0.0,2.218236212781953e-260,1.4717732586138431e-189,2.4294034270250167e-133,4.84516394058285e-90,5.670115518161135e-58,1.890925509825145e-35,8.727312103999048e-21,2.707289232874803e-12,2.7413302355969536e-08,4.400328478229335e-07,4.89442286739434e-07,1.5286603292979577e-07
15.5,0.0,0.0,1.078319e-317,2.1087688650965855e-235,3.862955671929066e-169,3.610615747805272e-117,9.37940624318849e-78,3.6886179179028725e-49,1.196211492328929e-29,1.7424886851911748e-17,6.210282890882696e-11,2.9498093280084534e-08,1.0171368135514739e-07,6.568664928546013e-08
16.5,0.0,0.0,0.0,2.6718952658679733e-289,7.524272006247452e-212,3.8554569186451357e-150,2.2061540431881904e-102,8.652203473690818e-67,1.4273511433319802e-41,6.07897620171989e-25,4.1021153887256336e-15,2.691816281962751e-10,1.0542057321093337e-08,1.4580286419470104e-08
17.5,0.0,0.0,0.0,0.0,2.1318795923631875e-262,8.411599815401917e-190,1.2513314388210126e-132,4.876742277442531e-89,3.4596871007390727e-57,3.104411482995107e-35,2.4481783578944145e-21,1.1790005696050191e-13,2.40922874172202e-10,1.4515131990912694e-09
18.5,0.0,0.0,0.0,0.0,8e-322,4.1617563581553273e-237,2.2891901582654128e-169,1.0540605768397011e-116,3.212224682940843e-77,5.122489365983053e-49,3.379630215983846e-30,7.293709022780671e-19,4.0709613110372766e-13,4.646147264321098e-11
