Hs,3.5,4.5,5.5,6.5,7.5,8.5,9.5,10.5,11.5,12.5,13.5,14.5,15.5,16.5
0.5,1.1418800674045224e-09,0.0005065124489356615,0.01384057712287337,0.017769578821489326,0.011879261113791692,0.0053992290784931635,0.0016677324250766671,0.00034988694384226334,4.982384915479306e-05,4.811936896402663e-06,3.1493458072111543e-07,1.3956530722634939e-08,4.184430700929843e-10,8.481197309349478e-12
1.5,1.0245979159549236e-21,6.363934553653566e-07,0.062044994161232644,0.2044946876373843,0.15686715783834562,0.08070752890632334,0.02785018584173688,0.0064457605710887,0.001000581033466087,0.00010417473106746626,7.2745232191725694e-06,3.4070515579418205e-07,1.0702491750190307e-08,2.2548783802535698e-10
2.5,1.078113559453839e-37,1.899086713104117e-14,0.0002796769198263922,0.08860982812459103,0.09626227992368176,0.062461246188425294,0.027182986587462175,0.007934429794162354,0.0015533391830707662,0.00020396182912708481,1.796236526232214e-05,1.0609872713278443e-06,4.203285104618821e-08,1.1168620870854614e-09
3.5,1.5102531178206892e-60,8.730690328676777e-27,1.855801806843681e-09,0.004408637109794652,0.03557720881557909,0.029107042528718544,0.015971890088615867,0.005878229937007349,0.0014510048110643074,0.00024022774214477587,2.6675310993963388e-05,1.986679672241577e-06,9.923805177538172e-08,3.3247625661751045e-09
4.5,2.041173434382643e-91,5.319757837630339e-45,1.8419887072962367e-18,3.0513307609990966e-06,0.008708090100932847,0.012662905903237539,0.008759163778118376,0.004063721520048916,0.001264495405582253,0.0002639019489070854,3.694026138427766e-05,3.468081985425602e-06,2.1837894926345933e-07,9.222830206912469e-09
5.5,1.1165439119417365e-131,2.151962111116019e-70,1.6273231437280765e-32,2.0661403855449543e-12,0.000188477353544114,0.005286135897202941,0.004623894391770824,0.0027035827201782442,0.0010602381875062649,0.0002788683634068631,4.9195692498634864e-05,5.820857044031508e-06,4.619328135190132e-07,2.458684019921934e-08
6.5,8.302165356815343e-183,2.3319471009121735e-104,6.170309754005874e-53,7.845468255824779e-23,2.44521514950038e-08,0.0009529371666469677,0.0022425185712237525,0.0016521055762567663,0.0008163409278311123,0.0002705436651478927,6.013609076504756e-05,8.965304426883787e-06,8.964517397094276e-07,6.012025480302033e-08
7.5,2.471541185654193e-246,2.4105672646393496e-148,4.299437859587765e-81,8.554379144658263e-39,1.1582254084563534e-15,6.509817791536466e-06,0.0009265291926100531,0.0009008632899319421,0.0005552171783358552,0.0002276023201374746,6.205835514672035e-05,1.1254692180682987e-05,1.3576154375976314e-06,1.089255344397423e-07
8.5,1e-323,7.644291420080117e-204,2.1424704642740274e-118,1.2542898240556487e-61,1.1226038738617373e-27,1.1241930389916394e-10,9.21894236859981e-05,0.0004504986430237176,0.00033929289301650047,0.00016049210047707103,4.767933414920402e-05,8.896195639493322e-06,1.042500065469225e-06,7.672651619839952e-08
9.5,0.0,2.1153120375060997e-272,2.6455933700597116e-166,1.0379153177015378e-92,1.1253206445603707e-45,2.9706504359768694e-19,1.6821823631655745e-07,0.00018002226573960548,0.00020888599930269362,0.0001131385576041441,3.383957051368841e-05,5.589229549041734e-06,5.097907483463085e-07,2.5677033762120154e-08
10.5,0.0,0.0,1.833975281607913e-226,1.3389253371332075e-133,3.906593121748244e-71,4.8476505738680245e-33,2.722501365707353e-13,7.364121468740571e-06,0.00010209446216848888,6.969804296571146e-05,2.065261450939825e-05,2.6546253384437218e-06,1.480148105665962e-07,3.579982086737043e-09
11.5,0.0,0.0,1.573154570847373e-300,7.287268371164464e-186,1.5513084318067217e-105,1.9576134738180904e-53,1.8888893697485274e-23,1.7975967128791052e-09,2.176404198492703e-05,3.465704030263226e-05,1.1321179642107285e-05,1.0380272052529956e-06,2.671422834753718e-08,1.92971590206361e-10
12.5,0.0,0.0,0.0,3.633297411620314e-251,1.8804657000075217e-150,6.377386981535056e-82,2.2237328180018443e-39,1.250934332128606e-16,1.7813451777997806e-07,1.0075646195568482e-05,5.268384359540404e-06,3.612450099459602e-07,3.1796381382518547e-09,3.5925678099625474e-12
13.5,0.0,0.0,0.0,0.0,1.3552276437052278e-207,4.01599265825653e-120,1.3013876837116612e-62,8.834556795781953e-29,2.4069014234486423e-12,5.041484907713958e-07,1.3765144674336685e-06,1.0910464964236846e-07,2.6952308557919777e-10,2.0750994389541863e-14
14.5,0.0,0.0,0.0,0.0,5.158114048875138e-279,5.381897375858281e-170,5.132791753118146e-95,1.0504682653807878e-47,1.0830801318812202e-21,1.320759979738882e-10,4.472086259896129e-08,1.3376451568846621e-08,1.2181431630535814e-11,2.6107296039725265e-17
15.5,0.0,0.0,0.0,0.0,0.0,0.0,0.0,0.0,0.0,0.0,0.0,0.0,0.0,0.0
16.5,0.0,0.0,0.0,0.0,0.0,0.0,0.0,0.0,0.0,0.0,0.0,0.0,0.0,0.0
17.5,0.0,0.0,0.0,0.0,0.0,0.0,0.0,0.0,0.0,0.0,0.0,0.0,0.0,0.0
18.5,0.0,0.0,0.0,0.0,0.0,0.0,0.0,0.0,0.0,0.0,0.0,0.0,0.0,0.0
