Hs,3.5,4.5,5.5,6.5,7.5,8.5,9.5,10.5,11.5,12.5,13.5,14.5,15.5,16.5
0.5,1.460876888390693e-10,2.4210693481057047e-05,0.001731619482502124,0.003842391922242363,0.0027398986542912,0.0010653368886838644,0.00022585823894914902,2.603571603494215e-05,1.6265819794041105e-06,5.489020469069121e-08,9.973122162604561e-10,9.728004774927081e-12,5.0813323632167256e-14,1.4178993591420476e-16
1.5,1.4320682064618825e-19,6.364319233550387e-08,0.006779102154490954,0.10507154140749762,0.09841154173218992,0.04803725287989707,0.012369493112254146,0.0016802242752363419,0.0001203993712163075,4.55116724135517e-06,9.075341636141184e-08,9.546513319919373e-10,5.2974662067359085e-12,1.5507193966291884e-14
2.5,2.4153233341056634e-31,2.6638713453787277e-14,1.7984313402725046e-05,0.03736260001672871,0.12007784842190691,0.08945704258146871,0.03517264166815724,0.007295197449516263,0.0007981981674406072,4.6070827623764956e-05,1.4027585160209565e-06,2.2531049724350837e-08,1.909068669449457e-10,8.533030280334268e-13
3.5,7.898371827836109e-47,9.933476048246117e-24,2.67137213679121e-10,0.0006441713483828825,0.058407240321016754,0.07847468286054757,0.046662577536181145,0.014636913027385573,0.00242198736014691,0.00021141503275135283,9.735123594197486e-06,2.364768799650717e-07,3.030243416140312e-09,2.048367885169652e-11
4.5,6.101388473892715e-66,2.9363007306745218e-36,1.411089253232361e-17,2.3852356416525656e-07,0.004995416574025587,0.04565796012717248,0.04064345679690113,0.01910058250233854,0.004735264014683187,0.0006192747844719703,4.272324268601252e-05,1.5548433195060863e-06,2.985043528297308e-08,3.0231264807964683e-10
5.5,1.3170880982151648e-88,6.1807458254953006e-52,1.770341306550118e-27,9.218658201615732e-13,2.5994265332532017e-05,0.01182200228086753,0.02579055349728586,0.01799329538173989,0.006622201159575787,0.0012856881503931932,0.00013167718276151856,7.114215622823372e-06,2.0276133147790883e-07,3.048490582286926e-09
6.5,1.0414787362222818e-114,9.548303751103295e-71,4.191661103231418e-40,2.233313092659836e-20,3.660462569646178e-09,0.0004678047566824493,0.011815578699479376,0.012781307688129778,0.0069210209095792955,0.001976999892302246,0.000297909767714166,2.3681240749923438e-05,9.93037790244455e-07,2.1966896907073568e-08
7.5,4.4044404981336485e-144,1.2816757514201796e-92,1.765827137194637e-55,2.4995249838881117e-30,7.887924256275041e-15,1.2042609761628905e-06,0.0019301355291346035,0.007047271201049013,0.0055463751605432975,0.0023107145646779122,0.0005078377422233099,5.887694397484572e-05,3.600867641678042e-06,1.1617446188807758e-07
8.5,1.5901225903049515e-176,1.9887719243346465e-117,1.4431838467788644e-73,1.1353650087761622e-42,1.8093449809723177e-22,1.0913753597195141e-10,4.655739362218872e-05,0.002624579830686637,0.0034781609913413143,0.002094940552002253,0.0006654418997707332,0.00011147179592541693,9.847733092514996e-06,4.5880057779428e-07
9.5,8.369488652023745e-212,5.2031569872719676e-145,2.8063929406346436e-94,2.124529166424829e-57,3.651982670215348e-32,2.306033614910931e-16,8.653515941152885e-08,0.0003121969992742251,0.0017518347474648035,0.001502524056518109,0.0006827575634920944,0.00016327504234111824,2.0548555115519236e-05,1.3609775881035525e-06
10.5,1.148483749645613e-249,3.582247912129323e-175,1.743352986289422e-117,1.8639524976473395e-74,6.164886415330387e-44,8.881308535036846e-24,7.847139720790166e-12,5.987551654593975e-06,0.000555535134677129,0.0008694922051085693,0.0005611342789240629,0.00018979424144606447,3.364452390505529e-05,3.12579769948903e-06
11.5,7.566259252239046e-290,1.0633546480644298e-207,4.976116343400338e-143,9.550276270398946e-94,9.258740299819908e-58,5.584650120972834e-33,2.5813427699247584e-17,1.1261560292616634e-08,5.7115262617302915e-05,0.0004147668643946359,0.0003768774537131989,0.00017922726597713716,4.439475897208446e-05,5.7277364253715016e-06
12.5,0.0,2.3890239177566136e-242,1.0240169086928334e-170,3.95736158236429e-115,1.4926849506357326e-73,5.949030977090976e-44,2.7120132156506413e-24,1.5309348439668318e-12,1.1584913320171784e-06,0.00012721897274169016,0.00021829739360061515,0.0001455739812131501,5.0145574323981746e-05,8.9226755500219e-06
13.5,0.0,6.598715502398141e-279,2.2413936231645086e-200,1.756250186624853e-138,3.0342820923671285e-91,1.1048889725944084e-56,8.105246624670486e-33,1.1449605785719198e-17,2.9770308451162474e-09,1.361872437743102e-05,0.00010477112748939138,9.7542160123478e-05,4.6650457349041826e-05,1.1404522901143095e-05
14.5,0.0,3.8079443e-317,8.169428177291792e-232,1.1908437072072859e-163,9.997931371846922e-111,4.09815195354152e-71,6.9521434830983586e-43,4.1374466058325956e-24,7.322499086808347e-13,3.2668541176805676e-07,3.114396411589214e-05,5.357316767333421e-05,3.5626641803638976e-05,1.195704175945421e-05
15.5,0.0,0.0,7.923128452860036e-265,1.8205849549365953e-190,7.202313153240421e-132,3.703091287500366e-87,1.867982364681029e-54,6.978814095680567e-32,1.4577248596934894e-17,1.2851065357016085e-09,3.609582018452444e-06,2.4384478691864605e-05,2.242398610957077e-05,1.0355628074842531e-05
16.5,0.0,0.0,3.2708211593007405e-299,9.381259318823704e-219,1.5694810402531316e-154,1.0337559766529687e-104,1.8093536342848776e-67,5.680005829039235e-41,2.1585914036538618e-23,6.702933013961634e-13,1.1479118163241991e-07,7.3177542642878885e-06,1.1638627783371495e-05,7.435305499407292e-06
17.5,0.0,0.0,0.0,2.446908137022685e-248,1.4542688684869525e-178,1.162371528232625e-123,7.569199729965711e-82,2.4327150580010613e-51,2.337762184038542e-30,4.069197357434486e-17,7.772273030608486e-10,9.8684681605018e-07,5.045978228868505e-06,4.427102354896264e-06
18.5,0.0,0.0,0.0,4.8414479082451335e-279,8.117492967314953e-204,6.990960879974973e-144,1.6877162563603194e-97,6.232882269246685e-63,1.9216958837093849e-38,2.6993920198013077e-22,9.427838635398676e-13,4.46789049637812e-08,1.5678929837165949e-06,2.179438095035201e-06
