Hs,3.5,4.5,5.5,6.5,7.5,8.5,9.5,10.5,11.5,12.5,13.5,14.5,15.5,16.5
0.5,0.23868786794682742,0.2053042285112307,0.060793188388650096,0.006135296337896848,0.00020067726254045977,2.02413988337377e-06,6.045094493135585e-09,5.189888963926135e-12,1.2595340356459134e-15,0.0,0.0,0.0,0.0,0.0
1.5,0.0006739115775413393,0.11371712539531019,0.13614463555935985,0.04136619226935665,0.0033439880885840372,7.192138804490707e-05,4.1155280137661e-07,6.265665805956364e-10,2.5379499598487675e-13,2.7350989699740543e-17,7.842187109156964e-22,5.9824009561988005e-27,1.2141937624364856e-32,6.556538878832497e-39
2.5,1.1632470607755527e-19,1.292361062258312e-06,0.020664616118887123,0.046477470666199484,0.016175518215824625,0.0013477979601249726,2.6886994628993726e-05,1.284134754585467e-07,1.4683507651594052e-10,4.019757939253208e-14,2.6346374659347844e-18,4.13421158126281e-23,1.5531571814071307e-28,1.396976154202874e-34
3.5,2.4611144143377094e-72,2.311641415720768e-30,6.773778266591412e-10,0.00329382923266173,0.013102868721246344,0.003210298118576303,0.00011042369793398121,5.332331710525516e-07,3.615013946617742e-10,3.4406519673018395e-14,4.597370029653317e-19,8.62414647930228e-25,2.27122801543471e-31,8.397370150786851e-39
4.5,8.160865330072389e-223,4.078284811225205e-110,1.3877535512764596e-44,1.9739294143078099e-13,0.000720487394549685,0.003040857463134526,0.00020741650967666422,5.175226546565219e-07,4.723394239479022e-11,1.5769495918020956e-16,1.925840041600384e-23,8.603227336248038e-32,1.4058577251190467e-41,8.403498559455164e-53
5.5,0.0,3.58879e-318,2.2410064322518498e-151,2.4847086250625817e-57,3.4322602419219277e-15,0.0004144693888664775,0.00045766557219266044,6.661460505491932e-07,1.5066560106529625e-12,5.295197917349131e-21,2.891836424887644e-32,2.45407983999263e-46,3.236138420059131e-63,6.631151174454602e-83
6.5,0.0,0.0,1.4008693266248443e-261,3.6987371603196476e-118,2.0872770193059066e-41,1.766495846099575e-10,0.0001573208154054656,1.8935277939362087e-06,2.4768510280838725e-14,2.849550700588256e-28,2.8833754116044975e-48,2.5661042304468167e-74,2.008610342596494e-106,1.3828191858385248e-144
7.5,0.0,0.0,0.0,5.18166330960299e-201,3.3593941793817783e-85,3.428399411808492e-28,3.864520907290277e-09,1.9302005005757409e-07,7.235057898838031e-17,3.58735060621785e-40,2.3528696266364663e-77,2.0413342809568026e-128,2.3427320583954636e-193,3.556504301980241e-272
8.5,0.0,0.0,0.0,0.0,0.0,0.0,0.0,0.0,0.0,0.0,0.0,0.0,0.0,0.0
9.5,0.0,0.0,0.0,0.0,0.0,0.0,0.0,0.0,0.0,0.0,0.0,0.0,0.0,0.0
10.5,0.0,0.0,0.0,0.0,0.0,0.0,0.0,0.0,0.0,0.0,0.0,0.0,0.0,0.0
11.5,0.0,0.0,0.0,0.0,0.0,0.0,0.0,0.0,0.0,0.0,0.0,0.0,0.0,0.0
12.5,0.0,0.0,0.0,0.0,0.0,0.0,0.0,0.0,0.0,0.0,0.0,0.0,0.0,0.0
13.5,0.0,0.0,0.0,0.0,0.0,0.0,0.0,0.0,0.0,0.0,0.0,0.0,0.0,0.0
14.5,0.0,0.0,0.0,0.0,0.0,0.0,0.0,0.0,0.0,0.0,0.0,0.0,0.0,0.0
15.5,0.0,0.0,0.0,0.0,0.0,0.0,0.0,0.0,0.0,0.0,0.0,0.0,0.0,0.0
16.5,0.0,0.0,0.0,0.0,0.0,0.0,0.0,0.0,0.0,0.0,0.0,0.0,0.0,0.0
17.5,0.0,0.0,0.0,0.0,0.0,0.0,0.0,0.0,0.0,0.0,0.0,0.0,0.0,0.0
18.5,0.0,0.0,0.0,0.0,0.0,0.0,0.0,0.0,0.0,0.0,0.0,0.0,0.0,0.0
