Hs,3.5,4.5,5.5,6.5,7.5,8.5,9.5,10.5,11.5,12.5,13.5,14.5,15.5,16.5
0.5,0.1965730184579154,0.17281404232165956,0.07401968126864641,0.018043682453448836,0.002491616045894379,0.0001938494917336227,8.449215545984397e-06,2.0518235927890883e-07,2.7619805039995247e-09,2.0515818423267505e-11,8.375775779120349e-14,1.806308496718949e-16,0.0,0.0
1.5,1.3449116703402171e-06,0.18216341849454615,0.14791209435789843,0.0635156248165414,0.014652269630802028,0.001815836193444043,0.00012089152988308024,4.323769344273202e-06,8.307619585122481e-08,8.57507888655161e-10,4.75496238380391e-12,1.4164572976348997e-14,2.266769319818131e-17,1.9487611124209978e-20
2.5,9.57431391505281e-46,3.6666157425295457e-10,0.03362876174784391,0.038412941043345035,0.018509530624314784,0.004791380834919203,0.0006663055281895761,4.977755732418382e-05,1.9977502115594946e-06,4.3072118099896447e-08,4.988830081347669e-10,3.1041924258444437e-12,1.0376383086808654e-14,1.8633343875673202e-17
3.5,2.7702879660114726e-139,7.695847224269763e-51,2.1273616183771345e-12,0.004105959793988627,0.00609115151943181,0.0030724982874604486,0.0008325902789266983,0.0001212044212197686,9.47879275572537e-06,3.982309718407333e-07,8.988029290990076e-09,1.0897863509184176e-10,7.098485331158793e-13,2.483919139711157e-15
4.5,7.739852522849592e-294,8.825861502072212e-137,5.367989135269837e-50,1.2218879366192788e-12,0.0007303843961916972,0.0009175630077255982,0.00032755794630353355,4.6956513880976314e-05,2.7030807397057607e-06,6.24852703724707e-08,5.800317311224593e-10,2.1621275766875446e-12,3.236430932593633e-15,1.9453906970190893e-18
5.5,0.0,2.9007325080910776e-271,1.099130579636544e-123,6.815683428047252e-44,4.8531439347824403e-11,0.00027843620560819807,0.00019301027177043672,2.132274663226786e-05,4.033229826561156e-07,1.3062006442202997e-09,7.242923807251554e-13,6.876461870693075e-17,1.1177978280310506e-21,3.1110614055285296e-27
6.5,0.0,0.0,2.9822356125504724e-235,4.511240999191465e-103,1.8457306736852843e-34,1.4331577179397971e-08,0.00014818632620651261,5.025150216294237e-05,1.5558423525934219e-06,4.3894242470906445e-09,1.1284308612266586e-12,2.6434297885404258e-17,5.642687930748352e-23,1.0975636434393817e-29
7.5,0.0,0.0,0.0,3.1622884907752056e-191,8.814312120965666e-79,4.061988678438979e-24,2.171638183914275e-06,8.025735166842729e-05,1.1846994726931636e-05,1.263883299819037e-07,9.74498478711337e-11,5.430386805832038e-15,2.1870352113990763e-20,6.3658469793942615e-27
8.5,0.0,0.0,0.0,2.6950956520056936e-306,9.218246365671625e-145,1.1950100747812056e-54,4.119827975758868e-15,2.6503668394062527e-05,3.1592454673946346e-05,1.753480765366418e-06,6.590589828270824e-09,1.6774639801739558e-12,2.891264110732395e-17,3.3746440370706724e-23
9.5,0.0,0.0,0.0,0.0,9.041544877918257e-231,7.533930088282584e-101,7.398115909507291e-34,6.007259738370447e-09,2.8302353665726985e-05,7.679791702732265e-06,1.3881077313679676e-07,1.6705533249560375e-10,1.338631224086031e-14,7.142084701725804e-20
10.5,0.0,0.0,0.0,0.0,0.0,1.1496578938728212e-161,1.7216639130717696e-63,1.3812583904273776e-18,4.165656113329014e-06,1.2548642293283454e-05,9.67005019015816e-07,4.940331484583177e-09,1.6733193190893549e-12,3.757482214616038e-17
11.5,0.0,0.0,0.0,0.0,0.0,4.194018210288437e-235,1.671072454622034e-103,2.623586794261714e-35,1.1388483852038127e-09,9.590512907947823e-06,2.7578192113577567e-06,5.26114963220125e-08,6.646883856161196e-11,5.561322777428397e-15
12.5,0.0,0.0,0.0,0.0,0.0,9.4653e-319,1.2602845457562182e-152,4.390620535635801e-59,2.8082875090195285e-17,2.313932755596194e-06,3.932266831617994e-06,2.477981135380588e-07,1.033846551124973e-09,2.855730648366897e-13
13.5,0.0,0.0,0.0,0.0,0.0,0.0,3.1576013947166847e-209,3.051048665343908e-89,2.636769811326557e-29,1.4300844529969993e-08,3.3046155910834226e-06,6.14777891665202e-07,7.571613053162387e-09,6.173500073202235e-12
14.5,0.0,0.0,0.0,0.0,0.0,0.0,1.4258965535604106e-271,8.891810063439607e-125,1.46880608848299e-45,4.509682961124273e-13,1.8058012532352716e-06,9.262234622136974e-07,3.0409632782460166e-08,6.60954891507754e-11
15.5,0.0,0.0,0.0,0.0,0.0,0.0,0.0,1.4710330883844112e-164,1.5668888618346943e-65,4.711398684103658e-20,2.806031626504211e-07,9.501608759814541e-07,7.581777738607401e-08,4.0050530573045726e-10
16.5,0.0,0.0,0.0,0.0,0.0,0.0,0.0,1.8684864909641558e-207,1.4620811747872822e-88,2.1559363865310724e-29,4.203571749113421e-09,7.273974825016164e-07,1.297346213582111e-07,1.531802650523113e-09
17.5,0.0,0.0,0.0,0.0,0.0,0.0,0.0,2.070820056364904e-252,6.040683963067465e-114,8.473488553574597e-41,4.01056805900456e-12,4.4941977388395255e-07,1.6521923903874693e-07,4.041823772880121e-09
18.5,0.0,0.0,0.0,0.0,0.0,0.0,0.0,1.743172748905421e-298,5.335760379683665e-141,6.751162962096847e-54,2.477549724070816e-16,1.8503880447916757e-07,1.6716359827634616e-07,7.910322257092963e-09
