Hs,3.5,4.5,5.5,6.5,7.5,8.5,9.5,10.5,11.5,12.5,13.5,14.5,15.5,16.5
0.5,0.001257690645576327,0.04973693238271102,0.06838331314059723,0.04692896367333024,0.022699291970162242,0.007738691934258354,0.0018593209416451122,0.0003147574300961129,3.7531868870395944e-05,3.1511439154857268e-06,1.8621020917156217e-07,7.741388481333223e-09,2.2632005663863103e-10,4.650768847405021e-12
1.5,1.446716980787088e-10,0.009727273915248314,0.16291497271635996,0.13944232473719192,0.0841980745592471,0.03586142884385315,0.010773849440212424,0.0022831376645643217,0.00034128026758321,3.59838926314504e-05,2.67622725620485e-06,1.4039631867622242e-07,5.1952486094526695e-09,1.3560472828842456e-10
2.5,2.6843643330524027e-20,6.345452797700834e-07,0.024544678150918618,0.07902142699268916,0.06445192362023243,0.03812540264387283,0.01635612924682464,0.005089020120416622,0.0011483528211931155,0.0001879334363712222,2.2305928597918507e-05,1.9201011155075226e-06,1.1987135973607542e-07,5.427430900763347e-09
3.5,2.980538279596512e-32,7.744461500331903e-14,4.0071092505104945e-05,0.017648928814316633,0.026502312866310152,0.02078176291360457,0.012150160895419945,0.005296423525123139,0.0017214103767917547,0.0004171451140156641,7.536868524997966e-05,1.0153031918620202e-05,1.0197685109136517e-06,7.636748303712079e-08
4.5,1.7066114041107678e-45,8.117338532131753e-23,4.5748180200435976e-10,0.0002203097017039736,0.006537497590620636,0.0070697115979892824,0.005340519512518015,0.0030699601792498034,0.0013429177239559947,0.00044702673417046016,0.0001132361291215165,2.182749818229862e-05,3.201771495578062e-06,3.5739143024706844e-07
5.5,2.7404737208665384e-59,3.811527042321481e-33,8.857496237625135e-17,6.703046648739616e-08,0.0003219537498083685,0.0019128697562360575,0.00181418045551799,0.001311992393438786,0.0007290703069709433,0.0003113112142803482,0.00010214271102509847,2.57517801626256e-05,4.988780460666494e-06,7.42623673207579e-07
6.5,4.4034598948633776e-73,3.4061341706092243e-44,9.812919374489817e-25,7.676744480806622e-13,1.188972795349573e-06,0.00026580082799354483,0.0006253223087349685,0.0005545597016980315,0.00037435299699240324,0.0001922869147354946,7.515425221729287e-05,2.2350785703094343e-05,5.057867420298848e-06,8.709184634359741e-07
7.5,1.5461920545585544e-86,1.6018950121764646e-55,1.7294241266260337e-33,6.679099840254296e-19,3.167637098385582e-10,6.332950222993052e-06,0.00018322384907820734,0.00026181328060662714,0.00021091265606703103,0.00012189338912026175,5.0538716346366736e-05,1.503262433570691e-05,3.2078344377170637e-06,4.910838245046202e-07
8.5,1.6981056421218581e-99,7.176685789053576e-67,9.720391153114166e-43,8.055582746345873e-26,7.798596086042846e-15,1.6838172917248118e-08,1.5480515073838494e-05,0.00011570192439049665,0.00012687501333000285,8.454758907343776e-05,3.5303743961363364e-05,9.237080135702415e-06,1.5144086015825808e-06,1.5557715801013905e-07
9.5,7.279670893489332e-112,4.717610868039438e-78,3.0690118213329704e-52,2.4064974537742396e-33,2.7310331623452886e-20,5.386015335682883e-12,2.2164174720547315e-07,2.285194839565763e-05,7.088052362856345e-05,6.40957212367737e-05,2.85745504114835e-05,6.072180727264765e-06,6.150704859901603e-07,2.9697507647630652e-08
10.5,1.393312301464065e-123,6.2294633696751526e-89,8.542933304362955e-62,2.9761945621489563e-41,2.1815102351329435e-26,2.786368382109039e-16,5.136282041557323e-10,1.1317016645973628e-06,2.4684908183241575e-05,4.414598967108568e-05,2.8823140496721175e-05,5.31259755845181e-06,2.711318192796472e-07,3.83143981674667e-09
11.5,1.1224024302303105e-134,1.8096955288130651e-99,2.605707689102116e-71,2.0537776023002085e-49,5.4316645555575867e-33,2.9546670569195463e-21,2.0263968938406372e-13,1.0740514753007349e-08,2.6968362444690258e-06,1.9663337052591788e-05,2.5449098516329134e-05,6.938805017598109e-06,1.7666316728614226e-07,4.200068644844109e-10
12.5,3.8341088881661066e-145,1.3184592570556438e-109,1.1101046121596753e-80,1.0964178417032728e-57,6.085879466803813e-40,9.095482378010403e-27,1.7534901715461772e-17,2.0891817147944164e-11,7.369948429314387e-08,3.6879761705074852e-06,1.2542013381798258e-05,1.148362188314442e-05,3.190696666635222e-07,9.16678271758575e-11
13.5,5.419981036588889e-155,2.600797386127179e-119,7.852624159096342e-90,5.829977090026408e-66,4.159171557861127e-47,1.1142405943409115e-32,4.380538285561322e-22,9.876351795291471e-15,4.990342972502088e-10,2.208377004753194e-07,3.3447928186155504e-06,6.775831812798965e-06,1.9978853336572302e-06,1.841942022251758e-10
14.5,3.0301434981684033e-164,1.441505786597614e-128,1.0387235577410364e-98,3.738353398923102e-74,2.215765998863797e-54,7.131764350616182e-39,4.110228930267741e-27,1.3986123531867148e-18,9.265255791974512e-13,3.940148208946555e-09,3.5467385719274166e-07,2.2282999893149567e-06,3.2219024225542307e-06,1.4237303842639347e-08
15.5,6.3109301635580526e-173,2.261383551988039e-137,2.7729149236126443e-107,3.326115058511899e-82,1.1156638085115194e-61,2.9914498105058614e-45,1.8329024074907986e-32,7.336064710930739e-23,5.48289718946925e-16,2.1874449602078344e-11,1.3316840402603184e-08,3.5363824805363575e-07,1.171030445991074e-06,1.3739387522212883e-06
16.5,4.5639433482328496e-181,9.885035159502283e-146,1.5582419297234123e-115,4.528664911001599e-90,6.146728903098208e-69,9.869983829212547e-52,4.749493208853332e-38,1.7349880480909565e-27,1.2187763789977912e-19,4.17051639746225e-14,1.7609776303983474e-10,2.324213317522262e-08,2.4289367726563607e-07,5.091367561998493e-07
17.5,1.0595158309603256e-188,1.1638454969247889e-153,1.870144344195691e-123,1.0045369779706842e-97,4.1217990592253085e-76,2.952275457335239e-58,8.435196316967204e-44,2.1969534563581764e-32,1.1919360256789499e-23,3.078297219032354e-17,8.647941686343699e-13,6.039189245744819e-10,2.3956716566727387e-08,1.233609783204164e-07
18.5,7.248242689146667e-196,3.513753064052676e-161,4.751914267522149e-131,3.750404326800808e-105,3.613707586321923e-83,8.892966017688515e-65,1.16926312598912e-49,1.7183164900463556e-37,5.904357309889629e-28,9.923707653890794e-21,1.7067127603311938e-15,6.2832644655415635e-12,1.0358621427537608e-09,1.5997922452491933e-08
