Hs,3.5,4.5,5.5,6.5,7.5,8.5,9.5,10.5,11.5,12.5,13.5,14.5,15.5,16.5
0.5,2.2501087851059334e-12,4.4262544824391994e-06,0.0008451266668782605,0.002474754852304926,0.001238429323419763,0.00017646393263831252,8.18755725275832e-06,1.2655336460245979e-07,6.453627956323992e-10,1.0781535280547932e-12,5.901883007151255e-16,7.670961263968406e-20,0.0,0.0
1.5,1.5360396182215688e-21,7.527173961931894e-09,0.0036521437608102434,0.1141594495075045,0.1211585806790228,0.07190279083050956,0.025459394972016366,0.0053784999755627705,0.000677930267592457,5.0982325174769483e-05,2.2875206014376215e-06,6.123802142735809e-08,9.781107853876174e-10,9.321068641929993e-12
2.5,3.9116251027520114e-33,1.796871842006688e-15,4.463835880303097e-06,0.024416597552100232,0.11972985468500032,0.10201802443414137,0.054117892772970015,0.01783773613391298,0.0036532002749585677,0.00046488134282386044,3.675747250337517e-05,1.8058598985326344e-06,5.512611108532444e-08,1.0455999328470164e-09
3.5,1.7176121092666155e-47,1.1957486828245652e-24,4.2664339923987216e-11,0.00020774493624970693,0.03675920861401827,0.06222107819536087,0.045104491798664874,0.02022107599567339,0.0056064884901348795,0.0009613462011665257,0.00010194616663633967,6.685966432747066e-06,2.711812695896292e-07,6.802325246791949e-09
4.5,4.413025990042561e-64,5.239366592117752e-36,4.809182333518273e-18,6.180091960588704e-08,0.002013404118760141,0.03011344011447494,0.030980141315259113,0.018799149970154024,0.006995676274195653,0.001596459368356871,0.0002234203403124967,1.9174507682426395e-05,1.0091655318072243e-06,3.257146323524084e-08
5.5,1.4084307487089628e-82,2.4511242579666446e-49,7.365685288702205e-27,4.872790432069127e-13,9.048108410601062e-06,0.006012458437751499,0.018228853393549842,0.014974630271556958,0.007466095007077483,0.0022547675738724825,0.0004124591227101213,4.570154809043918e-05,3.067268355834643e-06,1.2469340989404943e-07
6.5,1.13736296960874e-102,2.0477520110851692e-64,1.9807643254616023e-37,9.529963709859375e-20,2.111438879194071e-09,0.00019944375256263628,0.007436059293197463,0.009797887552037567,0.006578853071685139,0.0026319253606266577,0.0006273394455676802,8.909170450519771e-05,7.538372354142945e-06,3.800349584738557e-07
7.5,4.845887015099846e-124,5.533444520706317e-81,1.3978339971191769e-49,5.3984936119894425e-28,2.2027526375695993e-14,6.562271650071511e-07,0.000986409409031394,0.005170040278162101,0.0047155914940637126,0.0025186356782087474,0.0007848784404387124,0.0001427076719874388,1.5139102044117156e-05,9.370457263248977e-07
8.5,2.236447020579021e-146,9.009896450137856e-99,4.1902906062313564e-63,1.1894597791171166e-37,1.0895690771401809e-20,1.702853486168332e-10,2.400686321684664e-05,0.0016141626371335468,0.0027319813680948385,0.0019774753600715414,0.0008138637965959429,0.00019045820237315817,2.534281968308677e-05,1.9174210364022277e-06
9.5,2.1968294108447833e-169,1.6302821265725155e-117,8.902883551180554e-78,1.4795106263110797e-48,3.0941611752324733e-28,3.367620940984275e-15,7.888181112595615e-08,0.00016444547438561802,0.0012617587835435115,0.0012712589801283849,0.0007031001810281813,0.00021433495393850926,3.6013174915380014e-05,3.335204246276047e-06
10.5,8.521220440597719e-193,5.858814817491764e-137,2.2373588910776093e-93,1.5657686708522005e-60,6.625730332087016e-37,5.5937399838632685e-21,3.1087178428262176e-11,3.752485291375563e-06,0.00032461120228006107,0.0006639921875327452,0.0005054431500988931,0.00020463978551719472,4.4006247238309895e-05,5.026261764376604e-06
11.5,2.295819962358707e-216,7.228343034103048e-157,1.1001401534995793e-109,2.169297072622277e-73,1.485269335899604e-46,9.463678723188487e-28,1.5039616708129566e-15,1.597676961427211e-08,3.0406751142952247e-05,0.00027786466796890497,0.0003024892475191663,0.00016719804266780732,4.698855469693757e-05,6.714174671320716e-06
12.5,6.969629186805531e-240,4.954818754673521e-177,1.6708032786596155e-126,5.912628481416447e-87,4.8581606284427563e-57,2.0505833952923326e-35,9.837292173914456e-21,1.1867098655324712e-11,7.964576061166196e-07,6.579731698871049e-05,0.00014803329138947502,0.00011503143922245743,4.350549442309485e-05,7.948682378248437e-06
13.5,3.549739429819678e-263,2.834944308539763e-197,1.165400783921338e-143,4.570276155629218e-101,3.1688347225561394e-68,7.199467704542438e-44,9.933412888338714e-27,1.5425794198638558e-15,4.996905886702584e-09,6.257675579676745e-06,5.61483244914121e-05,6.352703442584725e-05,3.361722324515345e-05,8.096300459362555e-06
14.5,4.34659551651451e-286,1.974031525304603e-217,5.448181781035056e-161,1.4375642417294019e-115,5.7051440855896544e-80,5.357413575882127e-53,1.8727441491567043e-33,3.8337338512469616e-20,7.2305481626362666e-12,1.9765679874269852e-07,1.2320521154634744e-05,2.7549181809803798e-05,2.1140255122044002e-05,6.988146619655666e-06
15.5,1.731628652658912e-308,2.317237236304257e-237,2.3867535488693213e-178,2.557474668331367e-130,3.853249514819439e-92,1.1033169607969465e-62,8.114769147819526e-41,2.072049373000261e-25,2.4826610325943275e-15,1.886572484703991e-09,1.2288918024329864e-06,9.27434449226364e-06,1.043422088044297e-05,4.987174925246131e-06
16.5,0.0,6.046735920638788e-257,1.3122386992501738e-195,3.454852023946685e-145,1.2954855767812012e-104,8.122392797364594e-73,9.996441312009481e-49,2.835166914311498e-31,2.175431309639868e-19,5.3016054107098295e-12,4.817552570451957e-08,1.91630358489671e-06,3.917262740466468e-06,2.839391072089585e-06
17.5,0.0,4.413320223013196e-276,1.1623152464032961e-212,4.589434668638402e-160,2.7982382201725533e-117,2.713400389034277e-83,4.3098311922375325e-57,1.1548811349902251e-37,5.377227812060107e-24,4.480610361521874e-15,6.881561363530939e-10,2.006417615187826e-07,1.1438094651648865e-06,1.2273162924219098e-06
18.5,0.0,1.0841230459759215e-294,2.0425694807947106e-229,7.483544057437978e-175,4.86175688708776e-130,5.106905378195625e-94,7.909048833057483e-66,1.646704958598413e-44,4.2029636865266015e-29,1.1991320428607593e-18,3.4871700219623626e-12,9.425343754855753e-09,2.159048776072521e-07,3.822012528356989e-07
