Hs,3.5,4.5,5.5,6.5,7.5,8.5,9.5,10.5,11.5,12.5,13.5,14.5,15.5,16.5
0.5,3.4844599609123e-05,0.004056370477428256,0.008916421307126965,0.0048592401063863346,0.0011200668745355497,0.00011061649472765748,4.699582079800982e-06,8.572104350472401e-08,6.678418050845696e-10,2.2094051737659786e-12,3.087829447884502e-15,1.691015530186194e-18,0.0,0.0
1.5,1.229889802538904e-13,0.00023179598533027145,0.16658108335271518,0.2637627714652754,0.17178545733239195,0.06575664233251109,0.014793577070811923,0.001956082212551598,0.00015201321524252681,6.943139989183623e-06,1.8638494687959573e-07,2.9406685886310257e-09,2.7268526242967683e-11,1.486132687236276e-13
2.5,1.2398452738257548e-30,6.684643005162026e-14,2.437726440578628e-05,0.03286165937886323,0.08949089558206139,0.0790313855091409,0.05484664498075143,0.029910954134616235,0.012818588222976738,0.0043169782052165095,0.0011424816803704651,0.00023760105421567824,3.883087805660375e-05,4.986958893001441e-06
3.5,1.0518489365562187e-46,2.1953506776121663e-25,2.3515015869307228e-12,1.420690910774747e-05,0.005320947694863853,0.013577992028205229,0.012537442350036107,0.009656889153246927,0.006203695478161226,0.003323905162751328,0.0014853599315799515,0.0005536046284579356,0.00017208881660790793,4.4615987671555116e-05
4.5,1.9794800240577214e-58,4.454691819501261e-35,1.788993953429926e-19,4.677333222634104e-10,2.9044208259286483e-05,0.0015626658774255367,0.002657098189264819,0.002386562379637793,0.00175677732691308,0.001059837752866714,0.0005240114707517212,0.00021233468520909265,7.051472748565108e-05,1.919187743790946e-05
5.5,1.891055829911636e-65,7.80910851913291e-42,3.3926286824957975e-25,2.585218114974434e-14,5.7606603038183124e-08,6.258204964485666e-05,0.0005526090143085118,0.0006465786752244276,0.0005252808118798846,0.00032801842778297383,0.0001574495759026851,5.809266419446737e-05,1.6475463434773234e-05,3.591621242694718e-06
6.5,1.3346889312927584e-68,8.346773495292966e-46,3.524554297962988e-29,9.462649187584786e-18,1.52096835978042e-10,1.3781689932835007e-06,6.628810042455624e-05,0.00015936590975064015,0.0001477653266938286,9.198056255458504e-05,3.8101147845274556e-05,1.050264129032874e-05,1.926537562255439e-06,2.35166201489337e-07
7.5,7.176083674875434e-69,1.730382647116647e-47,1.6285849446964938e-31,3.677269699619552e-20,1.2243921866599943e-12,3.6951222422713145e-08,6.212744039075037e-06,3.576989771544386e-05,4.300149452962453e-05,2.7242386680795054e-05,8.474983063641784e-06,1.2946864646232815e-06,9.712308283135105e-08,3.577769795326296e-09
8.5,3.6573201387502577e-67,1.8077575584677872e-47,1.690674017013582e-32,1.328819454155455e-21,3.8985437080027914e-14,1.896326402449757e-09,6.792692479520968e-07,7.958531078035861e-06,1.354658742820459e-05,9.730195374705699e-06,1.9042873471142466e-06,9.63945018383195e-08,1.2620626234244973e-09,4.273841454878884e-12
9.5,3.0106941347248264e-64,2.5543718355057012e-46,1.6396928372885e-32,2.749798985976974e-22,4.160050707350154e-15,1.9604451390593825e-10,9.937298113139802e-08,1.8708486847441033e-06,4.51715392892159e-06,4.082220222482584e-06,4.1163584343398464e-07,2.7276880561329382e-09,1.187793606659808e-12,3.3990067582989245e-17
10.5,1.1046707474267408e-60,1.756798495754417e-44,7.028256736879893e-32,2.0033654400180482e-22,1.1524177918232192e-15,3.7891977669929224e-11,2.0170768994740933e-08,4.92363474053037e-07,1.5609453978022622e-06,1.8123875687481294e-06,8.425401241144196e-08,1.3259975098558374e-11,7.064922840802236e-18,1.274338300569852e-26
11.5,7.467196956091965e-57,2.808176668012121e-42,7.47656294664249e-31,3.4080026699350806e-22,6.431730537400153e-16,1.2153331823134643e-11,5.56047750057651e-09,1.489661710609699e-07,5.651082856308113e-07,7.340975339074203e-07,1.704988661707019e-08,2.699737215941696e-15,2.2110478161576925e-27,9.365941039018206e-45
12.5,5.226649219838619e-53,6.2820628622162135e-40,1.2999601565247582e-29,9.858140954060098e-22,5.831571473021928e-16,5.7278305066367905e-12,1.988369388885072e-09,5.192717695283196e-08,2.1715581793565426e-07,3.0953924384791493e-07,3.9277773514518466e-09,1.749011517860294e-21,2.5400925718049216e-45,1.203143658948918e-80
13.5,2.654771025065188e-49,1.411006751874887e-37,2.768606223518281e-28,3.846580334753168e-21,7.258073833852545e-16,3.567404506807144e-12,8.760303909153607e-10,2.0614522125680803e-08,8.91591859538595e-08,1.3594056885544227e-07,1.3672850805838317e-09,2.964438889272076e-32,3.993803001749372e-80,3.343424235585175e-153
14.5,7.984450195584915e-46,2.588806579598939e-35,5.9676695956098165e-27,1.7215650155847395e-20,1.0940029488956788e-15,2.6955840337515984e-12,4.533039359603008e-10,9.157802008359442e-09,3.912200175280385e-08,6.220737252763789e-08,1.0998282354142887e-09,1.477229036048087e-51,4.2405073155498126e-149,2.601565765089869e-302
15.5,1.2843945957043206e-42,3.4442229380719227e-33,1.1542775373176768e-25,7.923306361821298e-20,1.8257061513443785e-15,2.3143793492283694e-12,2.645260576563191e-10,4.4676961770701355e-09,1.8273892776735735e-08,2.9666191286103887e-08,2.887310074440464e-09,5.464429925785173e-87,3.529477781056317e-288,0.0
16.5,1.066121279801362e-39,3.1283245089524817e-31,1.866391396734007e-24,3.494846859544775e-19,3.170566263606282e-15,2.1511838763253246e-12,1.6849965186810248e-10,2.352068760994578e-09,9.031903941747338e-09,1.4727724600620934e-08,1.2463775230946603e-08,2.1891726002609188e-153,0.0,0.0
17.5,4.590417236481264e-37,1.8979472967793437e-29,2.4308848308348828e-23,1.4153927286546219e-18,5.498015651013197e-15,2.0909108293534743e-12,1.1424828093028015e-10,1.3162323227950246e-09,4.692110572853064e-09,7.595228198994396e-09,8.192838828248465e-09,3.910771627256134e-280,0.0,0.0
18.5,1.0561352636922565e-34,7.710808638353363e-28,2.513109836072852e-22,5.139927190758177e-18,9.273404542182278e-15,2.074727079453793e-12,8.091425970967509e-11,7.732755242142444e-10,2.5456070294798255e-09,4.057879504211105e-09,4.40311885882825e-09,0.0,0.0,0.0
