Hs,3.5,4.5,5.5,6.5,7.5,8.5,9.5,10.5,11.5,12.5,13.5,14.5,15.5,16.5
0.5,0.0007706305000704182,0.027095953953622413,0.10944206989733588,0.13625930488533386,0.10311587157813237,0.0506799885354348,0.016117559867355476,0.0033136297710719617,0.0004398922747840544,3.7658161703912987e-05,2.076073341211666e-06,7.360234452266425e-08,1.6757750456490633e-09,2.447115522226079e-11
1.5,2.4570963891853206e-08,0.00025958363503223743,0.02059175131841764,0.07699034882618247,0.08201757072853338,0.055938365539503036,0.024152015719356292,0.006601425585504816,0.0011422543503309124,0.00012512055114920583,8.676313103307763e-06,3.8087504863007344e-07,1.0584505394587257e-08,1.8620843660956071e-10
2.5,2.4914613616352584e-15,2.4473048220036752e-08,0.00023976888955658737,0.01626675128106753,0.05305721147507716,0.05389330757582521,0.035166853195404225,0.01452689905302656,0.0037988580758781367,0.0006288889425474443,6.590761389015012e-05,4.372581960357502e-06,1.836458288120069e-07,4.882754830751247e-09
3.5,2.551575553655504e-25,8.770621220811885e-15,4.017943233558339e-08,0.00018979649347130944,0.0071522542951432,0.01663518032772667,0.015170020375709721,0.008288585482450843,0.0026634801395476904,0.0005033769093894728,5.595152169492182e-05,3.6576765673671544e-06,1.406285448484589e-07,3.179921880696369e-09
4.5,4.944180616032845e-38,1.797556720314217e-23,1.1540396110272335e-13,1.137274865114147e-07,0.0001495455705446385,0.002280876813112028,0.003507575638852629,0.00014173590484549393,4.008179703847538e-09,7.826512123929949e-17,1.0552202427713867e-27,9.823624175645452e-42,6.314720581788905e-59,2.802788399120041e-79
5.5,1.4383364334133012e-53,1.4288081105653507e-34,3.2450125528871453e-21,1.6605718500954324e-12,1.8869810771002024e-07,4.6926241224892327e-05,0.00025169356367212356,4.9553562098723186e-11,1.5494680722403011e-117,0.0,0.0,0.0,0.0,0.0
6.5,4.323378067804402e-71,2.726234558206791e-47,4.898861116955799e-30,2.8307634148278194e-18,5.935717071059403e-11,5.096694633632042e-07,2.0222482710149955e-05,4.1840358964362506e-05,0.0,0.0,0.0,0.0,0.0,0.0
7.5,1.6218873592143124e-90,1.415205904602398e-61,4.15735298590643e-40,5.37089584038096e-25,3.98605563471725e-15,2.2199388607008486e-09,1.2119199608607026e-06,8.471813096447764e-06,0.0,0.0,0.0,0.0,0.0,0.0
8.5,8.501519064308445e-112,2.1757582647420888e-77,2.0653822368353545e-51,1.1129372867215707e-32,5.209861526419039e-20,3.2424379414869327e-12,4.105933797359758e-08,1.6190183198185436e-06,3.0422570507695556e-06,0.0,0.0,0.0,0.0,0.0
9.5,6.811924984356829e-135,1.0866787113707793e-94,6.493101156475738e-64,2.6403803561321823e-41,1.3276626530058994e-25,1.4998903575013209e-15,6.917121803268249e-10,2.3660781015143927e-07,1.090722014682669e-06,0.0,0.0,0.0,0.0,0.0
10.5,8.544763254188735e-160,1.8601691935004098e-113,1.3781243006172623e-77,7.606349840880928e-51,6.846751986573534e-32,2.200299116002758e-19,5.5263210574509215e-12,2.374740683496267e-08,3.8219974954668106e-07,0.0,0.0,0.0,0.0,0.0
11.5,1.5730550467831278e-186,1.0802600596960273e-133,2.022855442065729e-92,2.7690548303443356e-61,7.428591703425214e-39,1.0470506655911243e-23,2.0787067597401322e-14,1.5583360964693229e-09,1.1826315260983521e-07,2.435769797308724e-07,0.0,0.0,0.0,0.0
12.5,3.6062646626373665e-215,1.951617479761447e-155,1.99081271703904e-108,1.2797636687805405e-72,1.733236675444352e-46,1.6534069000428731e-28,3.714158753715201e-17,6.568483007801797e-11,3.0574450400399215e-08,1.2522938761727057e-07,0.0,0.0,0.0,0.0
13.5,7.855953354911563e-246,9.253879356894752e-179,1.1960984156496018e-125,7.217038885681993e-85,8.64830758928687e-55,8.756167594590343e-34,3.186682260617643e-20,1.7735201338844787e-12,6.421508330669888e-09,6.435354089337057e-08,0.0,0.0,0.0,0.0
14.5,1.1101372793017922e-278,8.896575936000212e-204,3.73339275315197e-144,4.54279092512584e-98,8.875315298930712e-64,1.5416667121793258e-39,1.3183980618302823e-23,3.073658864546676e-14,1.0817365759416696e-09,3.1823489330262573e-08,0.0,0.0,0.0,0.0
15.5,6.1781734366e-314,1.220931805475067e-230,4.796185146400477e-164,2.768427573379453e-112,1.735651625834019e-73,8.736622941915497e-46,2.60997134254078e-27,3.420569908426546e-16,1.4537551346342862e-10,1.4810631767523714e-08,0.0,0.0,0.0,0.0
16.5,0.0,1.525644887556436e-259,1.8621463970818096e-185,1.3387944840174408e-127,5.755743222710965e-84,1.502186945102076e-52,2.4161801109867152e-31,2.4314483516987153e-18,1.5540997392185236e-11,6.4049905643935635e-09,1.727951473640902e-08,0.0,0.0,0.0
17.5,0.0,9.951145833093356e-291,1.4786547960120812e-208,3.9631816184821944e-144,2.7582034283796755e-95,7.175223282620111e-60,1.0043683550676197e-35,1.0889821539730552e-20,1.3165589593379844e-12,2.5548966585357927e-09,1.1456224248110332e-08,0.0,0.0,0.0
18.5,0.0,0.0,1.4861811097847297e-233,5.186493520043742e-162,1.5531364639152416e-107,8.446071042660884e-68,1.7651631236827626e-40,3.000375618393521e-23,8.778144775309637e-14,9.354958060674484e-10,7.685437736758128e-09,0.0,0.0,0.0
