Hs,3.5,4.5,5.5,6.5,7.5,8.5,9.5,10.5,11.5,12.5,13.5,14.5,15.5,16.5
0.5,0.03073872908934596,0.1227357364812594,0.09862722992579065,0.04052361617511632,0.009048687301887058,0.0010922118991496112,7.084338595623617e-05,2.454466140857335e-06,4.516577298625732e-08,4.3916257415324447e-10,2.2462531058755546e-12,6.019499550189759e-15,1.1588481252217694e-17,0.0
1.5,2.6852314045190676e-10,0.013585883677182498,0.1857326598299975,0.13465013231945178,0.05006162125555957,0.009544197548689346,0.0009330615938791624,4.677540875580738e-05,1.202434014501748e-06,1.5850439136225944e-08,1.0714150156133574e-10,3.713731850693211e-13,6.600848120924845e-16,6.016242343366215e-19
2.5,9.435323590577301e-33,3.867857207392194e-11,0.005208693995101777,0.0919559184110941,0.0669566972404642,0.02439807057331086,0.004447090646504062,0.00040546700511464917,1.8492434762538066e-05,4.218826933584721e-07,4.8144686519797325e-09,2.7482994772036534e-11,7.847634827179726e-14,1.120914675496204e-16
3.5,9.167965792327475e-71,1.2916103770878183e-30,2.6623733731260113e-10,0.0046050560462933265,0.03819824616924242,0.018082395521995188,0.002279646593594829,7.653817535050467e-05,6.843648625034586e-07,1.6296574312480233e-09,1.0334844785880848e-12,1.745462870451481e-16,7.850842963613338e-21,9.404181128259876e-26
4.5,2.3514205842207044e-123,1.1295371165665805e-61,1.1050931707168881e-25,1.836233466383308e-08,0.004321056382370599,0.010354429880202187,0.002069488443780568,5.3606791269818054e-05,1.7996854777943438e-07,7.830570512896068e-11,4.4158080804995e-15,3.2273566988409296e-20,3.057058422866371e-26,3.7530167438300836e-33
5.5,3.031715441172732e-188,3.1755102055613155e-103,2.5578993959508226e-49,1.9445019737860492e-19,1.711978919677915e-06,0.002142217908429283,0.0016354118689754487,0.00012624509000511554,9.714601200700783e-07,7.451755331379886e-10,5.697906608489321e-14,4.343053666614481e-19,3.2998803623642587e-25,2.499334149330926e-32
6.5,1.0429774174358575e-262,2.1157432272316388e-153,2.9785398489821616e-80,5.322100413495502e-36,2.2074389454016989e-13,3.8869335499805655e-05,0.0005311141142443962,0.00015468389665093397,4.220322961769774e-06,1.0786724620567483e-08,2.582716982537838e-12,5.793051198574788e-17,1.217254075291077e-22,2.3960640851978882e-29
7.5,0.0,4.226234612964111e-210,4.885075488448457e-117,2.084192059577556e-57,9.063794647302868e-24,1.1095460255766e-08,0.00010558460816212327,0.00010945829268181354,9.951638562622569e-06,8.364927329241064e-08,6.50056947046033e-11,4.670488304554876e-15,3.102378824198478e-20,1.9052370543987826e-26
8.5,0.0,2.905614528974477e-271,4.481757983738309e-158,1.4506651012799653e-82,4.1653457266523845e-37,4.4849420998685735e-14,7.65493119495242e-06,8.713170454519126e-05,2.2969838131287324e-05,5.583112544510486e-07,1.2512138796432426e-09,2.585374419185468e-13,4.925519747645156e-18,8.652017814395553e-24
9.5,0.0,0.0,2.426593094296329e-202,8.367567664718508e-111,4.0359194395788034e-53,1.7871466046602395e-21,4.768543662120784e-08,5.0321397535119584e-05,3.288695288495246e-05,2.024343143019371e-06,1.1482518788653196e-08,6.001816836259011e-12,2.8908186586844693e-16,1.2830733952145793e-21
10.5,0.0,0.0,8.969290955835623e-249,2.650149646109799e-141,2.88737293481973e-71,1.1997833278873311e-30,1.9666065571259873e-11,1.3152070318384405e-05,2.9218840836681935e-05,4.0437120979159874e-06,5.1563185787231904e-08,6.058170986198872e-11,6.558213962243017e-15,6.541418068613898e-20
11.5,0.0,0.0,1.8638877529413326e-296,2.6379341279479127e-173,5.645192079348357e-91,3.023678690996617e-41,6.709748587460678e-16,1.0210854835700513e-06,1.76136299856266e-05,4.937989732988712e-06,1.2755086849368103e-07,3.0356282173368374e-10,6.656495852466789e-14,1.3448525598620233e-18
12.5,0.0,0.0,0.0,3.33388805854428e-206,9.15937016467835e-112,6.123480031890232e-53,2.681901703867022e-21,2.071538545806417e-08,7.597007427396561e-06,3.848101409644733e-06,1.8385744816089967e-07,8.09367463350335e-10,3.2827669284164386e-13,1.2267728376080245e-17
13.5,0.0,0.0,0.0,1.4716688218957962e-239,2.8510207245664467e-133,1.8273184466014383e-65,1.7253129231176106e-27,1.0685072636274065e-10,1.9326768410572894e-06,1.8192141499084533e-06,1.4853210408145728e-07,1.1173421883526498e-09,7.74428659756858e-13,4.9454520162828115e-17
14.5,0.0,0.0,0.0,3.710462504870958e-273,2.5392380259993092e-155,1.0376362624343042e-78,1.8976242638859795e-34,1.16400718333377e-13,1.794892498764991e-07,3.8535322798554385e-07,5.017948894296911e-08,6.020363751505214e-10,6.655006687406717e-13,6.778030612087566e-17
15.5,0.0,0.0,0.0,9.362799415707444e-308,1.0976150655773662e-178,1.7564472665155548e-93,4.929603201543798e-43,3.117681004626959e-18,5.708806625808238e-10,3.65333046524782e-09,7.14456379529267e-10,1.2873354406292304e-11,2.1371597184462896e-14,3.2689741125954814e-18
16.5,0.0,0.0,0.0,0.0,0.0,0.0,0.0,0.0,0.0,0.0,0.0,0.0,0.0,0.0
17.5,0.0,0.0,0.0,0.0,0.0,0.0,0.0,0.0,0.0,0.0,0.0,0.0,0.0,0.0
18.5,0.0,0.0,0.0,0.0,0.0,0.0,0.0,0.0,0.0,0.0,0.0,0.0,0.0,0.0
