Hs,3.5,4.5,5.5,6.5,7.5,8.5,9.5,10.5,11.5,12.5,13.5,14.5,15.5,16.5
0.5,0.0001623501883774658,0.027247296709715475,0.05755464549082377,0.03950514080251783,0.016943503765383446,0.004549925772960173,0.0007647176407479875,8.039382706242143e-05,5.282289286339589e-06,2.1672627805340252e-07,5.547398786439313e-09,8.85033989930151e-11,8.79320341979645e-13,5.431790452466373e-15
1.5,1.7453690309520153e-15,0.0005464056061283519,0.20870343869169164,0.20629973418212164,0.12093762454406258,0.044942288589494575,0.010587170788681087,0.00158101371929369,0.00014966572118520677,8.981317129524419e-06,3.4165572705482306e-07,8.238883525095213e-09,1.2594444182134315e-10,1.2204518032975423e-12
2.5,6.408377944184038e-36,8.508164211587888e-13,0.0014631138902402017,0.0780956642942285,0.06935885100373082,0.0413868202008827,0.016716356320257912,0.004570256432826599,0.0008457829121901377,0.00010594894434704519,8.983669169516875e-06,5.15620595405827e-07,2.0032084845126578e-08,5.267947463458108e-10
3.5,3.480070100651958e-65,1.2953168967528896e-28,5.247736821484497e-10,0.0027218683875340054,0.021250112598734574,0.017723109334141608,0.010568077280690265,0.004505359254007703,0.001373220431033901,0.00029924607884943596,4.662233956677005e-05,5.193223823448189e-06,4.1357797363061696e-07,2.3548060560690527e-08
4.5,1.0908073922617063e-101,6.137538358700429e-51,1.8312572330309674e-21,1.7502055544540732e-07,0.00323659916681471,0.006405660093017548,0.0049935850139351595,0.0028730122482180007,0.0012199414237117974,0.00038231113765815834,8.842425176302879e-05,1.5093929184175028e-05,1.9015585140286473e-06,1.7680459630148784e-07
5.5,1.49093806874548e-143,1.1754374636408342e-78,1.0646629747646497e-37,3.583162537261327e-15,1.4492110562400357e-05,0.0022781198996606315,0.002331398131153865,0.0016547152541257458,0.0008728159980337583,0.0003421485677075441,9.967800921877104e-05,2.158124951211044e-05,3.4725332836665704e-06,4.152492428123593e-07
6.5,6.8703833261855284e-189,2.1147971837067688e-110,5.7474283285196816e-58,2.4818323246266382e-26,3.064377650453988e-10,0.00019469735791561422,0.0011450335450845562,0.0009696137017890074,0.0006042041995894205,0.00027705959613554004,9.349042105901151e-05,2.3214829391428375e-05,4.241977284593813e-06,5.703949114651631e-07
7.5,5.877566232486721e-236,8.971153218509899e-145,2.7176564455951006e-81,1.6953840352488138e-40,2.2599591867216743e-17,6.679189909443668e-07,0.0004541187080026608,0.0005757388077850599,0.0004166319227639075,0.0002165389448141216,8.083062254259448e-05,2.167066634564817e-05,4.172775710729843e-06,5.770776469773567e-07
8.5,3.045685798621385e-283,1.8141601534896214e-180,1.196185179330795e-106,5.397999853140328e-57,1.0307619232629597e-26,5.14937242892342e-11,4.161022525185281e-05,0.0003362598751003457,0.0002836515778958537,0.0001649244346623069,6.60825807628693e-05,1.8246987639426142e-05,3.472142585386259e-06,4.5530887529020197e-07
9.5,0.0,2.4129742991860945e-216,4.55578119219637e-133,4.348459252452141e-75,7.969631893520397e-38,1.0652201024040457e-16,3.9437248081393053e-07,0.00015360591237266046,0.00018819341661929588,0.0001230387869034237,5.205154758894433e-05,1.4248831292840799e-05,2.523938884696565e-06,2.8928933083048105e-07
10.5,0.0,1.8957920893232893e-251,1.0893209301246443e-159,4.597314985018478e-94,3.4203676802259668e-50,1.0767088916732321e-23,3.442053589398513e-10,2.6820546860725212e-05,0.00012221590477895652,9.225305218239867e-05,4.1109764597589014e-05,1.081484914970283e-05,1.6796050514246767e-06,1.5399446382130552e-07
11.5,0.0,4.764966152711809e-285,8.156381642096864e-186,2.63926894305364e-113,2.513774147341663e-63,1.0973204470106844e-31,3.4183254233995746e-14,1.1832436003590157e-06,7.086370552357342e-05,6.778814802781992e-05,3.231351320489671e-05,7.975344735942254e-06,1.0191770333799294e-06,6.743489255104365e-08
12.5,0.0,1.32211265e-316,6.667854433631661e-211,2.650252594309203e-132,8.593099699862838e-77,2.352619911130489e-40,5.629514374834262e-19,1.2186675697781513e-08,2.470430523921215e-05,4.616555762748127e-05,2.4515172909739134e-05,5.594469945339709e-06,5.486432478166753e-07,2.3122151455093993e-08
13.5,0.0,0.0,1.5655714224012335e-234,1.2214507946330605e-150,3.3067732360120728e-90,2.186591795750385e-49,2.4858527173977317e-24,3.420085545877163e-11,4.008316038704182e-06,2.8168250380889872e-05,1.795370791193995e-05,3.7898652985203595e-06,2.6392330044890057e-07,6.063397399800533e-09
14.5,0.0,0.0,2.0876736643992512e-256,5.374751932953532e-168,2.9312081525339687e-103,1.6555950297273176e-58,4.7348647927612935e-30,3.352230392113765e-14,2.872498039009554e-07,1.4565051423575198e-05,1.2541908347275434e-05,2.5124369453875044e-06,1.1403396680118807e-07,1.1726834757101784e-09
15.5,0.0,0.0,2.4497831161800733e-276,3.8136945009691163e-184,1.0402327215101965e-115,1.721828763916354e-67,5.990081549052487e-36,1.5169362528075704e-17,9.685058232500245e-09,5.3994054814245035e-06,8.103003100518533e-06,1.648633339831427e-06,4.4490914400152926e-08,1.592530525145994e-10
16.5,0.0,0.0,3.202186091845173e-294,6.15721842137837e-199,2.212792838291968e-127,3.7144819432722975e-76,7.278470669975915e-42,4.1605381120392146e-21,1.733841724331953e-10,1.3164460483133376e-06,4.549314934505426e-06,1.0791797273977968e-06,1.5793741174362724e-08,1.4260006291262365e-11
17.5,0.0,0.0,5.0138566918491e-310,2.74608630744899e-212,3.7071252074580266e-138,2.2629001182352573e-84,1.1458369624199123e-47,8.829453729588336e-25,1.8994272326238007e-12,2.092731717842155e-07,2.1663607418658933e-06,7.045040171033145e-07,5.161506543808223e-09,7.784274120417866e-13
18.5,0.0,0.0,1e-323,3.6333933534526897e-224,5.7517864308171404e-148,4.8289881687273026e-92,2.942518881754814e-53,1.7808968898210123e-28,1.4650800861755367e-14,2.2419901517169353e-08,8.733784137023635e-07,4.5091321816306727e-07,1.5804679233845e-09,2.352293575670994e-14
