Hs,3.5,4.5,5.5,6.5,7.5,8.5,9.5,10.5,11.5,12.5,13.5,14.5,15.5,16.5
0.5,5.992904687032589e-06,0.001345350943963421,0.00326452810109289,0.0026000568788756085,0.0014749120388311576,0.0006018510842969051,0.00017759744685179655,3.8078511407328415e-05,5.954317545843567e-06,6.807041771985525e-07,5.696813038160533e-08,3.4919529782886507e-09,1.5677280959706256e-10,5.153924182141544e-12
1.5,7.851595795381509e-12,0.0034623518905337615,0.2910536618541308,0.29482987780055353,0.22684244263456307,0.13975496729748324,0.06894460787262364,0.027234755072596647,0.008614632538681118,0.0021819266936579707,0.00044252077972074507,7.186497809691366e-05,9.34525252538733e-06,9.730942361719599e-07
2.5,6.09262441867896e-28,2.870623325247982e-10,0.0022090029433557336,0.034107754001337344,0.032491739701821135,0.027011316014568958,0.01964282600363575,0.012495327479598532,0.006953072581204094,0.00338447515486534,0.0014410907978728682,0.0005367558752627199,0.00017488304883372396,4.984298830603084e-05
3.5,1.3389627734468847e-54,1.161491427071262e-24,1.4231105153996351e-09,0.00030256927151370484,0.0013692575156014567,0.0012609421957805531,0.0010079228230242807,0.0006993288374278833,0.00042117021598716013,0.00022016887453393065,9.990247550817123e-05,3.934763497948571e-05,1.3451882787235933e-05,3.9918073323823544e-06
4.5,6.13062298285612e-93,1.6497617342815282e-47,5.473975634657509e-21,2.7513001418438772e-08,0.0002573445750771789,0.0005192651057161417,0.00040310478701889146,0.00022661436768759566,9.22566321278099e-05,2.7198717168268066e-05,5.806840736570503e-06,8.977844483414654e-07,1.0051824811408048e-07,8.150015092193448e-09
5.5,1.9009115081139243e-146,2.6148089597170137e-82,3.907796680296518e-41,7.795183541413123e-18,2.549832083217034e-07,0.00016802586020066518,0.00019590992003910558,7.93967846230055e-05,1.2896716038878518e-05,8.39624486005741e-07,2.1908910863181428e-08,2.2913224831751097e-10,9.604646380550303e-13,1.6136386153556534e-15
6.5,7.844284307093021e-218,8.888055259492477e-132,9.731459106133658e-73,1.2648977886249315e-35,2.397880963466674e-15,8.144847955309947e-07,6.089897428708965e-05,4.0079645319119464e-05,3.7562868440786284e-06,4.8303760954302784e-08,8.522960218530979e-11,2.0634183761617345e-14,6.854431555107244e-19,3.1242293791513645e-24
7.5,2.021663757520833e-309,2.9736905794066785e-198,3.7945054870954297e-118,5.1603078334443475e-64,9.188518853935125e-31,2.6318028195117946e-13,1.4896614559732239e-06,2.0470887401690337e-05,6.092781472923802e-06,8.980078451501415e-08,6.463626256170688e-11,2.2719769386958998e-15,3.8999871664404745e-21,3.2692942729190577e-28
8.5,0.0,3.101298554484365e-284,7.175675843318179e-180,1.6034102998991122e-105,4.250867901983394e-56,1.642669115324655e-26,1.1367123451007633e-11,1.7304837419690148e-06,6.971241488075687e-06,7.824017863967371e-07,2.3267171807952017e-09,1.8333754742897998e-13,3.827835758480181e-19,2.1176258520899405e-26
9.5,0.0,0.0,2.1015960567444832e-260,1.185201338543386e-162,7.253214297856451e-94,5.9176984617685995e-49,7.907652233929237e-23,2.126195320034393e-10,1.413214487133334e-06,2.2354218536165144e-06,9.490034780457773e-08,8.106146207027145e-11,1.3931548076161368e-15,4.817510169363082e-22
10.5,0.0,0.0,0.0,6.666456775645695e-238,1.4281729684032433e-146,3.765595422378356e-83,1.5012121584797835e-42,1.1117176890161126e-19,1.8787952156384747e-09,8.901953508768426e-07,6.506961464570806e-07,1.0999889976755995e-08,3.3530486163771766e-12,1.8430315173823122e-17
11.5,0.0,0.0,0.0,0.0,1.0469129576277027e-216,1.335649617588297e-131,2.400755638399244e-73,7.469048422862168e-37,4.9412059590406954e-17,8.53963801217702e-09,4.7366713267151867e-07,1.7036013882547294e-07,1.1871746980927186e-09,1.4310800353904327e-13
12.5,0.0,0.0,0.0,0.0,9.541559466416628e-307,8.627189241821011e-197,1.033573323109016e-117,2.0156899096874416e-64,7.861493782268146e-32,7.533101372701982e-15,2.1788051395572542e-08,2.3368308261009345e-07,3.9738542005368464e-08,1.1609508571978853e-10
13.5,0.0,0.0,0.0,0.0,0.0,3.436203750655121e-281,3.968218290221516e-178,7.081053499013059e-105,2.3986911376769305e-56,1.895018173385002e-27,4.289468485398324e-13,3.4176933777851926e-08,1.123436279947077e-07,8.175876827137889e-09
14.5,0.0,0.0,0.0,0.0,0.0,0.0,4.665651057475229e-257,1.0878426135244825e-160,4.613089163432671e-93,4.370972355218613e-49,1.1368761601583556e-23,9.972076654766483e-12,3.623963922262486e-08,4.771546062711959e-08
15.5,0.0,0.0,0.0,0.0,0.0,0.0,0.0,2.544638547627019e-234,1.904804769461881e-144,3.080716287563025e-82,1.3225687782851645e-42,1.8515635134865438e-20,1.0384873441981037e-10,2.8667809407915587e-08
16.5,0.0,0.0,0.0,0.0,0.0,0.0,0.0,0.0,5.959661645658765e-213,2.2909675157540187e-129,2.2814586748492226e-72,7.2308789233283615e-37,8.960718620448799e-18,5.334040609796957e-10
17.5,0.0,0.0,0.0,0.0,0.0,0.0,0.0,0.0,5.164168106701886e-301,6.428508380121843e-193,2.0420106161807935e-115,2.0334438034413823e-63,7.798681991927386e-32,1.4151861369121116e-15
18.5,0.0,0.0,0.0,0.0,0.0,0.0,0.0,0.0,0.0,2.5203701952340085e-275,3.4359485984343953e-174,1.4598341793085633e-102,2.3747801127421287e-55,1.8171665971650292e-27
