Hs,3.5,4.5,5.5,6.5,7.5,8.5,9.5,10.5,11.5,12.5,13.5,14.5,15.5,16.5
0.5,4.1235580133570225e-06,0.0018945478875535507,0.011817968042410707,0.0126617867613377,0.007873035057483319,0.0031341963625455102,0.0007981612499624374,0.00012988826563167113,1.3490284330294069e-05,8.930142239680729e-07,3.7625669461801634e-08,1.0076614526133025e-09,1.713156638601682e-11,1.8468067118248338e-13
1.5,7.907368194677411e-13,5.53600702180606e-05,0.04208103007829547,0.10740167666391423,0.0848323406206518,0.04205996097301951,0.013089808947287564,0.00255714159872024,0.00031356911016900936,2.4136194496604177e-05,1.166168609512341e-06,3.5368034392706504e-08,6.733138195313019e-10,8.046020955274964e-12
2.5,1.0043350817749226e-25,2.851647260078054e-11,0.00032009715702516027,0.06465913661624104,0.10477422670615165,0.07510138148578406,0.033790795525784394,0.00954346171313353,0.0016918836106786387,0.00018827474152203442,1.3151359977460519e-05,5.766420374446532e-07,1.587080524196492e-08,2.741881326131032e-10
3.5,5.163767765640491e-46,8.643848506135793e-23,1.3250455470692326e-09,0.0012913525366514056,0.05554645189410193,0.0622540592672445,0.03967708850441047,0.01587336302535335,0.003986163721803959,0.000628345265330282,6.217253746298312e-05,3.861498491471987e-06,1.505463315977989e-07,3.684185732723137e-09
4.5,4.693291256680078e-75,9.083125720045096e-41,2.2364927731614184e-19,7.718725883528575e-08,0.0041137819840361065,0.03730147890047984,0.033120190419338474,0.01841068894902771,0.006423981622309383,0.0014070047796458853,0.00019343893359987063,1.6693570653029246e-05,9.042981106262455e-07,3.074900315361993e-08
5.5,2.0777545848745135e-114,1.3269556700650843e-66,8.397532254708736e-35,9.625969921074595e-16,3.6534176796651935e-06,0.008392292473160982,0.021262562808359607,0.016126160780955395,0.0076772095978959315,0.0022942082955532367,0.00043034754529867647,5.067139380919923e-05,3.745099901023411e-06,1.737484742971975e-07
6.5,9.452875781487147e-166,9.024445648227076e-102,3.449520266949279e-57,1.6832544329024418e-28,3.343220689127361e-12,8.617392048352278e-05,0.009190803876424602,0.010759697178617779,0.006869714910212087,0.00275317880933605,0.0006926074521777552,0.00010936967963721767,1.08408605502563e-05,6.745087905944506e-07
7.5,6.882215097098972e-231,7.801756849774043e-148,6.78801867202164e-88,2.666982021984955e-47,2.783963805317989e-22,4.5426942994997376e-09,0.0006817260102737885,0.005535956074181675,0.004660383027303088,0.0024644805942566055,0.0008180620250518049,0.00017045278530677455,2.229353872341705e-05,1.8302522892525788e-06
8.5,8.258591645183e-312,1.7388245901870074e-206,2.304160986533099e-128,2.223430195842564e-73,1.8077325765269553e-37,1.432818709005424e-16,1.2809761596818028e-06,0.0014946171614454793,0.0024642471317271094,0.0016924414911260034,0.0007291772356473051,0.00019708000926713792,3.3415047303667274e-05,3.5541161823204525e-06
9.5,0.0,1.3479687948994826e-279,3.6406863784353893e-180,4.707618838462604e-108,7.127022759191835e-59,3.089427920219297e-28,9.377461589122862e-12,4.874208061620286e-05,0.0010609834604411964,0.0009364243668961974,0.0005074007815166545,0.00016998968558115248,3.521170238362627e-05,4.509667136922383e-06
10.5,0.0,0.0,4.756699712948882e-245,9.085137336814491e-153,1.096705054604252e-87,4.6945443535558043e-45,3.998112104216128e-20,3.80090550927802e-08,0.00022630931509936119,0.00044765565377635286,0.0003004911707945762,0.00012041167611541484,2.8804127966623603e-05,4.113297348111807e-06
11.5,0.0,0.0,0.0,4.217641841912531e-209,3.5240788489429146e-125,4.790381195533597e-68,1.4973328097383966e-32,1.5211277573750084e-13,7.09884016689521e-06,0.00021510907555687768,0.00018198257591108823,8.623825123216778e-05,2.2994090448991152e-05,3.4496790453453954e-06
12.5,0.0,0.0,0.0,5.2818971797909905e-279,6.2322810712339744e-173,1.7458371851642156e-98,4.601582420722534e-50,4.522770673718783e-22,6.569661068570048e-09,5.589455919907968e-05,9.658342356913756e-05,5.488303172732458e-05,1.604954066281839e-05,2.4153281159731528e-06
13.5,0.0,0.0,0.0,0.0,1.1132590358855997e-232,9.778750141280457e-138,9.936402336290161e-74,1.4679134794521068e-34,3.962451811815906e-14,2.4563290662878848e-06,4.394757266802413e-05,3.126950196057118e-05,1.008089644240944e-05,1.4708031298931482e-06
14.5,0.0,0.0,0.0,0.0,1.8946912627530916e-306,2.2326322082073276e-187,9.251401320108991e-105,6.192446999675991e-52,3.0756319106222275e-22,5.2068676777404265e-09,1.3801989325523253e-05,1.575866760541389e-05,5.787433325807054e-06,8.023343763635635e-07
15.5,0.0,0.0,0.0,0.0,0.0,2.944315608947231e-249,1.4633489546603077e-144,3.0148245966888064e-75,5.095833223032166e-34,1.3986072332616498e-13,1.233650508421329e-06,6.7602801111875465e-06,3.03987356513906e-06,4.002699431565835e-07
16.5,0.0,0.0,0.0,0.0,0.0,0.0,8.709596352716412e-195,1.0158980406321052e-105,2.3362558633529424e-50,1.0939274289063989e-20,1.0770455834287993e-08,2.3026968143954095e-06,1.4356670819370353e-06,1.8504626555838501e-07
17.5,0.0,0.0,0.0,0.0,0.0,0.0,2.0565465135205754e-257,8.488896507468759e-145,2.748991375514352e-72,4.707786098126203e-31,2.8740415579333623e-12,4.216131153211665e-07,5.828133930485797e-07,7.961006150362716e-08
18.5,0.0,0.0,0.0,0.0,0.0,0.0,0.0,3.2241229631031324e-194,4.932554781459608e-101,1.6045891780103154e-45,6.353604534594863e-18,1.75296658672507e-08,1.8590322895089684e-07,3.154415340892622e-08
