Hs,3.5,4.5,5.5,6.5,7.5,8.5,9.5,10.5,11.5,12.5,13.5,14.5,15.5,16.5
0.5,1.0547907741996738e-10,0.0006732382430481666,0.035645789411009855,0.05329360909605914,0.048703152944995734,0.040769839280110486,0.03126946817259449,0.021983337493718225,0.014175852282100885,0.008392281366603378,0.004566512643379209,0.002287018986485935,0.0010559684794921084,0.0004503498040785228
1.5,1.1955642899917147e-32,1.2206273043112398e-10,0.011752801872248373,0.14149191972262676,0.1308986810348425,0.10458582911255933,0.0721679482560192,0.04300805622721392,0.022135493705656723,0.009839262620004865,0.003777198719345009,0.0012523077166033299,0.00035858013071911153,8.86738015064803e-05
2.5,9.896222403308123e-58,2.572882929212075e-23,3.790285912317759e-07,0.024866415143683016,0.04981933787714235,0.03833008897196703,0.021693236572361968,0.009031326153148446,0.0027658036760701476,0.0006230656680213669,0.00010324973426186653,1.258597058970748e-05,1.1285664399653948e-06,7.444065735402356e-08
3.5,3.57158567170864e-90,4.4747979065328795e-42,6.54448216968126e-16,5.3204911399563296e-05,0.011449533634878132,0.010275132187893084,0.004645266231045864,0.0010929409488047131,0.00013382759788310527,8.528203682404795e-06,2.828344732622358e-07,4.881687974841512e-09,4.3850100008739365e-11,2.0499065163844786e-13
4.5,3.9474327768629616e-129,1.2364215021304398e-66,2.8061271519437435e-29,1.359502346192413e-10,0.00041421633643960834,0.0023085685038327555,0.0009756000580145767,0.00010136740237441572,2.5895378676666727e-06,1.6264610363489656e-08,2.5116696050469293e-11,9.536275847335614e-15,8.902101645185692e-19,2.0431664157295317e-23
5.5,1.4957015009602032e-173,2.1962030250097466e-96,3.8919176505265633e-47,1.5474366154067935e-19,2.566342601105171e-07,0.0003300375875165728,0.0002623317684758241,1.0957490727597958e-05,2.2034688321478208e-08,2.1332329689537167e-12,9.942720645090874e-18,2.231042087312332e-24,2.4101599413739767e-32,1.253486150484568e-41
6.5,3.484264816579283e-222,2.0396945445281503e-130,5.804603404431733e-69,9.599204252050633e-32,1.1026939688632103e-12,1.0518012321896777e-05,9.953083510342545e-05,3.4079938388247493e-06,1.6070923241516053e-10,1.0437193269769673e-17,9.335283193918846e-28,1.1499319527044481e-40,1.9508220651862707e-56,4.557892200945367e-75
7.5,5.792653586179751e-274,6.27850426923736e-168,2.9353891732016575e-94,4.63190141353624e-47,1.93014669951027e-20,1.661927175113495e-08,2.313543058001179e-05,4.7444701813370744e-06,2.4763444354064108e-12,7.5975910554452425e-25,1.3701947859011028e-43,1.4525471586465115e-68,9.051482281573157e-100,3.315512761502597e-137
8.5,0.0,4.278364758701349e-208,1.964181895589259e-122,3.642195100472171e-65,1.4209675786404641e-30,6.07584166465247e-13,1.483173291802744e-06,1.0581607584589043e-05,5.953151896352617e-13,8.500695639082194e-34,3.08087558764409e-68,2.834040459179191e-116,6.616832212871455e-178,3.921086194797338e-253
9.5,0.0,4.1891455724391057e-250,7.521653691519232e-153,1.2465458560366169e-85,6.72007065642661e-43,4.153112401090735e-19,1.036982453089909e-08,3.6866390422074125e-06,3.482294092904437e-11,1.995533853845536e-43,2.264223269523485e-105,5.086814428404593e-197,2.26276e-318,0.0
10.5,0.0,3.4145409051479367e-293,7.081844630411354e-185,5.5252960402336085e-108,3.9262301294943035e-57,6.15209384324012e-27,5.146513438109716e-12,5.564961820268675e-07,2.5374259367641963e-07,2.0828236447120219e-50,1.911527285250302e-158,0.0,0.0,0.0
11.5,0.0,0.0,6.526988459356717e-218,9.603834808718973e-132,6.132575277901752e-73,2.868162327020416e-36,1.6581486492854566e-16,1.999854288417021e-08,8.492287064254937e-07,2.0319446435141253e-48,2.9808116149029595e-228,0.0,0.0,0.0
12.5,0.0,0.0,2.0838524197476005e-251,1.9008280835539854e-156,5.770012190295589e-90,6.95295021078427e-47,3.9675325117713756e-22,1.2788845571023953e-10,2.777807552468194e-07,8.608592882775885e-31,9.65450308997529e-308,0.0,0.0,0.0
13.5,0.0,0.0,7.08861202510917e-285,1.1497106069496499e-181,7.282183699098557e-108,1.538942689904107e-58,9.270709067285423e-29,1.3601133692319034e-13,4.1519382170880604e-08,7.790277666341223e-08,0.0,0.0,0.0,0.0
14.5,0.0,0.0,6.80667e-318,5.160967132883261e-207,2.6230559966063315e-126,5.537505362758083e-71,3.0088540385039728e-36,2.6074661364372662e-17,2.2331457186184527e-09,1.171241660465908e-07,0.0,0.0,0.0,0.0
15.5,0.0,0.0,0.0,3.741234458830985e-232,5.371180067233908e-145,5.667267575086389e-84,1.9989270314755364e-44,1.072036023797842e-21,3.976317282302719e-11,4.639614461673345e-08,2.103458060607658e-255,0.0,0.0,0.0
16.5,0.0,0.0,0.0,8.519334267149336e-257,1.1531618830662069e-163,2.7795043497692933e-97,4.0289977885537757e-53,1.1861494829631537e-26,2.3952711017177853e-13,1.120476917531107e-08,3.651969267096318e-39,0.0,0.0,0.0
17.5,0.0,0.0,0.0,1.0628202923389531e-280,4.4140477293786226e-182,1.0474335543497033e-110,3.6001532320351396e-62,4.543738315248059e-32,5.338217130422071e-16,1.480002780953758e-09,2.45473705059155e-08,0.0,0.0,0.0
18.5,0.0,0.0,0.0,1.1429813051307998e-303,4.724246921579815e-200,4.599721924732897e-124,2.028563383785303e-71,7.792128259628754e-38,5.012871798936821e-19,1.0385623819785799e-10,1.3324365939755475e-08,0.0,0.0,0.0
