Hs,3.5,4.5,5.5,6.5,7.5,8.5,9.5,10.5,11.5,12.5,13.5,14.5,15.5,16.5
0.5,0.0,6.100157393489847e-15,1.8078809966995908e-09,1.0276630477633243e-06,1.2737120924282711e-05,2.1771221300167023e-05,1.5066583786873717e-05,4.490717005963621e-06,5.619192417073415e-07,2.930401270484742e-08,6.330597047200827e-10,5.643158647538261e-12,2.0716377904053e-14,3.130222356744546e-17
1.5,3.729233819058697e-33,3.1928053408424665e-17,8.759132940028212e-08,0.0038621662361236373,0.13728633001016513,0.19473658897151777,0.13161078729397183,0.05001888474823214,0.01068993611944243,0.0012847386937034431,8.682665845710103e-05,3.2998177864282815e-06,7.052212975430631e-08,8.475385643112122e-10
2.5,3.5711153064189317e-90,4.7536690800098625e-45,1.083251285488664e-18,4.693470199973139e-06,0.0429450279724093,0.08738174249339191,0.07091467222498908,0.0440432891539204,0.020933971812283646,0.007614681997275775,0.0021197280797371613,0.00045158216390620606,7.362438047970735e-05,9.186176216549084e-06
3.5,0.0,9.831605711704622e-181,1.6632057291044094e-72,9.308716774488365e-21,0.00012094589087932538,0.00208742086198337,0.0018101410472968038,0.00131076111484822,0.0007925805614366221,0.00040019533305673833,0.00016873662488284713,5.940943628125779e-05,1.7466675033869735e-05,4.28818767642053e-06
4.5,0.0,4.5128144999544425e-182,6.544617978545508e-74,3.2944808437412102e-22,4.039156403655431e-06,6.889484072362718e-05,6.0084805905674696e-05,4.408364699885343e-05,2.720979444780082e-05,1.4128885226162047e-05,6.171992999755466e-06,2.268181708376796e-06,7.012375344523799e-07,1.8238426014799793e-07
5.5,0.0,2.7722951411047606e-183,3.9590315156950233e-75,1.9719171988166096e-23,2.40366391097459e-07,4.0949129266630295e-06,3.5712078538333324e-06,2.6201157391595773e-06,1.6171887640279335e-06,8.397226079854896e-07,3.6681397055427596e-07,1.3480027597534325e-07,4.16745180493891e-08,1.083890181402827e-08
6.5,0.0,2.5493703460058796e-184,3.6350777478221497e-76,1.808644177094535e-24,2.203364523155295e-08,3.753226541961906e-07,3.273214639630087e-07,2.401480598269253e-07,1.482240143328568e-07,7.696494283389679e-08,3.362034940476691e-08,1.2355103430074843e-08,3.819666445963458e-09,9.934348363907508e-10
7.5,0.0,3.211589014177196e-185,4.578612250419145e-77,2.2778612567820292e-25,2.77482309822521e-09,4.726595936724175e-08,4.122096060274806e-08,3.024284409066417e-08,1.866646344958398e-08,9.692512043255102e-09,4.233948252135748e-09,1.5559284914755007e-09,4.810260681133456e-10,1.2510725149695273e-10
8.5,0.0,5.157503837858672e-186,7.352698786909449e-78,3.657931547217595e-26,4.455957999219907e-10,7.590209093280867e-09,6.6194722117584555e-09,4.856550154961467e-09,2.9975558555331257e-09,1.5564729658856163e-09,6.799089699458797e-10,2.498589157607739e-10,7.724561277257982e-11,2.0090358460329806e-11
9.5,0.0,1.0035086397658274e-186,1.4306311015837448e-78,7.117311947978196e-27,8.670043248992668e-11,1.4768414146588073e-09,1.287963291718414e-09,9.44948194216826e-10,5.832401390853797e-10,3.028459022243737e-10,1.322911798604166e-10,4.861552379599196e-11,1.5029825563586477e-11,3.909019189682991e-12
10.5,0.0,2.280992443794672e-187,3.251848664561853e-79,1.6177768590893056e-27,1.970715155477254e-11,3.35688489588438e-10,2.9275618064074467e-10,2.1478828315470223e-10,1.3257144559468148e-10,6.88373730695769e-11,3.00700033693877e-11,1.1050388738235105e-11,3.416304138030979e-12,8.885265084781126e-13
11.5,0.0,5.895596061588056e-188,8.404931781613166e-80,4.181407376852812e-28,5.093633769518032e-12,8.676414852683486e-11,7.566759518613639e-11,5.551552429951466e-11,3.4265245762522453e-11,1.7792138384356274e-11,7.772081317167666e-12,2.856152651643073e-12,8.82999354468515e-13,2.2965412378447424e-13
12.5,0.0,1.6975454733407478e-188,2.4200697823592195e-80,1.2039714173370418e-28,1.4666328612883894e-12,2.49823911874645e-11,2.178731071816879e-11,1.598483438806435e-11,9.866146194067141e-12,5.122970359571316e-12,2.237850299937384e-12,8.223848680040098e-13,2.542459721658141e-13,6.612534388376254e-14
13.5,0.0,5.358846106092119e-189,7.639725551591535e-81,3.8007214777393573e-29,4.62989647035226e-13,7.886492102515279e-12,6.87786259627831e-12,5.046125057264186e-12,3.114565113397711e-12,1.6172297110784138e-12,7.06449137899501e-13,2.596121291219447e-13,8.026088601901707e-14,2.0874583157450214e-14
14.5,0.0,1.8313707866822324e-189,2.6108550080089387e-81,1.2988860184946234e-29,1.58225427135491e-13,2.695186791994757e-12,2.3504904570603212e-12,1.7244992359472668e-12,1.0643939849707682e-12,5.52683766148651e-13,2.414270325681804e-13,8.872172473587726e-14,2.742893508296725e-14,7.133830869672048e-15
15.5,0.0,6.706541451741648e-190,9.561038902118045e-82,4.756564310976769e-30,5.794268389104089e-14,9.869864733062968e-13,8.607575154511148e-13,6.315174236392224e-13,3.897846592878271e-13,2.0239465510328015e-13,8.841139179778754e-14,3.2490194172369224e-14,1.0044568333628697e-14,2.612432871864118e-15
16.5,0.0,2.609794020100148e-190,3.7205976183465747e-82,1.8509768685296354e-30,2.254790654997311e-14,3.8407745847683974e-13,3.3495652457306493e-13,2.4574967703728794e-13,1.5168141138857334e-13,7.87601723465975e-14,3.4404547154879143e-14,1.264328492906306e-14,3.9087590168825095e-15,1.016606209916657e-15
17.5,0.0,1.0717385690981915e-190,1.5279014117458513e-82,7.6012255573935225e-31,9.259528114445064e-15,1.5772533104165917e-13,1.3755331784470262e-13,1.0091961480323217e-13,6.228952076231117e-14,3.234366917946659e-14,1.412857867488963e-14,5.192094086434758e-15,1.6051718118131635e-15,4.1747972305898835e-16
18.5,0.0,4.617678562822485e-191,6.5830957274046046e-83,3.275053946886429e-31,3.9895479838803554e-15,6.795732662471914e-14,5.926603981333404e-14,4.348209118174343e-14,2.6837980175952572e-14,1.3935550340295875e-14,6.087420640752496e-15,2.237058761378828e-15,6.916021946745371e-16,1.7987475893535158e-16
