Hs,3.5,4.5,5.5,6.5,7.5,8.5,9.5,10.5,11.5,12.5,13.5,14.5,15.5,16.5
0.5,1.9084205853314153e-13,1.20099105353119e-06,0.0004237051898770749,0.0016846765222790383,0.001571427439222406,0.0009670036598391623,0.0004078986932532525,0.00011797218243570896,2.3400336993649724e-05,3.1841203354746687e-06,2.9729447299990535e-07,1.9050752634031752e-08,8.380172439490765e-10,2.530948317991139e-11
1.5,1.4744688424353259e-19,8.344347268851651e-08,0.015382805449728755,0.37267651332106977,0.4034189463729798,0.30035357809593266,0.16699921339561077,0.06934276218172486,0.021502697493806396,0.0049795471546320285,0.0008611758646058815,0.00011122411181814134,1.0727811632490868e-05,7.727311653235825e-07
2.5,5.707249488316675e-30,4.492871069281908e-14,6.03706437359218e-06,0.005585979040163976,0.014358023343713696,0.013112882112638839,0.010055251823115927,0.006474094571129111,0.003499906317337903,0.0015886385360078428,0.0006054594464997243,0.00019374759436425137,5.205696819343353e-05,1.1743910053262577e-05
3.5,1.8533390000636694e-43,8.54543584540671e-23,3.5344134501231785e-11,5.290188604110041e-06,0.00011560124802400085,0.00012611406093797302,0.00011034937291714703,8.479353431330265e-05,5.721924390530492e-05,3.3908454901258e-05,1.764657376648259e-05,8.064905816581198e-06,3.2368659420674317e-06,1.1408712475641798e-06
4.5,3.9064237893949254e-59,4.4228499725633506e-33,2.3675942016292434e-17,2.4174718560775624e-09,1.8994662292706003e-06,4.632546012051937e-06,4.303078166976122e-06,3.4844152921112477e-06,2.4596412561752383e-06,1.5135780082523157e-06,8.119495230885348e-07,3.797033556462219e-07,1.5479289460157494e-07,5.5010905030503776e-08
5.5,1.6455048494002925e-77,1.9096354508474737e-45,5.5391168621339365e-25,1.620079162691531e-13,1.927544818819853e-08,3.7636754439891367e-07,3.9800092081620316e-07,3.078276864139961e-07,1.8630094143422175e-07,8.82279504624003e-08,3.269498193231562e-08,9.480686428220109e-09,2.1512071535309474e-09,3.8195170592302593e-10
6.5,4.4712276155440735e-99,2.210647885293059e-60,1.448386665816234e-34,5.073276175849041e-19,3.8326435059131144e-11,2.519307446625752e-08,5.8074389919551636e-08,4.4982853934105727e-08,2.2044109045445264e-08,6.83472886867208e-09,1.3407049922369756e-09,1.663904351144324e-10,1.3064917861346966e-11,6.49035131461885e-13
7.5,3.151782014604325e-124,2.747489022369097e-78,1.6877062905663743e-46,2.94717397937179e-26,5.902412699659399e-15,5.469342935023534e-10,9.45996247799059e-09,9.197918391460842e-09,4.5021562615084445e-09,1.1295332003934364e-09,1.4525291626256108e-10,9.574104073507721e-12,3.2345871084307825e-13,5.60127612118391e-15
8.5,2.775006526484654e-153,1.7575720399980038e-99,4.18337332030272e-61,1.509632935041977e-35,3.3320709916756815e-20,1.8147723958815268e-12,9.839250338035842e-10,2.1357893717733036e-09,1.3464867890202446e-09,3.834034957413248e-10,4.930833476150281e-11,2.8641443303486722e-12,7.514148238255433e-14,8.903790109215596e-16
9.5,1.5328140100616674e-186,2.8942193173703887e-124,1.098484777737383e-78,3.3809921949893914e-47,3.404463675195994e-27,4.524541167063027e-16,3.201758547421561e-11,4.86695910174881e-10,4.4847458063665133e-10,1.7678806751404603e-10,2.9721492039663385e-11,2.131036112950119e-12,6.516487315154081e-14,8.498432746233348e-16
10.5,2.677195885261817e-224,6.157210778570772e-153,1.5269911950997419e-99,1.6474209172551936e-61,3.11928489063793e-36,4.181718760988418e-21,1.6012930044757827e-13,7.065939072733812e-11,1.4408918794545428e-10,8.48745402426045e-11,2.08392353739299e-11,2.132771994137806e-12,9.098407473057322e-14,1.6178737945290474e-15
11.5,7.47669841059435e-267,8.521077970382741e-186,5.634123191403585e-124,8.71910991568242e-79,1.274086377260873e-47,7.092076132646888e-28,6.066840741320496e-17,3.21760983069173e-12,4.268277402573577e-11,3.813109859795907e-11,1.4199565845084356e-11,2.1850242933884374e-12,1.3893860362547922e-13,3.650690751625755e-15
12.5,1.6985235954e-314,3.88606593081555e-223,2.783322641213321e-152,2.5176690402364766e-99,1.160332126673159e-61,1.0992120392223162e-36,8.635013268150306e-22,2.2693098951016994e-14,8.048978376257563e-12,1.5391396591066746e-11,8.793197997619929e-12,2.0691748804739155e-12,2.0055295449207432e-13,8.006495293539485e-15
13.5,0.0,2.97900051840476e-265,9.350720903707997e-185,2.0060277038540848e-123,1.186623557502674e-78,7.808005388903459e-48,2.305606741131143e-28,1.2325803616155317e-17,4.812791281911297e-13,5.537292644478103e-12,4.813579264948819e-12,1.7409225016621302e-12,2.590321113245462e-13,1.5855890139596043e-14
14.5,0.0,1.97119848307e-312,1.0924135725940714e-221,2.2457603816255357e-151,6.909175647807609e-99,1.2833420708932844e-61,5.806025000172077e-37,2.5810863533680216e-22,4.548625926066956e-15,1.2819729344020607e-12,2.2956201331695257e-12,1.27762910381031e-12,2.9240266042857805e-13,2.7518806555713963e-14
15.5,0.0,0.0,2.283605934493482e-263,1.809982273756297e-183,1.1686424249164468e-122,2.479762194545729e-78,6.976319657330748e-48,1.049778204128179e-28,3.408713220459607e-18,9.635450034387135e-14,9.56553045989136e-13,8.090175378293557e-13,2.8488968599706183e-13,4.124743297532994e-14
16.5,0.0,0.0,4.4206916233334e-310,5.412294452718904e-220,2.946853807421317e-150,2.8786484935339873e-98,2.0353469264433087e-61,4.2021824827396845e-37,1.0220329925475544e-22,1.1813412254886642e-15,2.6180210386575494e-13,4.3865078488943874e-13,2.376247037261504e-13,5.292243173360815e-14
17.5,0.0,0.0,0.0,3.1112972511003146e-261,5.7159149784214304e-182,1.0315197933378109e-121,7.37706845612911e-78,8.43473407027712e-48,6.220240846754508e-29,1.193598112234021e-18,2.404313270120336e-14,2.0510341089048473e-13,1.6865264934061046e-13,5.775998733046192e-14
18.5,0.0,0.0,0.0,1.790697040653867e-307,4.422897246351017e-218,5.8924433984104084e-149,1.70826292802655e-97,4.3476205335045426e-61,3.91879961057126e-37,5.046913745981814e-23,3.746597176737875e-16,6.467751191933796e-14,1.0136842156066754e-13,5.336407470578936e-14
