Hs,3.5,4.5,5.5,6.5,7.5,8.5,9.5,10.5,11.5,12.5,13.5,14.5,15.5,16.5
0.5,1.6628653452714134e-07,6.286936482038482e-06,9.326993792292707e-05,0.0006246181844592184,0.0021695440781594275,0.004488205352687203,0.006356939534078705,0.007102025362856726,0.006792568147937245,0.004684536066109142,0.0021127432107170933,0.0006182024664650644,0.00011696503821788352,1.4255248697604889e-05
1.5,3.1057096026859663e-07,6.911920753224706e-05,0.0027301238872537268,0.026707158092992407,0.09029230413872423,0.1472202493357031,0.1615452285596241,0.14361471411645899,0.08975320240915184,0.03919622037166244,0.011961389994161357,0.002550717328866702,0.0003800898192115421,3.9577956226264055e-05
2.5,1.461627497190786e-24,1.9029913204084498e-13,1.0308313057937909e-06,0.0029098339388273836,0.05361147410754195,0.0807478790948873,0.07237621069221896,0.05232818499379481,0.030517616683967203,0.01435623862637149,0.005447607831790971,0.0016674242567512535,0.0004116816476144247,8.1988324492219e-05
3.5,3.418504e-318,4.7255224394126746e-151,9.504898642357939e-57,1.9519293498890075e-14,0.0028716716056664472,0.007407905220363705,0.006482505298017665,0.004967998661817347,0.0033343500129800084,0.001959891500936947,0.0010088904223837123,0.00045482789804403176,0.00017957311579469627,6.209071595248765e-05
4.5,1.996881247512075e-278,5.49578757472566e-128,4.312125858001156e-46,6.768179071917137e-12,0.00014910984096343368,0.0001764128347665172,0.00015785521081195073,0.0001288710264601715,9.598851525609329e-05,6.5230526176463e-05,4.044362832944785e-05,2.2877942324220612e-05,1.1807322681429966e-05,5.559727742248104e-06
5.5,1.2208463881658932e-263,7.266447018951814e-120,7.420954375746322e-43,9.124500609850778e-12,9.477750498922825e-06,9.899003243668746e-06,9.0039496158909e-06,7.612837371928936e-06,5.9831784395237365e-06,4.371085130173657e-06,2.9683730571542238e-06,1.8737843349726173e-06,1.0994934169425739e-06,5.99704861755922e-07
6.5,1.8220628015087417e-258,2.0723910126942097e-117,2.2112069825632607e-42,1.5530003867049875e-12,5.037711954437299e-07,5.109327384293686e-07,4.669699071008196e-07,3.9892579245693115e-07,3.1854691086209903e-07,2.3775668589446277e-07,1.6587087602705396e-07,1.0816471179756404e-07,6.592939884589802e-08,3.756217168564033e-08
7.5,5.578008821814012e-257,4.8178916292113866e-117,7.895192927947033e-43,1.7223899706422404e-13,3.509929403148953e-08,3.393089866425671e-08,2.6851268286706524e-08,1.786079483232478e-08,9.986269810503001e-09,4.693235486372808e-09,1.8539923250957081e-09,6.156162205118251e-10,1.7182197736943585e-10,4.031010294075723e-11
8.5,6.139098867848562e-257,1.8266037231627588e-117,1.3807922469822294e-43,1.8607660038340723e-14,3.1366765637855035e-09,1.830228911727686e-09,2.2500509328716716e-10,5.878314677316682e-12,3.263524348780929e-14,3.8502987467006393e-17,9.653294217716248e-21,5.14316198206618e-25,5.823155751908859e-30,1.4010710342859222e-35
9.5,1.05257572025045e-257,2.0143173246386735e-118,1.1054126931005761e-44,1.2206134655283318e-15,1.902935849981673e-10,1.3103648062750822e-13,2.363737285447107e-25,9.300554775926905e-46,7.98217357855086e-75,1.4942943142488379e-112,6.101741206731942e-159,5.434681378145433e-214,1.0558374321549974e-277,0.0
10.5,5.374138671799283e-259,8.565612956522e-120,4.116504783778027e-46,4.185569267158315e-17,6.3178790149645406e-12,1.4792058355896115e-56,1.5618162396388075e-221,0.0,0.0,0.0,0.0,0.0,0.0,0.0
11.5,1.2945693152006695e-260,1.9127235356649218e-121,8.700362059306327e-48,8.549009748970822e-19,1.2732767021479213e-13,0.0,0.0,0.0,0.0,0.0,0.0,0.0,0.0,0.0
12.5,1.8777558512230386e-262,2.6885462494696526e-123,1.1953665743159319e-49,1.1580439520727266e-20,1.7152382331608842e-15,0.0,0.0,0.0,0.0,0.0,0.0,0.0,0.0,0.0
13.5,1.7441520756587096e-264,2.464928362597595e-125,1.0856327826994907e-51,1.045575556921557e-22,1.545100921731814e-17,0.0,0.0,0.0,0.0,0.0,0.0,0.0,0.0,0.0
14.5,1.0064216514269596e-266,1.4146662307361638e-127,6.206271458036624e-54,5.962734124964109e-25,8.803049629227008e-20,0.0,0.0,0.0,0.0,0.0,0.0,0.0,0.0,0.0
15.5,3.328115895834319e-269,4.667666767216291e-130,2.04442433092245e-56,1.9622175926458883e-27,2.8957652192550372e-22,0.0,0.0,0.0,0.0,0.0,0.0,0.0,0.0,0.0
16.5,5.5699651440329925e-272,7.804599785489484e-133,3.416089993563714e-59,3.27735589991004e-30,4.83580384187031e-25,0.0,0.0,0.0,0.0,0.0,0.0,0.0,0.0,0.0
17.5,3.9395515361557363e-275,5.517950034950545e-136,2.414544125452293e-62,2.316082718570978e-33,3.4171941470917244e-28,0.0,0.0,0.0,0.0,0.0,0.0,0.0,0.0,0.0
18.5,9.017312156710352e-279,1.2628121974877555e-139,5.525172829767226e-66,5.2994833702524815e-37,7.81874227624448e-32,0.0,0.0,0.0,0.0,0.0,0.0,0.0,0.0,0.0
