Hs,3.5,4.5,5.5,6.5,7.5,8.5,9.5,10.5,11.5,12.5,13.5,14.5,15.5,16.5
0.5,7.145611457001991e-09,0.0001054655467741946,0.005662167366350141,0.015498025124422946,0.014308691199137165,0.008969899374310433,0.003894003405949903,0.0011702067421331763,0.00024331474111447264,3.4982696282103946e-05,3.4755774264364594e-06,2.3844173603614047e-07,1.128772496089023e-08,3.6846020617348957e-10
1.5,3.5624327761005975e-15,8.963460876553671e-07,0.007364069380502287,0.10216162346063848,0.11604628882732207,0.0830184747621411,0.040627362096454164,0.013600750705769013,0.0031146375602589265,0.0004879243964808336,5.2287506483183053e-05,3.83304316543627e-06,1.92216147854505e-07,6.5938097081821115e-09
2.5,1.3429139710256948e-24,6.646289908628446e-12,4.469704918820274e-05,0.026964082151981032,0.09632485904198175,0.08660199106641185,0.05335125270369421,0.02248338754666435,0.006481555627972469,0.001278195075281302,0.00017243102433075322,1.5912340275854917e-05,1.004507277588979e-06,4.337829707757151e-08
3.5,2.621096732347484e-38,4.2996389423748304e-20,2.749250989943949e-09,0.0005894175716340655,0.03644608439162374,0.055400580337874025,0.04295403382899692,0.02278211169635228,0.008265790238890515,0.002051517209259354,0.00034831031024780954,4.045366530633392e-05,3.2140291043089563e-06,1.7467957015019303e-07
4.5,2.162794487550533e-57,3.14529947862269e-32,3.364650969162794e-16,3.035893778618351e-07,0.0026493475208357554,0.025640964636799088,0.025753390624573862,0.0171868964620934,0.007846227343712516,0.0024503306702392327,0.000523466490731113,7.64985947253178e-05,7.6474810603932e-06,5.22978390781435e-07
5.5,3.034538226363913e-83,1.7925222325497044e-49,9.166292444859313e-27,6.361201174259099e-13,9.392038377814713e-06,0.004625034073690247,0.011908674041959891,0.009995267187296944,0.0057402536733179845,0.0022551121459862765,0.000606045993662901,0.0001114149338629293,1.4011402551247517e-05,1.2053694944331659e-06
6.5,1.4781711517985985e-117,3.04555717851906e-73,3.749717193596814e-42,6.081513461887223e-22,2.8641642036096756e-10,8.63473303973418e-05,0.003673299670975995,0.004554817502794419,0.003289888921853788,0.0016255183281897807,0.000549418005653922,0.00012703233683955187,2.009213410283931e-05,2.1738933334574955e-06
7.5,2.445734139253069e-162,3.1466848806195436e-105,9.12860976155212e-64,1.9098632349188142e-35,9.216902452697691e-18,3.281645518817248e-08,0.0002757154822928362,0.001748365825311464,0.0015598765085813383,0.000884683280761674,0.00031915870405584487,7.32397472968868e-05,1.0690751935416036e-05,9.926380960466596e-07
8.5,5.038648213480587e-220,1.714887457641224e-147,2.5023554481585683e-93,7.524135086473477e-55,2.2405817745500413e-29,3.175879852098839e-14,1.0298377321337098e-06,0.0003671786549441766,0.0006837031043932645,0.00042646119975665425,0.00012882016836962437,1.88443241476258e-05,1.334964249063602e-06,4.5798480578850224e-08
9.5,1.3544659485649404e-293,1.4212295974871153e-202,5.576359309437983e-133,6.145304596664969e-82,1.428755910822451e-46,5.263933957218378e-24,2.308428316072288e-11,9.05089917387421e-06,0.00023831547145079882,0.0002153724529697612,5.2578853257991826e-05,3.346642623245426e-06,5.5537309758660047e-08,2.4029105918554636e-10
10.5,0.0,1.6508818560166396e-273,2.7502982918930674e-185,7.539365639365631e-119,4.172199538048141e-71,5.7181382175159954e-39,2.3811546138702284e-19,3.6961362148578166e-09,2.6237341036307595e-05,0.00010449300256413851,3.432875882543255e-05,9.472364328776674e-07,2.1881499674940363e-09,4.231693177871103e-13
11.5,0.0,0.0,1.884938832183486e-253,2.782672376604945e-168,3.174477292286547e-105,5.8933152062157785e-61,3.749353400106626e-32,1.7214495958142887e-15,1.2011726523695355e-07,2.6823887338985232e-05,2.9871435097549467e-05,9.056926508081756e-07,4.420106265819781e-10,3.4722556098265178e-15
12.5,0.0,0.0,0.0,1.6775383833110127e-233,1.1843524588942757e-151,3.3042936773240795e-92,1.3929248016205845e-51,3.3922687145522404e-26,1.8248557998293612e-12,8.290959084993976e-07,1.2164131088803382e-05,2.347600059059607e-06,1.3500595691507574e-09,1.9517363351906597e-15
13.5,0.0,0.0,0.0,1.70392e-318,9.859365191041245e-214,1.7390953817807884e-135,6.918279429664449e-80,4.591967509278051e-43,3.7622814814237136e-21,2.8150187731992547e-10,1.4230317809454534e-06,3.295950454293362e-06,2.351762294605135e-08,8.05345200067233e-14
14.5,0.0,0.0,0.0,0.0,1.3593318532699644e-295,3.1567967868122094e-194,7.051860587950789e-120,2.3318728613960546e-68,1.756540527580038e-35,4.638437777171508e-17,6.607750679677639e-09,7.81469461865315e-07,2.3957239230801005e-07,2.200318294883396e-11
15.5,0.0,0.0,0.0,0.0,0.0,1.04932883634664e-272,4.395712962663414e-175,6.141111863224782e-105,9.947156795092111e-58,6.494107883729894e-29,5.940772506552113e-14,2.647302317997554e-08,1.9977247967261308e-07,2.5522806869453446e-09
16.5,0.0,0.0,0.0,0.0,0.0,0.0,6.358887705826788e-250,2.0481315818877636e-156,8.665107707660783e-91,4.1565064110559476e-48,1.951283123372059e-23,7.738351135406628e-12,2.2377514787188436e-08,2.0022462188811834e-08
17.5,0.0,0.0,0.0,0.0,0.0,0.0,0.0,2.352454150887198e-227,2.3582949302386542e-138,1.4485026573997987e-77,1.3023015413229348e-39,4.0945081713073755e-19,1.0755155876012268e-10,5.638756039142839e-09
18.5,0.0,0.0,0.0,0.0,0.0,0.0,0.0,1.5e-323,3.9298938766654594e-205,4.7310416193442655e-121,2.0309119329999973e-65,2.330005828617594e-32,5.354608622691257e-16,1.847466126883171e-10
