Hs,3.5,4.5,5.5,6.5,7.5,8.5,9.5,10.5,11.5,12.5,13.5,14.5,15.5,16.5
0.5,1.2739325250112142e-12,1.787436471538553e-08,4.3901795694073515e-06,6.143601258613824e-05,0.00014529096400908972,0.00014343354214108422,7.053749285153768e-05,1.5735020128918315e-05,1.5881025284113558e-06,7.231639496059902e-08,1.4820841820601009e-09,1.3644879439571217e-11,5.635331858373795e-14,1.0430901032170917e-16
1.5,5.997156733931923e-17,2.5548972827614716e-09,7.558981171680618e-05,0.010844002303959821,0.05266562006745226,0.05889127402933958,0.03672880284580349,0.012285069887837438,0.00220375608837091,0.00021201395814201274,1.0939070422745402e-05,3.026993006604495e-07,4.492183126222638e-09,3.57534966768553e-11
2.5,2.659438211820204e-33,9.98667837128913e-18,2.6799619578909342e-08,0.0017919341496558383,0.10409041917884575,0.1831411081353946,0.15373039924146378,0.09187927472067851,0.039098423583877134,0.011846357161344306,0.002555608258973845,0.00039254335458248823,4.293039277592817e-05,3.342919973771918e-06
3.5,3.758511232846857e-80,2.448753546091827e-43,2.1165205178838132e-20,4.658159691900407e-08,0.005010569073460695,0.05055997258228472,0.04828413281403516,0.03727546887599827,0.023484197265125385,0.012074308004067573,0.005066204379835155,0.0017347507645271338,0.000484758457282855,0.00011054716955614541
4.5,4.591983972848944e-249,3.5542444387905857e-137,1.1763002132159246e-65,1.798907961920614e-25,1.3737747447406663e-07,0.005661530600459057,0.007926471647960228,0.0068253896897587435,0.005083855238114022,0.0032754960577315506,0.001825488782125309,0.0008800339726426539,0.00036697619150914327,0.00013237150985788545
5.5,0.0,0.0,2.6646411310832856e-181,5.25668761808019e-73,3.2704856360627275e-21,4.502711154032651e-05,0.0007884006975641222,0.0007138286707418752,0.0005698884715059103,0.0004011757310022246,0.00024901661803493726,0.00013629216968744632,6.577523022345866e-05,2.798999012555782e-05
6.5,0.0,0.0,2.85439936727697e-219,3.28277182813179e-94,1.1034187537249438e-30,7.605869285668697e-08,7.535717844877345e-05,6.845264825601919e-05,5.2182155995113795e-05,3.338258179235082e-05,1.7921896443432903e-05,8.074472209156508e-06,3.0528851294251552e-06,9.686634689692786e-07
7.5,0.0,0.0,1.2855038928490443e-261,1.355299307086016e-118,3.9151721148004765e-42,2.174480188012881e-11,1.629236520261337e-05,1.4847974376575486e-05,8.119619939257076e-06,2.7979539203014483e-06,6.07549655019594e-07,8.31303030701016e-08,7.167592617160296e-09,3.8942481970574704e-10
8.5,0.0,0.0,7.0432183698817e-309,1.0615247007476346e-146,4.1576795920186e-56,2.969402196173505e-16,2.7134339752618867e-06,4.417664244068334e-06,1.4588508299625657e-06,1.703911040679129e-07,7.03883517491361e-09,1.0284247571079505e-10,5.314496170236307e-13,9.713360839143925e-16
9.5,0.0,0.0,0.0,6.817529831728969e-179,5.664008515782957e-73,8.2328267203284e-23,1.4690528146756453e-07,1.577855276955869e-06,4.3221855432165095e-07,2.46568610559681e-08,2.9293435694124825e-10,7.247712808566635e-13,3.7344769456014226e-16,4.0073449799013835e-20
10.5,0.0,0.0,0.0,1.8991851369578099e-215,5.192787957851311e-93,2.411077680203124e-31,1.3339337947212712e-09,6.099667311713718e-07,2.0774992705376136e-07,1.12187576345503e-08,9.605451994744047e-11,1.3039471821203408e-13,2.806540725837915e-17,9.577493180129518e-22
11.5,0.0,0.0,0.0,1.2292194301623526e-256,1.701993542126248e-116,3.929395821057556e-42,1.0613733064891487e-12,2.3535324208305344e-07,1.211274583689716e-07,8.84242906008195e-09,9.215918075837427e-11,1.3713353395088554e-13,2.9133104848004136e-17,8.836248420485861e-22
12.5,0.0,0.0,0.0,9.76679261449725e-303,1.045059759238066e-143,1.851994335312104e-55,3.814017519794336e-17,6.40479665077424e-08,7.309914623788039e-08,8.182368865128557e-09,1.2614598324190017e-10,2.678523258460482e-13,7.833305072331243e-17,3.1551665046863557e-21
13.5,0.0,0.0,0.0,0.0,6.28331445502867e-175,1.3085835898132645e-71,3.1822299987586544e-23,6.340364323042788e-09,4.31218342126913e-08,7.684867985017056e-09,1.8640589584662532e-10,6.154133672409588e-13,2.7654018770239106e-16,1.6913505492325645e-20
14.5,0.0,0.0,0.0,0.0,1.941164806712432e-210,7.21425013571731e-91,3.182059174597668e-31,1.1688228853660531e-10,2.431031487842783e-08,6.968353865136116e-09,2.7082029673237865e-10,1.4270645651921694e-12,1.0195709091321796e-15,9.876490459544759e-20
15.5,0.0,0.0,0.0,0.0,1.6264309833021563e-250,1.6244612484095523e-113,1.9798628957576473e-41,2.0660843749504257e-13,1.2953385689017382e-08,5.979373549977524e-09,3.7419257741111307e-10,3.1710598946917316e-12,3.639012234131936e-15,5.654997019748845e-19
16.5,0.0,0.0,0.0,0.0,1.9621568733391066e-295,7.867131211689605e-140,4.0031587958407737e-54,1.8139617715120414e-17,5.136028938282726e-09,4.804173730000578e-09,4.846389342770662e-10,6.617783606870615e-12,1.2232113092585369e-14,3.0604485128166248e-18
17.5,0.0,0.0,0.0,0.0,0.0,4.338932318480612e-170,1.3814032518656484e-69,4.120326401560309e-23,8.078885412352006e-10,3.5889472066108486e-09,5.835935861938579e-10,1.2843754972365604e-11,3.825705842420412e-14,1.54230120440993e-17
18.5,0.0,0.0,0.0,0.0,0.0,1.45052585797402e-204,4.2948859384762683e-88,1.2678385965150347e-30,2.6181685954021483e-11,2.4797753644044906e-09,6.497479113211908e-10,2.3040781855699917e-11,1.1057814529690653e-13,7.182260611288791e-17
