Hs,3.5,4.5,5.5,6.5,7.5,8.5,9.5,10.5,11.5,12.5,13.5,14.5,15.5,16.5
0.5,0.008113506982524284,0.04790632952830183,0.049886858583863776,0.02302612345035936,0.005078108071949502,0.0005369820315837088,2.7270248532516122e-05,6.649913532501308e-07,7.773719107067139e-09,4.3447873007613677e-11,1.1572988523307742e-13,1.4697877073804007e-16,0.0,0.0
1.5,1.0148032849666457e-08,0.014044842354362395,0.232853634560331,0.19555420287421132,0.08689831886465511,0.02045955867303477,0.00255224178508382,0.0001686894934900465,5.9073801616437255e-06,1.0960805534369673e-07,1.0775332775930002e-09,5.612541646780741e-12,1.5489205019137188e-14,2.2648494894022927e-17
2.5,3.085593965815732e-64,7.133658539553637e-22,6.756835393523885e-05,0.10930268321825685,0.0974618138936512,0.055377895057707745,0.020472656392117324,0.004924336815751511,0.0007706498575200566,7.846974730503285e-05,5.198561726583192e-06,2.2407837968878337e-07,6.284236273840746e-09,1.146676347442478e-10
3.5,6.914606287976112e-228,5.46577289235539e-98,5.1684839411328604e-31,4.1023938700445115e-06,0.01917826272530895,0.016286704919579592,0.00985119535171639,0.004243977552463338,0.0013022239197844772,0.0002845946306053404,4.429923017599775e-05,4.911273272453807e-06,3.878113039461441e-07,2.181098460494432e-08
4.5,0.0,2.352507132259969e-185,5.244086890242183e-75,8.514431301460208e-22,7.065182432489092e-05,0.0018088037971499221,0.001401431040437964,0.0007758169246423536,0.00030686970256034717,8.672733887809475e-05,1.7513190626347843e-05,2.526863456018771e-06,2.6049867580590743e-07,1.918830049444476e-08
5.5,0.0,1.2240322010661337e-293,6.798144292992244e-137,2.425310632743657e-50,3.899949213447911e-13,0.000198335407152577,0.00027244738178279916,0.00017477790857025282,7.577091344754899e-05,2.2198855935508634e-05,4.395120108457111e-06,5.880618259991485e-07,5.317252860901269e-08,3.2491048337620452e-09
6.5,0.0,0.0,2.548890739657537e-212,2.960243158961149e-90,7.50322909313863e-29,2.9123851823112695e-07,0.00012052121290852354,9.025353349237193e-05,4.1400494662197295e-05,1.1632885212566539e-05,2.002211499694164e-06,2.1109262295063628e-07,1.3632539268711145e-08,5.392883699508233e-10
7.5,0.0,0.0,5.758084044820147e-297,3.75068989585128e-139,8.311988802848514e-52,4.3973851342702226e-14,3.896861342458689e-05,5.3910341588864295e-05,2.7438433274282687e-05,7.63953576278078e-06,1.1635768161427877e-06,9.694905569021559e-08,4.41888337537155e-09,1.1017978704500695e-10
8.5,0.0,0.0,0.0,4.159986766111615e-194,1.5207453635945736e-80,4.193700552965217e-25,6.121386871727432e-07,3.0274125919260372e-05,1.83556418688799e-05,5.510590535020708e-06,8.191384491942923e-07,6.02902499925772e-08,2.197189228112079e-09,3.964774040637314e-11
9.5,0.0,0.0,0.0,2.4003076790299446e-252,2.9584618060709604e-113,1.1798838383078573e-39,1.0683705357438814e-10,1.5411646819457836e-05,1.1845820732994952e-05,4.128947970074345e-06,6.624551522769858e-07,4.892337076890545e-08,1.66310274040533e-09,2.6023433975314872e-11
10.5,0.0,0.0,0.0,1.5049037902425e-311,3.169294622207676e-148,8.883102282199003e-57,2.3251448551883075e-16,3.9879876069652355e-06,7.219490066697384e-06,3.0365404442116937e-06,5.607153670434594e-07,4.545657281879532e-08,1.6178630695341433e-09,2.5280035296107097e-11
11.5,0.0,0.0,0.0,0.0,5.308915553723262e-184,1.6740986756069203e-75,1.4386733393537133e-23,2.364200892456023e-07,4.169968198231281e-06,2.1339687828267434e-06,4.659630874704171e-07,4.341333002002548e-08,1.7258490916454784e-09,2.9274579804657634e-11
12.5,0.0,0.0,0.0,0.0,1.934498565426178e-219,5.665304647663713e-95,7.210434192437752e-32,2.798452822716824e-09,2.31741129755706e-06,1.4295668299875888e-06,3.701402232999591e-07,4.0224307820486715e-08,1.8347265827468642e-09,3.512486018472028e-11
13.5,0.0,0.0,0.0,0.0,1.0710992331155082e-253,1.697023023804292e-114,8.120405755656474e-41,8.234454369131454e-12,1.2416356013641238e-06,9.209405273583281e-07,2.799849696715218e-07,3.539740131304239e-08,1.860979419685333e-09,4.068602766595108e-11
14.5,0.0,0.0,0.0,0.0,3.447532725581253e-286,1.5074715073824264e-133,4.955130869662492e-50,8.591353306002965e-15,5.513198047035146e-07,5.77103691798317e-07,2.029490420749452e-07,2.9526732830270355e-08,1.7772111055176078e-09,4.425454478501897e-11
15.5,0.0,0.0,0.0,0.0,1.50525597e-316,9.380304464488975e-152,3.3050023619276307e-59,4.619659996354521e-18,1.7974912401025178e-07,3.5549064491619416e-07,1.4227251575651597e-07,2.34895248102246e-08,1.5998815739469635e-09,4.49533257561644e-11
16.5,0.0,0.0,0.0,0.0,0.0,7.200013505424471e-169,4.071825362906487e-68,1.791698388142304e-21,4.3042324935063937e-08,2.1707360834199512e-07,9.732618161948778e-08,1.7973566580466597e-08,1.3671644734159144e-09,4.2834054422739883e-11
17.5,0.0,0.0,0.0,0.0,0.0,9.494398053684974e-185,1.3380400338577796e-76,6.604083808599128e-25,8.010008411007052e-09,1.322309686341492e-07,6.546751795887662e-08,1.3339162440662761e-08,1.118513512686186e-09,3.85979196360329e-11
18.5,0.0,0.0,0.0,0.0,0.0,2.502881925511422e-199,1.48616168114804e-84,2.85801172330585e-28,1.2490198286633979e-09,8.072088206112036e-08,4.356718165825954e-08,9.672514357098928e-09,8.833354266782386e-10,3.3183199854296156e-11
