Hs,3.5,4.5,5.5,6.5,7.5,8.5,9.5,10.5,11.5,12.5,13.5,14.5,15.5,16.5
0.5,1.5769310658973777e-11,1.638014259934322e-05,0.0035983170316853707,0.012706260338307478,0.011119306052100144,0.005893969637810696,0.001942150326534347,0.0003978384674336368,5.0650626271244626e-05,4.006437759851757e-06,1.9680527058374445e-07,6.000951085063929e-09,1.1353084968763201e-10,1.332093767163066e-12
1.5,4.617386677745168e-22,3.0710448037320864e-09,0.002297747208010808,0.10008479972780075,0.1151723120868882,0.07585409728906199,0.03203105082396007,0.008672104688894117,0.0015053553164114963,0.00016753853465222224,1.1955055258265521e-05,5.469525435118912e-07,1.6043860899530868e-08,3.017375175074599e-10
2.5,3.066737054778076e-35,2.1294260593226028e-16,2.1114916793931482e-06,0.019036162789224386,0.0993470810302584,0.08745881214627582,0.05332202967913386,0.02250517486649604,0.006575529538203826,0.0013300001685213312,0.00018622812929985897,1.80514248283501e-05,1.2112960900382617e-06,5.626803711984342e-08
3.5,1.198778508225735e-53,2.232832147602661e-27,5.7150606263502714e-12,0.00015891990662576807,0.03795539461259156,0.05983839407808405,0.04666046481790779,0.026135461207527435,0.010515338373541992,0.0030389832951915104,0.000630877951636046,9.40750294277252e-05,1.0076630934627555e-05,7.752973837316423e-07
4.5,2.7147917020067984e-78,4.66558577157666e-43,7.891075304056799e-21,1.3021031799005557e-08,0.0020780340969162874,0.03179631960342936,0.030978266829104897,0.021124984730912115,0.01035307158585103,0.0036464944412850993,0.0009230291582765443,0.00016791473595233617,2.1953093491531202e-05,2.0627004755689777e-06
5.5,2.071684222697605e-110,1.5516413233809066e-64,5.976541357567094e-34,1.4869151433089826e-15,3.001144823928016e-06,0.0061721871464588355,0.016227606507974356,0.013413374417971176,0.007921584463546164,0.003342539107833555,0.001007700252980325,0.00021705843545108614,3.340507101743992e-05,3.673149127681983e-06
6.5,2.2518817622865774e-151,4.901793597672041e-93,2.048150631012274e-52,2.6428658151831334e-26,1.6943518047419457e-11,8.682728706456663e-05,0.005721922211185676,0.006576676733278482,0.004689239003250305,0.002363125620103017,0.0008417048224710863,0.00021189533175340942,3.770261984506615e-05,4.741439746956426e-06
7.5,1.0780878614985148e-202,6.620091871698705e-130,2.033303007545865e-77,6.512257525281965e-42,4.53435539735919e-20,1.4309261633356647e-08,0.0004266774788772634,0.002506260413649721,0.002179368906724647,0.0013185517231061711,0.00055479111233424,0.0001623408157723845,3.303633468480708e-05,4.675433613250202e-06
8.5,4.932432658321518e-266,1.2480320532853153e-176,2.803164748720655e-110,1.5285415797570804e-63,5.534253943273777e-33,3.638660559400902e-15,1.1881522075995126e-06,0.0005269848532102169,0.0008261977288107599,0.0006087019158921142,0.00030507308261536957,0.00010401157240564752,2.4123370288769715e-05,3.806035671348476e-06
9.5,0.0,8.123650520950365e-235,2.017522341192544e-152,1.9027762205050593e-92,2.4770820048789452e-51,1.617921418070331e-25,1.9271694368261123e-11,1.5216293433423684e-05,0.00028947123513568286,0.0002708517868074377,0.00016459929140274368,6.611718777240582e-05,1.7554600089444538e-05,3.080758554008147e-06
10.5,0.0,2.3151489486400386e-306,1.5176120141900654e-205,3.86084255219308e-130,1.8670221502471105e-76,8.405613591065202e-41,1.7256331373686406e-19,7.912125176171274e-09,3.968350117750721e-05,0.00010610699386951494,8.048375294764456e-05,3.890717622399103e-05,1.1986944345844468e-05,2.353664462075886e-06
11.5,0.0,0.0,1.476389870780387e-271,2.523561592950168e-178,7.263049461369282e-110,2.3572622389719866e-62,5.777928539694732e-32,7.163138809901084e-15,3.008105518670315e-07,2.8657138889224852e-05,3.1335624472822334e-05,1.8850520215668148e-05,6.90586987790219e-06,1.5407192450199743e-06
12.5,0.0,0.0,0.0,7.251435870382479e-239,3.21593155167894e-153,1.2329787658708188e-91,3.8010338662120463e-50,8.763478957081944e-25,1.4054368971488722e-11,1.458268429583701e-06,9.105131928895243e-06,7.1501307488964816e-06,3.2350658608040515e-06,8.427126935209256e-07
13.5,0.0,0.0,0.0,7.4715526457e-314,2.2349965206961353e-208,2.7123446176017132e-130,1.753742023908992e-75,7.933963012413527e-40,3.2981397503929207e-19,1.654448122131894e-09,1.3152044478902027e-06,1.9592607982518897e-06,1.1565468966147794e-06,3.668925456239246e-07
14.5,0.0,0.0,0.0,0.0,1.9746371835498262e-277,3.483816698039562e-180,1.303814298878921e-109,1.95333215033972e-61,2.2107713625939693e-31,3.567191245519877e-15,1.5485714417101984e-08,3.41323228796453e-07,2.843990686713092e-07,1.168053151428083e-07
15.5,0.0,0.0,0.0,0.0,0.0,2.0728557880214252e-243,2.1537556025258565e-154,3.02061107988047e-91,1.5800050573141633e-49,8.516901681554401e-25,1.3072495382948524e-12,1.578640653670899e-08,4.05572603433251e-08,2.350030189324055e-08
16.5,0.0,0.0,0.0,0.0,0.0,2.3e-322,5.903270706625158e-212,3.861963017245209e-131,2.6869537743380647e-75,8.205246004689287e-40,4.538841305989437e-20,1.8769946101677036e-11,2.3949052790652508e-09,2.302005808219859e-09
17.5,0.0,0.0,0.0,0.0,0.0,0.0,8.923488407300722e-285,2.5308029582185005e-183,1.2051536107202759e-110,6.067551867403391e-62,2.0337530736791017e-32,2.857743172604657e-17,1.0600223771176102e-11,6.535762617069658e-11
18.5,0.0,0.0,0.0,0.0,0.0,0.0,0.0,1.3666398002408473e-250,4.346501835257245e-158,1.9043677125073587e-93,1.1296738239181871e-51,8.91687769390142e-28,9.204415526602653e-17,1.22115125377045e-13
