Hs,3.5,4.5,5.5,6.5,7.5,8.5,9.5,10.5,11.5,12.5,13.5,14.5,15.5,16.5
0.5,4.3139021851438895e-13,8.525772190764348e-09,2.467173801327185e-06,3.869080113747969e-05,9.894190418084965e-05,0.00010133490123535416,4.927478163821306e-05,9.959224929886034e-06,8.329531970845838e-07,2.8708713207753343e-08,4.063033206428398e-10,2.354798285355098e-12,5.5775348166755726e-15,5.382367487577335e-18
1.5,2.09007368907722e-15,8.261648928479422e-09,7.7773110998318e-05,0.008059912964671095,0.04250596942329694,0.05267706771396401,0.036530018415433706,0.013094719181357307,0.0024263893237521242,0.00023240356317184396,1.1506495635509085e-05,2.9448377431576404e-07,3.895809059614443e-09,2.6641087844646985e-11
2.5,2.2320113392523315e-22,8.093292457090835e-13,9.634598408493991e-07,0.0023191596303862327,0.06952250449423313,0.1598552902154229,0.15353718011934375,0.10414550728229705,0.04943741546774757,0.016423254224835353,0.0038181317640001455,0.000621199141591003,7.07292447752052e-05,5.6357981948821496e-06
3.5,4.731153808113013e-34,2.635206424174656e-20,3.5021961655521875e-11,9.837431553793686e-06,0.005173394305594942,0.04511897376730641,0.057663344072487945,0.04936494210538264,0.03290207943304247,0.017073162281169632,0.00689748075618243,0.0021694664282001035,0.0005312528559026885,0.00010128276030368757
4.5,1.2937246712980031e-51,6.476500272280114e-32,2.303382229816897e-18,8.224647250879476e-10,4.166704887009337e-05,0.004232441316319767,0.012181771213271108,0.011785409859277904,0.008938138151929488,0.005334785859256787,0.002505846565839641,0.0009263167459320567,0.00026948345761383885,6.169816709584799e-05
5.5,7.23766012569843e-78,1.2835871309270163e-49,1.3550381426292556e-29,2.2158923268100683e-16,1.4607931544205939e-08,0.0001010284534793763,0.0019075923146185255,0.002537802055830534,0.0021146066302577217,0.0013518969504263344,0.0006631316267705575,0.0002495732578303249,7.206734275100839e-05,1.596691907703365e-05
6.5,1.3810161798591182e-117,6.734863890546894e-77,2.5969457887699104e-47,4.648836075562047e-27,2.2683817968933267e-14,1.771421577771952e-07,0.0001299884746546612,0.0005262694847725992,0.0004909660251105704,0.0003317189284518559,0.00016266076144178418,5.788807147663077e-05,1.4951649069609274e-05,2.8027401966841858e-06
7.5,9.327633756371178e-179,1.1672877349414987e-119,9.865526643968262e-76,1.0019628976691023e-44,2.1758308042195826e-24,1.7976031337848176e-12,1.0053350561236486e-06,6.772191830010256e-05,9.501209275809697e-05,6.956286664876761e-05,3.3761670745812846e-05,1.0862211690760272e-05,2.316650223599807e-06,3.2752959266001657e-07
8.5,5.954887394322359e-275,5.08592327583721e-188,3.711890477853623e-122,1.9418668589906e-74,6.108190060561503e-42,9.69045743934256e-22,6.504059536607819e-11,1.549184272522734e-06,1.0984235639341771e-05,9.357286120618242e-06,4.6535552642421914e-06,1.3488421623767359e-06,2.2786555469923857e-07,2.2435591173156932e-08
9.5,0.0,7.08392927492323e-300,1.357355224072373e-199,2.7250660651961663e-125,4.500844162957844e-73,4.801904845214359e-39,2.598393765414539e-19,5.599347648129246e-10,3.77294226799729e-07,5.693037079419031e-07,3.1733811306116525e-07,8.74708894028511e-08,1.1922516569713715e-08,8.035916431910541e-10
10.5,0.0,0.0,0.0,1.2727964370504335e-214,1.6103514323040924e-129,7.082484381017319e-72,2.417862630506871e-36,1.430660030558826e-17,3.276256353230455e-10,6.483861158441838e-09,4.658576073171345e-09,1.3734611786752777e-09,1.656474596000376e-10,8.172564671835193e-12
11.5,0.0,0.0,0.0,0.0,5.694879510435313e-236,1.3343664286840855e-136,2.7458643389455726e-72,2.1001393051400595e-35,2.5265845679755502e-18,2.023428855093075e-13,3.446971213047222e-13,1.284867773457039e-13,1.6064231095110437e-14,6.7366219577572e-16
12.5,0.0,0.0,0.0,0.0,0.0,0.0,0.0,0.0,0.0,0.0,0.0,0.0,0.0,0.0
13.5,0.0,0.0,0.0,0.0,0.0,0.0,0.0,0.0,0.0,0.0,0.0,0.0,0.0,0.0
14.5,0.0,0.0,0.0,0.0,0.0,0.0,0.0,0.0,0.0,0.0,0.0,0.0,0.0,0.0
15.5,0.0,0.0,0.0,0.0,0.0,0.0,0.0,0.0,0.0,0.0,0.0,0.0,0.0,0.0
16.5,0.0,0.0,0.0,0.0,0.0,0.0,0.0,0.0,0.0,0.0,0.0,0.0,0.0,0.0
17.5,0.0,0.0,0.0,0.0,0.0,0.0,0.0,0.0,0.0,0.0,0.0,0.0,0.0,0.0
18.5,0.0,0.0,0.0,0.0,0.0,0.0,0.0,0.0,0.0,0.0,0.0,0.0,0.0,0.0
