Hs,3.5,4.5,5.5,6.5,7.5,8.5,9.5,10.5,11.5,12.5,13.5,14.5,15.5,16.5
0.5,1.791125965443946e-12,2.3421311864282808e-08,5.870953780549478e-06,9.21681866069534e-05,0.0002480705604601349,0.00026024829615728845,0.00010261010688480027,1.1192277291924364e-05,3.2998021980877135e-07,2.5910291391091854e-09,5.369828661308023e-12,2.9215373013497286e-15,4.40426667260821e-19,0.0
1.5,1.2934367899979844e-14,1.9363197476385368e-08,0.00011215517333284096,0.009950332519490119,0.05353004400434491,0.06912975301444134,0.04428914167619605,0.01086802083192408,0.0010208072373865396,3.670093246386002e-05,5.050687942886895e-07,2.6605048447241903e-09,5.364356740326494e-12,4.140104744189464e-15
2.5,1.5159761485581172e-20,6.205274626017463e-12,2.0209543143782683e-06,0.0025727577318069533,0.0628938601954128,0.14504562331981305,0.13995305295580976,0.08490104437506966,0.03150481461897951,0.007151119976441313,0.00099289755282976,8.432727300137196e-05,4.380915859541798e-06,1.3921787743384612e-07
3.5,6.671473690323085e-30,5.386237155569444e-18,4.6445827886387e-10,2.7350447957334076e-05,0.007032303930894699,0.05047835913693998,0.06461486570029092,0.053467657988011626,0.03175974497372453,0.013542223628498613,0.00414505297819316,0.0009107460992416919,0.00014364538698677173,1.6263468662746313e-05
4.5,2.9400781241726654e-43,6.979438128281106e-27,1.3507550621078683e-15,1.886008573614724e-08,0.00016812720913437845,0.008467905308930511,0.02132426129422012,0.020446394688433872,0.014396928645123418,0.007423807562255811,0.0028034144047285226,0.0007752676042472962,0.00015700725260178345,2.3285819833018857e-05
5.5,3.409952112769971e-62,9.990121641406258e-40,8.542004460097736e-24,2.8299796755399654e-13,4.822911891952786e-07,0.0005613139197257743,0.005922986636419359,0.007459133881231958,0.005831045015246304,0.003175623864814186,0.0012048594569007446,0.00031846990287421456,5.864420065070136e-05,7.523266001131532e-06
6.5,3.0880263806177946e-89,2.101955336035722e-58,5.332967092221665e-36,1.1181073135401434e-20,4.294706231407637e-11,6.700158120056742e-06,0.0009412489019490459,0.0026397207112016773,0.00233147514638142,0.0012687841703231224,0.0004222022724466151,8.590713485391374e-05,1.068842604443036e-05,8.131564886418726e-07
7.5,3.138348805078049e-128,8.577990177063786e-86,2.6792194686636637e-54,4.092879212519573e-32,1.3089014170350902e-17,3.750609072144524e-09,4.121667880544557e-05,0.0007434983349634134,0.0008976110252099048,0.0004897528595262968,0.000124482634706831,1.4739527177662298e-05,8.130201736267861e-07,2.0891137183988816e-08
8.5,4.4656114859045304e-185,2.4039250005760213e-126,6.053442993832191e-82,7.198134568883432e-50,4.080071976752584e-28,1.1128597699782387e-14,1.474457345127334e-07,9.579382890941406e-05,0.0003080709851185848,0.0001923724019128191,3.27511822315874e-05,1.5017582287774194e-06,1.8546496587095217e-08,6.168968780533542e-11
9.5,4.1753140956656585e-269,3.8318183731110964e-187,3.6911802634462667e-124,1.1786832476688086e-77,3.94028308492936e-45,4.354949623087705e-24,5.02563779993759e-12,1.912399031596302e-06,7.578304734765052e-05,7.579818545552174e-05,8.445338509591427e-06,8.364473522882546e-08,7.364164072316893e-11,5.763304918397647e-15
10.5,0.0,1.0256536455554216e-279,1.6698191057923636e-189,1.2991562915345528e-121,7.184429193857943e-73,4.200274233231054e-40,3.861296473576125e-20,8.301840624892179e-10,6.208933266835196e-06,2.4025728524842898e-05,2.7165343335074846e-06,2.830082373556798e-09,2.708587392250598e-14,2.3814777416848784e-21
11.5,0.0,0.0,1.748237840141765e-292,3.060622159431885e-192,1.264517812915556e-118,1.5898684407690265e-67,7.843924454278172e-35,1.9581978316027284e-16,3.1896692416408006e-08,4.371350503308022e-06,1.4445920467988915e-06,9.816696030440399e-11,5.575606192113112e-19,2.6468264400851133e-31
12.5,0.0,0.0,0.0,3.7154150775360494e-308,1.8195360967593907e-195,4.381792880355468e-115,1.489071545075771e-61,2.0492103953110188e-29,3.277174137089779e-13,1.7477897449452567e-07,8.37460560898028e-07,1.2064569949526557e-11,7.912473386118661e-25,2.362466251089726e-46
13.5,0.0,0.0,0.0,0.0,0.0,2.409492266448433e-199,7.599379668787337e-111,6.712825069377986e-55,4.843034550211433e-24,8.321954234898104e-11,9.932053859223599e-08,3.312110008600927e-11,6.371273624176632e-31,6.042354587427177e-68
14.5,0.0,0.0,0.0,0.0,0.0,0.0,4.0157289431893235e-204,1.0467855631266243e-105,1.506691903281378e-47,4.655968417637694e-19,1.2010466688886286e-09,1.88469539638261e-09,9.143946989388563e-35,2.5200627177824234e-96
15.5,0.0,0.0,0.0,0.0,0.0,0.0,0.0,3.363657121758783e-210,2.1429760111343744e-99,1.346313689388627e-39,4.5129811437744194e-15,4.367511168590457e-10,5.371795906764692e-32,4.334082528719849e-128
16.5,0.0,0.0,0.0,0.0,0.0,0.0,0.0,0.0,3.648624950870314e-185,8.981621755560635e-79,2.7484305381971577e-28,7.335916281511643e-13,6.092769680301459e-20,3.4733644299008313e-152
17.5,0.0,0.0,0.0,0.0,0.0,0.0,0.0,0.0,2.1825948045796766e-257,7.783341767758188e-120,2.382456691551535e-47,4.3922291536077885e-19,3.4220090889861665e-14,1.3089137230062301e-146
18.5,0.0,0.0,0.0,0.0,0.0,0.0,0.0,0.0,0.0,6.061640888896722e-175,1.8461788195954943e-76,2.388254963483934e-31,9.207592905173207e-19,1.1898927546160783e-88
