Hs,3.5,4.5,5.5,6.5,7.5,8.5,9.5,10.5,11.5,12.5,13.5,14.5,15.5,16.5
0.5,2.5194066478054715e-07,0.00029158085674036615,0.002999519598342224,0.003728864437324888,0.001956534278246504,0.00048079534080836526,5.5004269991428734e-05,2.9101033994018363e-06,7.071888156370559e-08,7.844527900395872e-10,3.950878046137161e-12,8.996021554975322e-15,9.079419886581687e-18,0.0
1.5,4.3536512728232177e-13,2.464447469337873e-05,0.027202615273837515,0.09386755839228729,0.06942684774938054,0.022878116978709336,0.0033407816680630863,0.00021617770397112945,6.198815270890743e-06,7.876648713391436e-08,4.435159554668909e-10,1.1066543811813426e-12,1.2236289842521892e-15,5.99545975268403e-19
2.5,5.538485299763707e-25,3.51717820573918e-11,0.00027925903385938184,0.06867679887946455,0.1286922770240978,0.07791724793084848,0.0209049778969949,0.002485425840062302,0.00013094438921475081,3.0570881932030166e-06,3.162743921858988e-08,1.4499568575571084e-10,2.945649839273113e-13,2.6518084297198736e-16
3.5,9.807788814131305e-44,7.701504729637437e-22,2.690175610553797e-09,0.001684181281778619,0.07613823393323152,0.08727063820089076,0.04160024448292006,0.008787363717361699,0.0008225386441617353,3.411842760380642e-05,6.271287247082037e-07,5.108099728378013e-09,1.843728761162885e-11,2.9489654334891247e-14
4.5,8.716891153340781e-71,1.634322567171336e-38,2.4443082023514424e-18,2.0269277176555112e-07,0.0064774898763483345,0.05544769348399411,0.04511463541420875,0.016402853246846903,0.002642751545227011,0.00018868103950621043,5.9694617509671055e-06,8.369067606090743e-08,5.199408827879331e-10,1.4314159330906603e-12
5.5,6.148674398374443e-108,1.0622530522596142e-62,1.1798846933577515e-32,1.0815664609211834e-14,1.0502819416459294e-05,0.013868663324411992,0.031746030786055916,0.019280491845467262,0.005188977324596185,0.0006188429190336303,3.270499355892923e-05,7.659187453108391e-07,7.948520859147925e-09,3.655315993730823e-11
6.5,2.6384024539311403e-157,3.8048531762069075e-96,1.1139860984273325e-53,1.698968836719233e-26,3.463168259172094e-11,0.00024208232099044504,0.014889243214715206,0.015465511521418479,0.006729780584906977,0.001292243917647747,0.00010949519573830619,4.094044959670187e-06,6.754872045595206e-08,4.918001101998825e-10
7.5,2.248136333879964e-221,7.015221577236868e-141,4.660369623327432e-83,3.707252450935348e-44,1.9862293439056112e-20,4.031295813438756e-08,0.0017433740963100819,0.009035657572799175,0.0061187289726140235,0.0017610699586370006,0.00021526704826109347,1.1175425251290638e-05,2.463973969184086e-07,2.307245076070379e-09
8.5,4.0906489828671074e-303,2.6199629826849193e-199,1.0181135857013213e-122,3.298092532577281e-69,1.2236644840194536e-34,7.144341058374877e-15,9.018404209108698e-06,0.003381678357571441,0.004221594788860493,0.0017756835054029854,0.0002921442257093286,1.8800603227673687e-05,4.7324822336360233e-07,4.65960316236301e-09
9.5,0.0,2.5514463481986516e-274,5.831127291883326e-175,1.8704498965685803e-103,3.210690857476285e-55,1.1244525596945644e-25,3.0634119106009867e-10,0.0002475270397614775,0.0022616441366618742,0.0014361480128263911,0.0003121546486900047,2.3165361763113853e-05,5.869580200997356e-07,5.077777536551071e-09
10.5,0.0,0.0,1.4346675754223988e-242,4.576759257914083e-149,7.792244214182385e-84,8.713650230502965e-42,7.876008090084984e-18,7.081349460080151e-07,0.0007794084761683583,0.0009574733190168451,0.00028528937827955214,2.362358123191336e-05,5.436345867010306e-07,3.476719345874701e-09
11.5,0.0,0.0,0.0,1.1043617676280226e-208,1.7319683346195436e-122,1.0744242285529562e-64,1.2540433357029082e-29,1.3099172042040964e-11,5.82456293660627e-05,0.0005244024085714157,0.00023890934755273812,2.238707165352812e-05,4.314736733379918e-07,1.7104255708979763e-09
12.5,0.0,0.0,0.0,1.3382884398843753e-285,1.1440591591683012e-173,3.0632245622851784e-96,5.862537370022621e-47,1.8302637782810413e-19,2.1271977044807919e-07,0.0002100453027181863,0.00018225811689593973,2.094754659636266e-05,3.208311371515074e-07,6.548124304744163e-10
13.5,0.0,0.0,0.0,0.0,1.5962675036591134e-240,9.693489085755763e-139,1.75216891261842e-71,1.3403746604760567e-31,6.169697083207294e-12,2.429527786144053e-05,0.00011027879594293137,1.8670100518772182e-05,2.258279735991671e-07,1.9515750615225528e-10
14.5,0.0,0.0,0.0,0.0,0.0,4.274944780741427e-195,2.94001799521568e-105,2.019051678763129e-49,1.685455385292804e-19,2.0818713032292584e-07,4.631820290189731e-05,1.557911412305228e-05,1.6032251113773126e-07,4.8132055367579726e-11
15.5,0.0,0.0,0.0,0.0,0.0,4.960772054941788e-269,6.500247124489412e-151,1.0285905665344159e-74,3.0259552620188478e-31,2.5477979791624857e-11,9.452032766667447e-06,1.1160774439461534e-05,1.2119330488821427e-07,1.0566639515907049e-11
16.5,0.0,0.0,0.0,0.0,0.0,0.0,7.274127552077006e-212,8.731928006378742e-110,1.179250078647107e-48,5.653693939838195e-18,3.0363607427223627e-07,5.553146602799832e-06,1.0050681703221185e-07,2.263604506584774e-12
17.5,0.0,0.0,0.0,0.0,0.0,0.0,1.295027775804286e-292,1.1355512884385714e-157,1.1472802632787333e-73,1.5793672207494466e-28,3.503186673295613e-10,1.4805590554668313e-06,8.880438077270599e-08,5.2983003218842e-13
18.5,0.0,0.0,0.0,0.0,0.0,0.0,0.0,1.9616490948752017e-222,7.16536489592795e-109,1.6118282932922256e-44,2.1200651640987744e-15,1.548160972416771e-07,7.144568905723813e-08,1.5372390226889486e-13
