Hs,3.5,4.5,5.5,6.5,7.5,8.5,9.5,10.5,11.5,12.5,13.5,14.5,15.5,16.5
0.5,2.6753072719752644e-11,5.069830610986685e-09,1.7738014469109356e-07,1.6194410508499418e-06,5.309417490175441e-06,8.534329002127116e-06,9.26182858635378e-06,6.955673356617859e-06,2.8577412072254343e-06,6.296563647961686e-07,7.420313677569746e-08,4.662277919835144e-09,1.5566900604624198e-10,2.7535021248300733e-12
1.5,2.8344707864465894e-10,3.5023846896126883e-07,4.584589202102812e-05,0.0009726352005624829,0.005116591755196851,0.010210829667535072,0.011826576110139498,0.010116954212049226,0.0048199312849268525,0.0012508325690510306,0.00017681731301531762,1.361500057493088e-05,5.71054835246215e-07,1.3046836921992114e-08
2.5,8.111129696723078e-13,1.6922571394128015e-08,1.8274553577960217e-05,0.0017238018244559357,0.02396915694289966,0.08291016342458714,0.12039739713784664,0.11983362841300603,0.07814345207390963,0.030655915888128965,0.007235088013114811,0.0010272618530257616,8.774579704016658e-05,4.508990342795943e-06
3.5,2.3146231791306686e-18,2.791099218087879e-12,6.489873364464791e-08,5.596287625008895e-05,0.0034419422227432634,0.02903914031933772,0.06463644350828845,0.07299978038238301,0.05986071576404631,0.031995241858641305,0.01114357813659768,0.0025290633087669966,0.00037401628527307997,3.604268175847492e-05
4.5,7.943997635905057e-27,3.611502546144236e-18,7.882063913915375e-12,1.8980310541928814e-07,0.00011590072094624771,0.004124739735257949,0.01966267857792724,0.028855769036144115,0.027298424281923406,0.01801285517259324,0.008100380345165989,0.0024825965153654813,0.0005185429665985239,7.381442324448954e-05
5.5,1.103568255555159e-39,3.583433441006017e-27,7.502782298271234e-18,2.986789868698067e-11,6.666268120225869e-07,0.0002459762236702799,0.004424581395207331,0.01144080059249173,0.012420265553818338,0.009530824637436482,0.0050269584047887205,0.0018224487331437603,0.00045413038855704187,7.778234345432727e-05
6.5,6.621813857574814e-60,1.8206648637714413e-41,1.6287328678536284e-27,2.0026775829502058e-17,1.4298420294588503e-10,2.5041217875015966e-06,0.00045445168765359805,0.0036104339097163094,0.00530450671291778,0.004623975956659838,0.0027054272528344277,0.0010574482546308328,0.0002761120496024541,4.816311478886021e-05
7.5,6.569268257800278e-93,4.9440697663420215e-65,1.2084655749697895e-43,6.9426193774075874e-28,6.784363196808738e-17,8.161101222786282e-10,8.745802416987958e-06,0.0006042533430764342,0.001947889183022597,0.0019595329096713703,0.0012460045616071416,0.00049228703104132,0.0001208506106181692,1.8433635486740966e-05
8.5,3.7795941669425632e-149,1.3841759475961802e-105,9.749637744263183e-72,2.2220824503803733e-46,2.756955932911109e-28,3.1327151012445394e-16,5.4847502182883584e-09,2.489207730427665e-05,0.0004926712477011469,0.0007140800019625137,0.0005029600379495102,0.0001924913228792193,4.002947570341096e-05,4.523136708536169e-06
9.5,2.1704436633717717e-250,2.8361056648491322e-179,2.2076051149744668e-123,6.983323937345778e-81,6.124371330162252e-50,1.015865213376121e-28,2.174215703800097e-15,4.096168848454082e-08,4.6342394843491356e-05,0.00021479353919857288,0.00017847579477124292,6.527065306138002e-05,1.03093470529117e-05,7.032648805618019e-07
10.5,0.0,5e-323,3.154991835363712e-225,7.261620607041957e-150,5.23841980893343e-94,9.865465232902095e-55,4.0402148579434886e-29,2.9969539403880494e-14,3.354003308543986e-07,4.71708618880333e-05,6.277613620534141e-05,2.2933192206932267e-05,2.460981957269691e-06,7.757581341518612e-08
11.5,0.0,0.0,0.0,8.114520041272342e-302,8.789193838846046e-193,2.007098748613938e-114,1.1283232202974347e-61,1.823286831678362e-29,9.888826217740861e-13,2.1019112278448462e-06,2.0444451666772782e-05,8.846513461032638e-06,5.904201444541355e-07,6.063183722621704e-09
12.5,0.0,0.0,0.0,0.0,0.0,1.6982240360505765e-271,4.0467549559352844e-150,7.616855987309378e-73,1.0268490504904628e-29,8.990929711820321e-11,4.6363353924874705e-06,3.868890877856911e-06,1.6211513320447907e-07,3.5120058751535595e-10
13.5,0.0,0.0,0.0,0.0,0.0,0.0,0.0,1.0623018975110962e-197,4.78743594471553e-83,7.595746839509976e-27,2.9770464080429028e-08,1.7361791337958487e-06,6.087768636900237e-08,1.7317679794094773e-11
14.5,0.0,0.0,0.0,0.0,0.0,0.0,0.0,1.5923276123757523e-260,1.3168919782579422e-118,5.9530400090699285e-43,1.0321278695417186e-12,4.815810558894093e-07,3.4161829867453026e-08,9.005641734420937e-13
15.5,0.0,0.0,0.0,0.0,0.0,0.0,0.0,0.0,1.9601989723436964e-163,2.0118269909683692e-65,1.2518564649537129e-20,3.3138054418942806e-08,3.349144736519634e-08,1.0135558664597936e-13
16.5,0.0,0.0,0.0,0.0,0.0,0.0,0.0,0.0,1.3615556949516308e-218,2.4778114643199606e-95,4.39990245932713e-33,5.349274873160696e-11,2.9295281864777572e-08,6.161164490613652e-14
17.5,0.0,0.0,0.0,0.0,0.0,0.0,0.0,0.0,3.8674158164614265e-285,9.552497233001367e-134,3.772391506303759e-51,1.671304235307887e-16,5.828654571073908e-09,5.087471498591077e-13
18.5,0.0,0.0,0.0,0.0,0.0,0.0,0.0,0.0,0.0,1.005890938688855e-181,6.748120030412432e-76,8.472293650211105e-26,1.3968205982303265e-10,4.4302389312786194e-11
