Hs,3.5,4.5,5.5,6.5,7.5,8.5,9.5,10.5,11.5,12.5,13.5,14.5,15.5,16.5
0.5,8.408566175888696e-21,2.4569946163128203e-14,1.5785474909388523e-10,1.3347347711609975e-08,7.63736167466727e-08,1.0345195528910901e-07,5.798670350274612e-08,1.0974326505042595e-08,6.775648848959925e-10,1.341846403683598e-11,8.406894834260718e-14,1.6506698772978447e-16,1.0098387048018717e-19,1.7903322039952938e-23
1.5,8.330131104770333e-23,2.1613527992822998e-13,1.6030193463070473e-07,0.00023348489760762967,0.004588316953825665,0.008357767150240714,0.006375556305667935,0.0019466085149199095,0.0002328108930134304,1.0906668654443763e-05,2.0014515754263822e-07,1.4386733513317453e-09,4.050824763577335e-12,4.467749944262025e-15
2.5,3.6194026300854414e-30,1.2434185397954036e-17,1.8443061512719468e-09,0.00010147414594268063,0.01779327894165407,0.08542918053143314,0.09217312721283477,0.05516986922978397,0.01775501619842791,0.0030722862505188466,0.0002858405031973944,1.4299055252077095e-05,3.846027692287869e-07,5.562102087016637e-09
3.5,1.6564067152555258e-41,5.514593353946704e-25,8.196135220256227e-14,6.056899454439498e-07,0.0024787558859606304,0.06256851014258319,0.10849583015987065,0.08758017164527089,0.04117248083601691,0.011240873530949666,0.00178231666891167,0.000164119980794712,8.776671179203672e-06,2.725774845761473e-07
4.5,4.751670166909882e-57,1.924495651860432e-35,2.2538428914029595e-20,1.151015317925803e-10,3.865485307606096e-05,0.01287381046556926,0.06412170420891412,0.06538273349959418,0.038993064411598354,0.013505275325046529,0.0027165099437262566,0.0003173298579989105,2.1527934193281782e-05,8.481751779180759e-07
5.5,6.890540982407027e-78,8.616731150035588e-50,1.1284004925200681e-29,3.3317432320497714e-16,4.775549439114744e-08,0.0007154425442783059,0.024120250043414997,0.039398303614780604,0.029800362220408057,0.013090533447674723,0.0033395267610791955,0.0004947710643034919,4.257115559215432e-05,2.1272491909982593e-06
6.5,8.013911076069336e-106,1.9835734861204244e-69,8.988353660370999e-43,2.4463754424088622e-24,1.3120795925991203e-12,4.549612262160742e-06,0.0033461756951781306,0.017126407039493002,0.016350868439247216,0.009107373187902537,0.0029460303928204616,0.0005534432495350972,6.0381062083946115e-05,3.825781675040784e-06
7.5,3.4483003971054e-143,3.70915512780952e-96,5.08819294351171e-61,4.8243744365179666e-36,1.7134739205775534e-19,1.2355013888031928e-09,9.801858256680794e-05,0.004637065513929526,0.0070387101003942,0.004970027336351511,0.0020380566801470046,0.0004853617188842617,6.712844136177666e-05,5.39186970168357e-06
8.5,3.2615475403841037e-193,1.7478695837014395e-132,2.574156207675834e-86,1.0318998844631644e-52,1.1152012703949498e-29,3.2182383430918957e-15,2.456227809283205e-07,0.0004910670624284716,0.0025472461887147174,0.002270538773832734,0.0011800401392274282,0.00035616924781141666,6.243208508754969e-05,6.35551929632672e-06
9.5,2.189478066743017e-260,6.323749347408774e-182,2.38564653220207e-121,2.4178883399661835e-76,1.3541487472002483e-44,8.619811815202723e-24,1.2827197189159409e-11,9.178455891687546e-06,0.0006495500794448573,0.0009012798574351497,0.0005935194958684519,0.00022698758000545106,5.041514049231527e-05,6.502968500963371e-06
10.5,0.0,1.9168967934929186e-249,6.1268860121620235e-170,8.53329631367711e-110,2.6050292652213127e-66,8.768189727450726e-37,1.6367849394098655e-18,8.523941286003204e-09,6.229299676172258e-05,0.0003213444044775412,0.000267336206703315,0.0001295178260150672,3.644123545089882e-05,5.954542782411034e-06
11.5,0.0,0.0,1.3700344569936275e-237,3.15342877218031e-157,7.174310294926042e-98,2.453198063047688e-56,1.9171236632826642e-29,5.206458750597519e-14,7.471697096732595e-07,8.61569537657327e-05,0.00010758652843559515,6.601332576427895e-05,2.3523238601568985e-05,4.8680428894263505e-06
12.5,0.0,0.0,0.0,9.75126152139722e-225,8.858418429910894e-144,1.1766977101114442e-85,1.3881475556480385e-46,8.833179150900894e-23,1.841440969908438e-10,7.638473848096003e-06,3.829235686072086e-05,2.9741625029066242e-05,1.3419290265726251e-05,3.5163021128250407e-06
13.5,0.0,0.0,0.0,2.14e-321,8.639950263685026e-211,1.3488111024970993e-129,2.862541459161786e-73,2.9069956860740446e-37,4.972332046093068e-17,5.042317357663856e-08,1.0670523657998131e-05,1.183894419456435e-05,6.76199242070444e-06,2.2429942869035264e-06
14.5,0.0,0.0,0.0,0.0,3.2155858585816e-309,1.2005969222974978e-195,1.0290737261470136e-114,6.852222932494803e-61,1.1994324328329823e-28,1.8676822138391707e-12,8.754606886452146e-07,4.161397812780892e-06,3.0081216617840787e-06,1.2628254946762145e-06
15.5,0.0,0.0,0.0,0.0,0.0,1.3928356776018645e-295,3.277302169389516e-179,3.2448686324288655e-99,8.877118766945255e-49,4.406273648966885e-21,2.6057075437527248e-09,1.2054935522904176e-06,1.1806779471122375e-06,6.271501888075213e-07
16.5,0.0,0.0,0.0,0.0,0.0,0.0,3.010149708060004e-280,2.1321251180512176e-161,2.91677247368034e-83,2.662119850843734e-37,5.5996095988532135e-15,9.37697803481507e-08,4.0859923548006595e-07,2.745539050807182e-07
17.5,0.0,0.0,0.0,0.0,0.0,0.0,0.0,6.260254595835559e-263,3.7010661120256995e-142,3.908666479534772e-67,5.738032839975942e-27,9.111624380096239e-11,1.2178468283777407e-07,1.0587640613886736e-07
18.5,0.0,0.0,0.0,0.0,0.0,0.0,0.0,0.0,2.728953930869587e-243,1.6207022769482818e-121,2.678705486663017e-51,1.9258081798600473e-18,9.412805172551615e-09,3.593721275141286e-08
