Hs,3.5,4.5,5.5,6.5,7.5,8.5,9.5,10.5,11.5,12.5,13.5,14.5,15.5,16.5
0.5,8.56376537696018e-06,0.005273567561156248,0.017753098012721794,0.012206543408622164,0.0040799435403942146,0.0006886238734436397,5.9900057070127465e-05,2.7149184595488983e-06,6.434896739056933e-08,7.971617986666552e-10,5.1492857738359575e-12,1.729471247811924e-14,2.989266757145073e-17,0.0
1.5,3.801963922825192e-13,0.0007539246212353724,0.18987519310130263,0.21211791207348307,0.12188270127274005,0.04090577598087681,0.008018719795490433,0.000918128095841118,6.140155286165932e-05,2.3984643594255608e-06,5.4722385529729845e-08,7.292469326015967e-10,5.676256838200775e-12,2.5806392754819628e-14
2.5,9.447252138898477e-29,1.4559266811759572e-10,0.004077858318959784,0.13084747553330783,0.11337884415950947,0.05462081528380772,0.014753541442209145,0.002234324940656452,0.00018971791167774214,9.031965860932977e-06,2.410838892047033e-07,3.607995940889591e-09,3.0274420673954795e-11,1.4242872680414925e-13
3.5,1.1287905708888214e-54,2.6318807792459403e-24,1.0784749359012441e-08,0.006308542163524966,0.04278654101964059,0.029992004470953043,0.01025185733446755,0.0017088112448510125,0.00013889292059750274,5.505041595752683e-06,1.0639851756827186e-07,1.0027785299765236e-09,4.608599351584225e-12,1.0328264692714632e-14
4.5,1.554509988741524e-93,1.7306529516838523e-47,2.173677798460976e-20,3.2488441667501063e-07,0.006095241779365964,0.01441599339974479,0.00691007855853412,0.001206185924158146,7.66722818871876e-05,1.7748243674826547e-06,1.4961158988217605e-08,4.59269869951091e-11,5.1340906538544674e-14,2.0900273641214634e-17
5.5,1.788150597311047e-148,5.006751101201005e-83,6.613833385813566e-41,5.692416782511502e-17,4.408462765720214e-06,0.004242536273425796,0.004877127605044407,0.001074708643275445,4.9157932049421696e-05,4.667375136400783e-07,9.198733818132194e-10,3.7632202388571356e-13,3.1957107213840956e-17,5.633152698100865e-22
6.5,6.004035105471164e-223,3.832844771624154e-134,3.083563333847211e-73,5.700636005824204e-35,4.415884538047284e-14,2.613492325171197e-05,0.002154859869287013,0.0012001610813445014,5.077718226864046e-05,1.5289419093280773e-07,3.276473825454797e-11,4.997073652207915e-16,5.423980608807047e-22,4.1899981942141915e-29
7.5,1.144e-320,2.6839312630251103e-204,1.3265354051016827e-120,3.353700650906112e-64,1.0533312153365603e-29,9.982010938970537e-12,6.932035416692091e-05,0.0008567820639119335,0.00011136574891624312,1.3356226919265755e-07,1.463119077371386e-12,1.463993990718796e-19,1.3380201448356764e-28,1.116991188375752e-39
8.5,0.0,3.1955684358518144e-297,1.7638230664336698e-186,6.847503771074345e-108,6.103912429633236e-56,4.0786031018436044e-25,6.66914434552579e-10,8.711896261388163e-05,0.00025968879207859265,7.85791098485677e-07,4.063392825446186e-13,3.590858735603683e-23,5.422950463886173e-37,1.399589773840409e-54
9.5,0.0,0.0,1.258379072050386e-274,1.5384939038032e-169,4.866615801474513e-96,1.7644227270518293e-48,3.2480285137975727e-21,1.3448564850894599e-08,5.548406577869487e-05,2.2550658400353994e-05,7.570727420532858e-12,1.8101357343159163e-25,3.0823348906090065e-46,3.738037475148718e-74
10.5,0.0,0.0,0.0,6.316970816741801e-253,1.6417212926023558e-153,4.4971551525524727e-85,7.88269128191667e-42,5.367347320464031e-18,8.618739247566456e-08,1.9814219619837683e-05,3.0219046258415884e-08,4.875610030661227e-24,1.2219535336602084e-53,4.757271557252448e-97
11.5,0.0,0.0,0.0,0.0,3.629685767566595e-232,1.96464268161848e-138,5.085621132173858e-75,5.291907125855153e-36,1.8605875343502427e-15,1.857888229703452e-07,4.428764051602852e-06,1.367382556421816e-16,6.329507821596704e-54,2.865015899706822e-118
12.5,0.0,0.0,0.0,0.0,0.0,2.1122993069698401e-212,2.386503966398224e-124,6.55581960554164e-66,5.150685675484544e-31,1.361417746059806e-13,1.4240366358742196e-07,2.7859605308912544e-07,2.1148701800468046e-40,8.470165038349868e-127
13.5,0.0,0.0,0.0,0.0,0.0,3.703000788014e-311,1.0713942174066062e-193,2.5959606375299905e-111,8.768034763420098e-58,6.871694158453262e-27,2.080102918661671e-12,4.048249875083234e-08,9.105865655615792e-15,7.371878783222477e-106
14.5,0.0,0.0,0.0,0.0,0.0,0.0,2.6787065665375444e-287,3.8592881877636855e-176,2.117076691631367e-99,1.0537505840134325e-50,1.1340585245341618e-23,6.288601175660907e-12,4.2817186649125034e-09,2.8844380635267734e-47
15.5,0.0,0.0,0.0,0.0,0.0,0.0,0.0,1.0347954821179578e-264,7.145922032655933e-160,9.651252229338421e-89,8.802889734896874e-45,1.872309421552632e-21,3.206530011275732e-12,1.526837724417766e-10
16.5,0.0,0.0,0.0,0.0,0.0,0.0,0.0,0.0,1.1089277909891035e-243,3.623648816682674e-145,1.353433063514954e-79,2.9275894232483984e-40,1.858237098813099e-20,1.7536564379536904e-13
17.5,0.0,0.0,0.0,0.0,0.0,0.0,0.0,0.0,0.0,5.643045521439531e-225,8.85689003349518e-133,1.0644690494015879e-72,7.379867625785525e-38,2.2233483564613752e-21
18.5,0.0,0.0,0.0,0.0,0.0,0.0,0.0,0.0,0.0,0.0,2.576569679029141e-214,2.0326659311038078e-128,9.505562479389324e-74,2.9919383413922835e-43
